[
  {
    "link_thumb": "https://live.staticflickr.com/65535/49743247877_3868e1f44c_n.jpg",
    "id_album": "-316663319",
    "description": "KAWAII060420214913169",
    "title": "KAWAII060420214913169",
    "link_img": "https://live.staticflickr.com/65535/49743247877_8f7720baea_o.jpg",
    "id_image": "KAWAII060420214913169",
    "count_view": 0
  },
  {
    "link_thumb": "https://live.staticflickr.com/65535/49548635651_3666feeb14_n.jpg",
    "id_album": "1396902986",
    "description": "KAWAII170220223448",
    "title": "KAWAII170220223448",
    "link_img": "https://live.staticflickr.com/65535/49548635651_1d233f666d_o.jpg",
    "id_image": "KAWAII170220223448",
    "count_view": 0
  },
  {
    "link_thumb": "https://live.staticflickr.com/65535/49694219401_04e4444cf2_n.jpg",
    "id_album": "-643980979",
    "description": "KAWAII24032022050238",
    "title": "KAWAII24032022050238",
    "link_img": "https://live.staticflickr.com/65535/49694219401_863f4476c1_o.jpg",
    "id_image": "KAWAII24032022050238",
    "count_view": 0
  },
  {
    "link_thumb": "https://live.staticflickr.com/65535/49548611391_66f9798221_n.jpg",
    "id_album": "-1432180061",
    "description": "KAWAII12091848",
    "title": "KAWAII12091848",
    "link_img": "https://live.staticflickr.com/65535/49548611391_173cf43b70_o.jpg",
    "id_image": "KAWAII12091848",
    "count_view": 0
  },
  {
    "link_thumb": "https://live.staticflickr.com/65535/49548904132_d7952a7245_n.jpg",
    "id_album": "-1432180061",
    "description": "KAWAII1702202236274",
    "title": "KAWAII1702202236274",
    "link_img": "https://live.staticflickr.com/65535/49548904132_0e885dabcf_o.jpg",
    "id_image": "KAWAII1702202236274",
    "count_view": 0
  },
  {
    "link_thumb": "https://live.staticflickr.com/65535/49727434356_c3ff8953bd_n.jpg",
    "id_album": "-1497779911",
    "description": "KAWAII1702202235125",
    "title": "KAWAII1702202235125",
    "link_img": "https://live.staticflickr.com/65535/49727434356_b768281799_o.jpg",
    "id_image": "KAWAII1702202235125",
    "count_view": 0
  },
  {
    "link_thumb": "https://live.staticflickr.com/65535/49548090478_e14671db02_n.jpg",
    "id_album": "-422187261",
    "description": "KAWAII120918308",
    "title": "KAWAII120918308",
    "link_img": "https://live.staticflickr.com/65535/49548090478_68298f952a_o.jpg",
    "id_image": "KAWAII120918308",
    "count_view": 0
  },
  {
    "link_thumb": "https://live.staticflickr.com/65535/49548842647_98cc1d909e_n.jpg",
    "id_album": "-422187261",
    "description": "KAWAII12091866",
    "title": "KAWAII12091866",
    "link_img": "https://live.staticflickr.com/65535/49548842647_e426b9680e_o.jpg",
    "id_image": "KAWAII12091866",
    "count_view": 0
  },
  {
    "link_thumb": "https://live.staticflickr.com/65535/49694100821_84ee9e3f06_n.jpg",
    "id_album": "1201366373",
    "description": "KAWAII12091832",
    "title": "KAWAII12091832",
    "link_img": "https://live.staticflickr.com/65535/49694100821_68c3afc405_o.jpg",
    "id_image": "KAWAII12091832",
    "count_view": 0
  },
  {
    "link_thumb": "https://live.staticflickr.com/65535/49727744167_ae7810e661_n.jpg",
    "id_album": "-1497779911",
    "description": "KAWAII020420194508116",
    "title": "KAWAII020420194508116",
    "link_img": "https://live.staticflickr.com/65535/49727744167_3dea6310e9_o.jpg",
    "id_image": "KAWAII020420194508116",
    "count_view": 0
  },
  {
    "link_thumb": "https://live.staticflickr.com/65535/49694117356_8149fb4ae4_n.jpg",
    "id_album": "-643980979",
    "description": "KAWAII17022023465",
    "title": "KAWAII17022023465",
    "link_img": "https://live.staticflickr.com/65535/49694117356_dd7c59f695_o.jpg",
    "id_image": "KAWAII17022023465",
    "count_view": 0
  },
  {
    "link_thumb": "https://live.staticflickr.com/65535/49548094108_e9f197e480_n.jpg",
    "id_album": "1396902986",
    "description": "KAWAII120918323",
    "title": "KAWAII120918323",
    "link_img": "https://live.staticflickr.com/65535/49548094108_881d048ace_o.jpg",
    "id_image": "KAWAII120918323",
    "count_view": 0
  },
  {
    "link_thumb": "https://live.staticflickr.com/65535/49548930407_6094d1e5b5_n.jpg",
    "id_album": "-422187261",
    "description": "KAWAII1702202237391",
    "title": "KAWAII1702202237391",
    "link_img": "https://live.staticflickr.com/65535/49548930407_6f625a7635_o.jpg",
    "id_image": "KAWAII1702202237391",
    "count_view": 0
  },
  {
    "link_thumb": "https://live.staticflickr.com/65535/49726895508_e686aef6da_n.jpg",
    "id_album": "742877173",
    "description": "KAWAII02042019450836",
    "title": "KAWAII02042019450836",
    "link_img": "https://live.staticflickr.com/65535/49726895508_4a1e11b6b3_o.jpg",
    "id_image": "KAWAII02042019450836",
    "count_view": 0
  },
  {
    "link_thumb": "https://live.staticflickr.com/65535/49592708451_8824c137ec_n.jpg",
    "id_album": "1396902986",
    "description": "KAWAII270220235141",
    "title": "KAWAII270220235141",
    "link_img": "https://live.staticflickr.com/65535/49592708451_7b6f016983_o.jpg",
    "id_image": "KAWAII270220235141",
    "count_view": 0
  },
  {
    "link_thumb": "https://live.staticflickr.com/65535/49727754687_0ef88fd8c3_n.jpg",
    "id_album": "-316663319",
    "description": "KAWAII02042019451298",
    "title": "KAWAII02042019451298",
    "link_img": "https://live.staticflickr.com/65535/49727754687_d35c90e8e0_o.jpg",
    "id_image": "KAWAII02042019451298",
    "count_view": 0
  },
  {
    "link_thumb": "https://live.staticflickr.com/65535/49711147167_74ea5921e5_n.jpg",
    "id_album": "-1599896063",
    "description": "LITTLEMONK2903201206428",
    "title": "LITTLEMONK2903201206428",
    "link_img": "https://live.staticflickr.com/65535/49711147167_a8450135b1_o.jpg",
    "id_image": "LITTLEMONK2903201206428",
    "count_view": 0
  },
  {
    "link_thumb": "https://live.staticflickr.com/65535/49727437841_c5fcc38879_n.jpg",
    "id_album": "-316663319",
    "description": "KAWAII0204201945103",
    "title": "KAWAII0204201945103",
    "link_img": "https://live.staticflickr.com/65535/49727437841_e533bc7326_o.jpg",
    "id_image": "KAWAII0204201945103",
    "count_view": 0
  },
  {
    "link_thumb": "https://live.staticflickr.com/65535/49694428222_2c96ddc16f_n.jpg",
    "id_album": "-358592519",
    "description": "KAWAII1702202237329",
    "title": "KAWAII1702202237329",
    "link_img": "https://live.staticflickr.com/65535/49694428222_2f534c562f_o.jpg",
    "id_image": "KAWAII1702202237329",
    "count_view": 0
  },
  {
    "link_thumb": "https://live.staticflickr.com/65535/49548829712_507eb00ccd_n.jpg",
    "id_album": "-1099943053",
    "description": "KAWAII120918349",
    "title": "KAWAII120918349",
    "link_img": "https://live.staticflickr.com/65535/49548829712_07620e2619_o.jpg",
    "id_image": "KAWAII120918349",
    "count_view": 0
  },
  {
    "link_thumb": "https://live.staticflickr.com/65535/49548807387_2f23a09639_n.jpg",
    "id_album": "-1741487325",
    "description": "KAWAII12091826",
    "title": "KAWAII12091826",
    "link_img": "https://live.staticflickr.com/65535/49548807387_3f7d724a79_o.jpg",
    "id_image": "KAWAII12091826",
    "count_view": 0
  },
  {
    "link_thumb": "https://live.staticflickr.com/65535/49548734856_2e5ceddcba_n.jpg",
    "id_album": "-422187261",
    "description": "KAWAII1702202239509",
    "title": "KAWAII1702202239509",
    "link_img": "https://live.staticflickr.com/65535/49548734856_21e734e710_o.jpg",
    "id_image": "KAWAII1702202239509",
    "count_view": 0
  },
  {
    "link_thumb": "https://live.staticflickr.com/65535/49694064456_6ea5d4102b_n.jpg",
    "id_album": "1699819648",
    "description": "KAWAII0503202021271",
    "title": "KAWAII0503202021271",
    "link_img": "https://live.staticflickr.com/65535/49694064456_7c237f1e94_o.jpg",
    "id_image": "KAWAII0503202021271",
    "count_view": 0
  },
  {
    "link_thumb": "https://live.staticflickr.com/65535/49743282302_88444c1c8e_n.jpg",
    "id_album": "1226948986",
    "description": "KAWAII060420214918291",
    "title": "KAWAII060420214918291",
    "link_img": "https://live.staticflickr.com/65535/49743282302_540f70f218_o.jpg",
    "id_image": "KAWAII060420214918291",
    "count_view": 0
  },
  {
    "link_thumb": "https://live.staticflickr.com/65535/49622794561_b9ce3ed083_n.jpg",
    "id_album": "-422187261",
    "description": "KAWAII0503202021148",
    "title": "KAWAII0503202021148",
    "link_img": "https://live.staticflickr.com/65535/49622794561_0a47f2ed86_o.jpg",
    "id_image": "KAWAII0503202021148",
    "count_view": 0
  },
  {
    "link_thumb": "https://live.staticflickr.com/65535/49592711266_9f1c10e4a6_n.jpg",
    "id_album": "-1741487325",
    "description": "KAWAII2702202351135",
    "title": "KAWAII2702202351135",
    "link_img": "https://live.staticflickr.com/65535/49592711266_c98eb4866d_o.jpg",
    "id_image": "KAWAII2702202351135",
    "count_view": 0
  },
  {
    "link_thumb": "https://live.staticflickr.com/65535/49742928611_e115991e55_n.jpg",
    "id_album": "-316663319",
    "description": "KAWAII060420214915247",
    "title": "KAWAII060420214915247",
    "link_img": "https://live.staticflickr.com/65535/49742928611_c3a8ea8e41_o.jpg",
    "id_image": "KAWAII060420214915247",
    "count_view": 0
  },
  {
    "link_thumb": "https://live.staticflickr.com/65535/49622806061_acc7361557_n.jpg",
    "id_album": "-1741487325",
    "description": "KAWAII0503202021132",
    "title": "KAWAII0503202021132",
    "link_img": "https://live.staticflickr.com/65535/49622806061_f780ea6420_o.jpg",
    "id_image": "KAWAII0503202021132",
    "count_view": 0
  },
  {
    "link_thumb": "https://live.staticflickr.com/65535/49727786567_53f487c2c8_n.jpg",
    "id_album": "-1862561193",
    "description": "KAWAII02042019451318",
    "title": "KAWAII02042019451318",
    "link_img": "https://live.staticflickr.com/65535/49727786567_55a0f50465_o.jpg",
    "id_image": "KAWAII02042019451318",
    "count_view": 0
  },
  {
    "link_thumb": "https://live.staticflickr.com/65535/49623118772_bae39237f8_n.jpg",
    "id_album": "-406350429",
    "description": "KAWAII0503202021261",
    "title": "KAWAII0503202021261",
    "link_img": "https://live.staticflickr.com/65535/49623118772_c63f4c843d_o.jpg",
    "id_image": "KAWAII0503202021261",
    "count_view": 0
  },
  {
    "link_thumb": "https://live.staticflickr.com/65535/49694390842_cf645194aa_n.jpg",
    "id_album": "1201366373",
    "description": "KAWAII120918184",
    "title": "KAWAII120918184",
    "link_img": "https://live.staticflickr.com/65535/49694390842_24e3c3fd67_o.jpg",
    "id_image": "KAWAII120918184",
    "count_view": 0
  },
  {
    "link_thumb": "https://live.staticflickr.com/65535/49693528313_e2a2db57d1_n.jpg",
    "id_album": "-643980979",
    "description": "KAWAII0503202021188",
    "title": "KAWAII0503202021188",
    "link_img": "https://live.staticflickr.com/65535/49693528313_4748d2da47_o.jpg",
    "id_image": "KAWAII0503202021188",
    "count_view": 0
  },
  {
    "link_thumb": "https://live.staticflickr.com/65535/49727443351_559cf78630_n.jpg",
    "id_album": "742877173",
    "description": "KAWAII02042019450867",
    "title": "KAWAII02042019450867",
    "link_img": "https://live.staticflickr.com/65535/49727443351_48a92a949e_o.jpg",
    "id_image": "KAWAII02042019450867",
    "count_view": 0
  },
  {
    "link_thumb": "https://live.staticflickr.com/65535/49548096408_75317da3fd_n.jpg",
    "id_album": "-316663319",
    "description": "KAWAII120918332",
    "title": "KAWAII120918332",
    "link_img": "https://live.staticflickr.com/65535/49548096408_d743bc575a_o.jpg",
    "id_image": "KAWAII120918332",
    "count_view": 0
  },
  {
    "link_thumb": "https://live.staticflickr.com/65535/49548178683_c280d6555e_n.jpg",
    "id_album": "1396902986",
    "description": "KAWAII1702202236288",
    "title": "KAWAII1702202236288",
    "link_img": "https://live.staticflickr.com/65535/49548178683_ec0acac767_o.jpg",
    "id_image": "KAWAII1702202236288",
    "count_view": 0
  },
  {
    "link_thumb": "https://live.staticflickr.com/65535/49693537968_aa5e3cc05d_n.jpg",
    "id_album": "1201366373",
    "description": "KAWAII120918113",
    "title": "KAWAII120918113",
    "link_img": "https://live.staticflickr.com/65535/49693537968_6df86be63b_o.jpg",
    "id_image": "KAWAII120918113",
    "count_view": 0
  },
  {
    "link_thumb": "https://live.staticflickr.com/65535/49548582101_8411607161_n.jpg",
    "id_album": "-1741487325",
    "description": "KAWAII120918266",
    "title": "KAWAII120918266",
    "link_img": "https://live.staticflickr.com/65535/49548582101_4076cf9316_o.jpg",
    "id_image": "KAWAII120918266",
    "count_view": 0
  },
  {
    "link_thumb": "https://live.staticflickr.com/65535/49727437116_04fe3d752f_n.jpg",
    "id_album": "-316663319",
    "description": "KAWAII020420194510210",
    "title": "KAWAII020420194510210",
    "link_img": "https://live.staticflickr.com/65535/49727437116_db41a81af1_o.jpg",
    "id_image": "KAWAII020420194510210",
    "count_view": 0
  },
  {
    "link_thumb": "https://live.staticflickr.com/65535/49622842546_d246727f5d_n.jpg",
    "id_album": "-406350429",
    "description": "KAWAII0503202021129",
    "title": "KAWAII0503202021129",
    "link_img": "https://live.staticflickr.com/65535/49622842546_1fdb3f8ea0_o.jpg",
    "id_image": "KAWAII0503202021129",
    "count_view": 0
  },
  {
    "link_thumb": "https://live.staticflickr.com/65535/49622293143_c3bc3c28f8_n.jpg",
    "id_album": "-1432180061",
    "description": "KAWAII050320202144",
    "title": "KAWAII050320202144",
    "link_img": "https://live.staticflickr.com/65535/49622293143_5ca737778f_o.jpg",
    "id_image": "KAWAII050320202144",
    "count_view": 0
  },
  {
    "link_thumb": "https://live.staticflickr.com/65535/49694429272_8f48347926_n.jpg",
    "id_album": "1563362783",
    "description": "KAWAII1209182518022020594",
    "title": "KAWAII1209182518022020594",
    "link_img": "https://live.staticflickr.com/65535/49694429272_744e12888f_o.jpg",
    "id_image": "KAWAII1209182518022020594",
    "count_view": 0
  },
  {
    "link_thumb": "https://live.staticflickr.com/65535/49742922581_d0b3e956a5_n.jpg",
    "id_album": "-316663319",
    "description": "KAWAII06042021491251",
    "title": "KAWAII06042021491251",
    "link_img": "https://live.staticflickr.com/65535/49742922581_95c1951bc4_o.jpg",
    "id_image": "KAWAII06042021491251",
    "count_view": 0
  },
  {
    "link_thumb": "https://live.staticflickr.com/65535/49592714866_6f627c0f8c_n.jpg",
    "id_album": "-316663319",
    "description": "KAWAII2702202351133",
    "title": "KAWAII2702202351133",
    "link_img": "https://live.staticflickr.com/65535/49592714866_e095f49d99_o.jpg",
    "id_image": "KAWAII2702202351133",
    "count_view": 0
  },
  {
    "link_thumb": "https://live.staticflickr.com/65535/49592712246_0a39d9e57d_n.jpg",
    "id_album": "-1741487325",
    "description": "KAWAII270220235172",
    "title": "KAWAII270220235172",
    "link_img": "https://live.staticflickr.com/65535/49592712246_a0141f481e_o.jpg",
    "id_image": "KAWAII270220235172",
    "count_view": 0
  },
  {
    "link_thumb": "https://live.staticflickr.com/65535/49548903547_a7812df0f8_n.jpg",
    "id_album": "-422187261",
    "description": "KAWAII1702202236271",
    "title": "KAWAII1702202236271",
    "link_img": "https://live.staticflickr.com/65535/49548903547_c91e97f61d_o.jpg",
    "id_image": "KAWAII1702202236271",
    "count_view": 0
  },
  {
    "link_thumb": "https://live.staticflickr.com/65535/49622834286_33b4a5bf90_n.jpg",
    "id_album": "-316663319",
    "description": "KAWAII050320202139",
    "title": "KAWAII050320202139",
    "link_img": "https://live.staticflickr.com/65535/49622834286_570e0604cd_o.jpg",
    "id_image": "KAWAII050320202139",
    "count_view": 0
  },
  {
    "link_thumb": "https://live.staticflickr.com/65535/49548773177_31f579de61_n.jpg",
    "id_album": "-422187261",
    "description": "KAWAII120918109",
    "title": "KAWAII120918109",
    "link_img": "https://live.staticflickr.com/65535/49548773177_bd5a376797_o.jpg",
    "id_image": "KAWAII120918109",
    "count_view": 0
  },
  {
    "link_thumb": "https://live.staticflickr.com/65535/49548624096_f438edf6e3_n.jpg",
    "id_album": "1396902986",
    "description": "KAWAII170220223318",
    "title": "KAWAII170220223318",
    "link_img": "https://live.staticflickr.com/65535/49548624096_5f1f26a17b_o.jpg",
    "id_image": "KAWAII170220223318",
    "count_view": 0
  },
  {
    "link_thumb": "https://live.staticflickr.com/65535/49578975207_2c54b27a75_n.jpg",
    "id_album": "-1741487325",
    "description": "KAWAII19022021111",
    "title": "KAWAII19022021111",
    "link_img": "https://live.staticflickr.com/65535/49578975207_d8f3a27688_o.jpg",
    "id_image": "KAWAII19022021111",
    "count_view": 0
  },
  {
    "link_thumb": "https://live.staticflickr.com/65535/49548994707_c8586bc144_n.jpg",
    "id_album": "-422187261",
    "description": "KAWAII17091833",
    "title": "KAWAII17091833",
    "link_img": "https://live.staticflickr.com/65535/49548994707_a8a894a3b9_o.jpg",
    "id_image": "KAWAII17091833",
    "count_view": 0
  },
  {
    "link_thumb": "https://live.staticflickr.com/65535/49726897213_1c815472a8_n.jpg",
    "id_album": "742877173",
    "description": "KAWAII02042019450943",
    "title": "KAWAII02042019450943",
    "link_img": "https://live.staticflickr.com/65535/49726897213_f82e89b21d_o.jpg",
    "id_image": "KAWAII02042019450943",
    "count_view": 0
  },
  {
    "link_thumb": "https://live.staticflickr.com/65535/49548708806_62e207f280_n.jpg",
    "id_album": "-1099943053",
    "description": "KAWAII1702202238412",
    "title": "KAWAII1702202238412",
    "link_img": "https://live.staticflickr.com/65535/49548708806_dddb75f40c_o.jpg",
    "id_image": "KAWAII1702202238412",
    "count_view": 0
  },
  {
    "link_thumb": "https://live.staticflickr.com/65535/49726881418_509f5f6476_n.jpg",
    "id_album": "-1741487325",
    "description": "KAWAII020420194510179",
    "title": "KAWAII020420194510179",
    "link_img": "https://live.staticflickr.com/65535/49726881418_330db12473_o.jpg",
    "id_image": "KAWAII020420194510179",
    "count_view": 0
  },
  {
    "link_thumb": "https://live.staticflickr.com/65535/49693532323_7162d35f4b_n.jpg",
    "id_album": "-643980979",
    "description": "KAWAII050320202143",
    "title": "KAWAII050320202143",
    "link_img": "https://live.staticflickr.com/65535/49693532323_2bbe67359d_o.jpg",
    "id_image": "KAWAII050320202143",
    "count_view": 0
  },
  {
    "link_thumb": "https://live.staticflickr.com/65535/49592956682_371f724602_n.jpg",
    "id_album": "-316663319",
    "description": "KAWAII2702202351126",
    "title": "KAWAII2702202351126",
    "link_img": "https://live.staticflickr.com/65535/49592956682_1c70bc7d8b_o.jpg",
    "id_image": "KAWAII2702202351126",
    "count_view": 0
  },
  {
    "link_thumb": "https://live.staticflickr.com/65535/49742905991_c9c478aab5_n.jpg",
    "id_album": "-1913845949",
    "description": "KAWAII1702202235133",
    "title": "KAWAII1702202235133",
    "link_img": "https://live.staticflickr.com/65535/49742905991_788e3f3fca_o.jpg",
    "id_image": "KAWAII1702202235133",
    "count_view": 0
  },
  {
    "link_thumb": "https://live.staticflickr.com/65535/49548966717_ec63ed96ac_n.jpg",
    "id_album": "1396902986",
    "description": "KAWAII1702202239528",
    "title": "KAWAII1702202239528",
    "link_img": "https://live.staticflickr.com/65535/49548966717_58d4ff79ce_o.jpg",
    "id_image": "KAWAII1702202239528",
    "count_view": 0
  },
  {
    "link_thumb": "https://live.staticflickr.com/65535/49693681963_54f345268e_n.jpg",
    "id_album": "46674803",
    "description": "KAWAII24032022050224",
    "title": "KAWAII24032022050224",
    "link_img": "https://live.staticflickr.com/65535/49693681963_82e07e92be_o.jpg",
    "id_image": "KAWAII24032022050224",
    "count_view": 0
  },
  {
    "link_thumb": "https://live.staticflickr.com/65535/49742369103_b35dcc7e8f_n.jpg",
    "id_album": "-643980979",
    "description": "KAWAII270220235134",
    "title": "KAWAII270220235134",
    "link_img": "https://live.staticflickr.com/65535/49742369103_90c86aa867_o.jpg",
    "id_image": "KAWAII270220235134",
    "count_view": 0
  },
  {
    "link_thumb": "https://live.staticflickr.com/65535/49727433661_9a7b17c68b_n.jpg",
    "id_album": "-1497779911",
    "description": "KAWAII120918274",
    "title": "KAWAII120918274",
    "link_img": "https://live.staticflickr.com/65535/49727433661_6a4aa19005_o.jpg",
    "id_image": "KAWAII120918274",
    "count_view": 0
  },
  {
    "link_thumb": "https://live.staticflickr.com/65535/49727431301_fa11480e57_n.jpg",
    "id_album": "-1497779911",
    "description": "KAWAII0503202021134",
    "title": "KAWAII0503202021134",
    "link_img": "https://live.staticflickr.com/65535/49727431301_7604ab6cb8_o.jpg",
    "id_image": "KAWAII0503202021134",
    "count_view": 0
  },
  {
    "link_thumb": "https://live.staticflickr.com/65535/49578243278_d8c625fc7d_n.jpg",
    "id_album": "-316663319",
    "description": "KAWAII190220211111",
    "title": "KAWAII190220211111",
    "link_img": "https://live.staticflickr.com/65535/49578243278_5f54ec2737_o.jpg",
    "id_image": "KAWAII190220211111",
    "count_view": 0
  },
  {
    "link_thumb": "https://live.staticflickr.com/65535/49622286108_d4a5d67cf8_n.jpg",
    "id_album": "1396902986",
    "description": "KAWAII0503202021209",
    "title": "KAWAII0503202021209",
    "link_img": "https://live.staticflickr.com/65535/49622286108_e050d8ce17_o.jpg",
    "id_image": "KAWAII0503202021209",
    "count_view": 0
  },
  {
    "link_thumb": "https://live.staticflickr.com/65535/49548857017_a2206d4fb1_n.jpg",
    "id_album": "-1694302085",
    "description": "KAWAII17022022339",
    "title": "KAWAII17022022339",
    "link_img": "https://live.staticflickr.com/65535/49548857017_78ff7c5c27_o.jpg",
    "id_image": "KAWAII17022022339",
    "count_view": 0
  },
  {
    "link_thumb": "https://live.staticflickr.com/65535/49693529398_4cf983dddc_n.jpg",
    "id_album": "-643980979",
    "description": "KAWAII0503202021237",
    "title": "KAWAII0503202021237",
    "link_img": "https://live.staticflickr.com/65535/49693529398_102ff4eaa6_o.jpg",
    "id_image": "KAWAII0503202021237",
    "count_view": 0
  },
  {
    "link_thumb": "https://live.staticflickr.com/65535/49623075332_dbe0d6c0f1_n.jpg",
    "id_album": "1396902986",
    "description": "KAWAII0503202021275",
    "title": "KAWAII0503202021275",
    "link_img": "https://live.staticflickr.com/65535/49623075332_e5eafa7577_o.jpg",
    "id_image": "KAWAII0503202021275",
    "count_view": 0
  },
  {
    "link_thumb": "https://live.staticflickr.com/65535/49742409188_22e72030a2_n.jpg",
    "id_album": "-1431786825",
    "description": "KAWAII060420214917183",
    "title": "KAWAII060420214917183",
    "link_img": "https://live.staticflickr.com/65535/49742409188_e13fbcc783_o.jpg",
    "id_image": "KAWAII060420214917183",
    "count_view": 0
  },
  {
    "link_thumb": "https://live.staticflickr.com/65535/49548831437_5f1799ae82_n.jpg",
    "id_album": "-1741487325",
    "description": "KAWAII120918356",
    "title": "KAWAII120918356",
    "link_img": "https://live.staticflickr.com/65535/49548831437_157df654a0_o.jpg",
    "id_image": "KAWAII120918356",
    "count_view": 0
  },
  {
    "link_thumb": "https://live.staticflickr.com/65535/49742360258_9988d1a3af_n.jpg",
    "id_album": "-422187261",
    "description": "KAWAII060420214913270",
    "title": "KAWAII060420214913270",
    "link_img": "https://live.staticflickr.com/65535/49742360258_230c5dc197_o.jpg",
    "id_image": "KAWAII060420214913270",
    "count_view": 0
  },
  {
    "link_thumb": "https://live.staticflickr.com/65535/49742930621_46cbfcebfa_n.jpg",
    "id_album": "-316663319",
    "description": "KAWAII060420214917101",
    "title": "KAWAII060420214917101",
    "link_img": "https://live.staticflickr.com/65535/49742930621_c8a5efe622_o.jpg",
    "id_image": "KAWAII060420214917101",
    "count_view": 0
  },
  {
    "link_thumb": "https://live.staticflickr.com/65535/49548232588_7194aab0df_n.jpg",
    "id_album": "-316663319",
    "description": "KAWAII1702202239503",
    "title": "KAWAII1702202239503",
    "link_img": "https://live.staticflickr.com/65535/49548232588_d34785b680_o.jpg",
    "id_image": "KAWAII1702202239503",
    "count_view": 0
  },
  {
    "link_thumb": "https://live.staticflickr.com/65535/49622335103_64a8defb90_n.jpg",
    "id_album": "-406350429",
    "description": "KAWAII05032020219",
    "title": "KAWAII05032020219",
    "link_img": "https://live.staticflickr.com/65535/49622335103_1cc8197d63_o.jpg",
    "id_image": "KAWAII05032020219",
    "count_view": 0
  },
  {
    "link_thumb": "https://live.staticflickr.com/65535/49694078321_cefdee9a95_n.jpg",
    "id_album": "-643980979",
    "description": "KAWAII050320202176",
    "title": "KAWAII050320202176",
    "link_img": "https://live.staticflickr.com/65535/49694078321_1849d53d29_o.jpg",
    "id_image": "KAWAII050320202176",
    "count_view": 0
  },
  {
    "link_thumb": "https://live.staticflickr.com/65535/49548729551_d152518c25_n.jpg",
    "id_album": "-422187261",
    "description": "KAWAII1702202238491",
    "title": "KAWAII1702202238491",
    "link_img": "https://live.staticflickr.com/65535/49548729551_87dde6ce32_o.jpg",
    "id_image": "KAWAII1702202238491",
    "count_view": 0
  },
  {
    "link_thumb": "https://live.staticflickr.com/65535/49726899433_0ced87f4a6_n.jpg",
    "id_album": "742877173",
    "description": "KAWAII02042019451025",
    "title": "KAWAII02042019451025",
    "link_img": "https://live.staticflickr.com/65535/49726899433_ba505a1f61_o.jpg",
    "id_image": "KAWAII02042019451025",
    "count_view": 0
  },
  {
    "link_thumb": "https://live.staticflickr.com/65535/49742933571_6e9e9f413c_n.jpg",
    "id_album": "742877173",
    "description": "KAWAII060420214918237",
    "title": "KAWAII060420214918237",
    "link_img": "https://live.staticflickr.com/65535/49742933571_e39f3a2b2a_o.jpg",
    "id_image": "KAWAII060420214918237",
    "count_view": 0
  },
  {
    "link_thumb": "https://live.staticflickr.com/65535/49694366567_172b3e661b_n.jpg",
    "id_album": "1699819648",
    "description": "KAWAII0503202021285",
    "title": "KAWAII0503202021285",
    "link_img": "https://live.staticflickr.com/65535/49694366567_67b2ee0b66_o.jpg",
    "id_image": "KAWAII0503202021285",
    "count_view": 0
  },
  {
    "link_thumb": "https://live.staticflickr.com/65535/49693546958_bf60f7305c_n.jpg",
    "id_album": "1201366373",
    "description": "KAWAII120918205",
    "title": "KAWAII120918205",
    "link_img": "https://live.staticflickr.com/65535/49693546958_624b9d5b61_o.jpg",
    "id_image": "KAWAII120918205",
    "count_view": 0
  },
  {
    "link_thumb": "https://live.staticflickr.com/65535/49727754967_b6db8d013b_n.jpg",
    "id_album": "-316663319",
    "description": "KAWAII020420194513195",
    "title": "KAWAII020420194513195",
    "link_img": "https://live.staticflickr.com/65535/49727754967_d66f53f51c_o.jpg",
    "id_image": "KAWAII020420194513195",
    "count_view": 0
  },
  {
    "link_thumb": "https://live.staticflickr.com/65535/49548866597_0cfb98f563_n.jpg",
    "id_album": "-316663319",
    "description": "KAWAII170220223464",
    "title": "KAWAII170220223464",
    "link_img": "https://live.staticflickr.com/65535/49548866597_a1088b00c9_o.jpg",
    "id_image": "KAWAII170220223464",
    "count_view": 0
  },
  {
    "link_thumb": "https://live.staticflickr.com/65535/49726879358_9ce8e60cbd_n.jpg",
    "id_album": "-1694302085",
    "description": "KAWAII1702202235203",
    "title": "KAWAII1702202235203",
    "link_img": "https://live.staticflickr.com/65535/49726879358_ba7a714bb3_o.jpg",
    "id_image": "KAWAII1702202235203",
    "count_view": 0
  },
  {
    "link_thumb": "https://live.staticflickr.com/65535/49622282188_f7238e3cd5_n.jpg",
    "id_album": "-422187261",
    "description": "KAWAII0503202021330",
    "title": "KAWAII0503202021330",
    "link_img": "https://live.staticflickr.com/65535/49622282188_7f6aa8f2ff_o.jpg",
    "id_image": "KAWAII0503202021330",
    "count_view": 0
  },
  {
    "link_thumb": "https://live.staticflickr.com/65535/49694077156_c5fd24ec02_n.jpg",
    "id_album": "1201366373",
    "description": "KAWAII050320202157",
    "title": "KAWAII050320202157",
    "link_img": "https://live.staticflickr.com/65535/49694077156_9f3764fdb2_o.jpg",
    "id_image": "KAWAII050320202157",
    "count_view": 0
  },
  {
    "link_thumb": "https://live.staticflickr.com/65535/49549724838_49f72f0e2b_n.jpg",
    "id_album": "-1694302085",
    "description": "KAWAII12091834",
    "title": "KAWAII12091834",
    "link_img": "https://live.staticflickr.com/65535/49549724838_77a3d2a921_o.jpg",
    "id_image": "KAWAII12091834",
    "count_view": 0
  },
  {
    "link_thumb": "https://live.staticflickr.com/65535/49743256457_b3730c7fbf_n.jpg",
    "id_album": "-316663319",
    "description": "KAWAII06042021491793",
    "title": "KAWAII06042021491793",
    "link_img": "https://live.staticflickr.com/65535/49743256457_c81101e369_o.jpg",
    "id_image": "KAWAII06042021491793",
    "count_view": 0
  },
  {
    "link_thumb": "https://live.staticflickr.com/65535/49693585708_88c3f8b717_n.jpg",
    "id_album": "1226948986",
    "description": "TOTORO220320154111",
    "title": "TOTORO220320154111",
    "link_img": "https://live.staticflickr.com/65535/49693585708_d75025b389_o.jpg",
    "id_image": "TOTORO220320154111",
    "count_view": 0
  },
  {
    "link_thumb": "https://live.staticflickr.com/65535/49694120256_28cdfc4b93_n.jpg",
    "id_album": "-643980979",
    "description": "KAWAII1709186",
    "title": "KAWAII1709186",
    "link_img": "https://live.staticflickr.com/65535/49694120256_9b5ee318c4_o.jpg",
    "id_image": "KAWAII1709186",
    "count_view": 0
  },
  {
    "link_thumb": "https://live.staticflickr.com/65535/49727742027_652122fdb0_n.jpg",
    "id_album": "-1694302085",
    "description": "KAWAII190220211125",
    "title": "KAWAII190220211125",
    "link_img": "https://live.staticflickr.com/65535/49727742027_caa66c7ef6_o.jpg",
    "id_image": "KAWAII190220211125",
    "count_view": 0
  },
  {
    "link_thumb": "https://live.staticflickr.com/65535/49742952006_e9716ab44a_n.jpg",
    "id_album": "-1862561193",
    "description": "KAWAII0604202149153",
    "title": "KAWAII0604202149153",
    "link_img": "https://live.staticflickr.com/65535/49742952006_73b3e51801_o.jpg",
    "id_image": "KAWAII0604202149153",
    "count_view": 0
  },
  {
    "link_thumb": "https://live.staticflickr.com/65535/49578750876_bea642f332_n.jpg",
    "id_album": "-1694302085",
    "description": "KAWAII190220211135",
    "title": "KAWAII190220211135",
    "link_img": "https://live.staticflickr.com/65535/49578750876_721cb6ccf2_o.jpg",
    "id_image": "KAWAII190220211135",
    "count_view": 0
  },
  {
    "link_thumb": "https://live.staticflickr.com/65535/49742949226_03384e63de_n.jpg",
    "id_album": "1396902986",
    "description": "KAWAII06042021491527",
    "title": "KAWAII06042021491527",
    "link_img": "https://live.staticflickr.com/65535/49742949226_a8176444e2_o.jpg",
    "id_image": "KAWAII06042021491527",
    "count_view": 0
  },
  {
    "link_thumb": "https://live.staticflickr.com/65535/49548613636_486776df81_n.jpg",
    "id_album": "-1741487325",
    "description": "KAWAII1209186",
    "title": "KAWAII1209186",
    "link_img": "https://live.staticflickr.com/65535/49548613636_d72c4dae0a_o.jpg",
    "id_image": "KAWAII1209186",
    "count_view": 0
  },
  {
    "link_thumb": "https://live.staticflickr.com/65535/49694391837_91d382ac68_n.jpg",
    "id_album": "-643980979",
    "description": "KAWAII120918195",
    "title": "KAWAII120918195",
    "link_img": "https://live.staticflickr.com/65535/49694391837_956d7e832f_o.jpg",
    "id_image": "KAWAII120918195",
    "count_view": 0
  },
  {
    "link_thumb": "https://live.staticflickr.com/65535/49693543258_a0562319da_n.jpg",
    "id_album": "1201366373",
    "description": "KAWAII120918170",
    "title": "KAWAII120918170",
    "link_img": "https://live.staticflickr.com/65535/49693543258_81c88d8bb9_o.jpg",
    "id_image": "KAWAII120918170",
    "count_view": 0
  },
  {
    "link_thumb": "https://live.staticflickr.com/65535/49727439666_4d7308a57b_n.jpg",
    "id_album": "-316663319",
    "description": "KAWAII020420194512154",
    "title": "KAWAII020420194512154",
    "link_img": "https://live.staticflickr.com/65535/49727439666_09f88a6c49_o.jpg",
    "id_image": "KAWAII020420194512154",
    "count_view": 0
  },
  {
    "link_thumb": "https://live.staticflickr.com/65535/49592961752_8a46053810_n.jpg",
    "id_album": "-316663319",
    "description": "KAWAII270220235165",
    "title": "KAWAII270220235165",
    "link_img": "https://live.staticflickr.com/65535/49592961752_f7ab543b0a_o.jpg",
    "id_image": "KAWAII270220235165",
    "count_view": 0
  },
  {
    "link_thumb": "https://live.staticflickr.com/65535/49727784282_3fa89588d1_n.jpg",
    "id_album": "-1862561193",
    "description": "KAWAII02042019451140",
    "title": "KAWAII02042019451140",
    "link_img": "https://live.staticflickr.com/65535/49727784282_4ed66233ee_o.jpg",
    "id_image": "KAWAII02042019451140",
    "count_view": 0
  },
  {
    "link_thumb": "https://live.staticflickr.com/65535/49742381618_be01198362_n.jpg",
    "id_album": "-316663319",
    "description": "KAWAII060420214915303",
    "title": "KAWAII060420214915303",
    "link_img": "https://live.staticflickr.com/65535/49742381618_782033aaac_o.jpg",
    "id_image": "KAWAII060420214915303",
    "count_view": 0
  },
  {
    "link_thumb": "https://live.staticflickr.com/65535/49742409703_a2a1850435_n.jpg",
    "id_album": "-1431786825",
    "description": "KAWAII060420214918188",
    "title": "KAWAII060420214918188",
    "link_img": "https://live.staticflickr.com/65535/49742409703_58075f483e_o.jpg",
    "id_image": "KAWAII060420214918188",
    "count_view": 0
  },
  {
    "link_thumb": "https://live.staticflickr.com/65535/49694127511_dfcb8f8d26_n.jpg",
    "id_album": "-755466332",
    "description": "KAWAII120918329",
    "title": "KAWAII120918329",
    "link_img": "https://live.staticflickr.com/65535/49694127511_fd11edfdf7_o.jpg",
    "id_image": "KAWAII120918329",
    "count_view": 0
  },
  {
    "link_thumb": "https://live.staticflickr.com/65535/49727446656_3d400cb0f2_n.jpg",
    "id_album": "742877173",
    "description": "KAWAII020420194510205",
    "title": "KAWAII020420194510205",
    "link_img": "https://live.staticflickr.com/65535/49727446656_4aba0d4041_o.jpg",
    "id_image": "KAWAII020420194510205",
    "count_view": 0
  },
  {
    "link_thumb": "https://live.staticflickr.com/65535/49727744267_0183ce4807_n.jpg",
    "id_album": "-1497779911",
    "description": "KAWAII020420194508164",
    "title": "KAWAII020420194508164",
    "link_img": "https://live.staticflickr.com/65535/49727744267_fe042c0027_o.jpg",
    "id_image": "KAWAII020420194508164",
    "count_view": 0
  },
  {
    "link_thumb": "https://live.staticflickr.com/65535/49548683561_6e5e2794e0_n.jpg",
    "id_album": "1396902986",
    "description": "KAWAII1702202236307",
    "title": "KAWAII1702202236307",
    "link_img": "https://live.staticflickr.com/65535/49548683561_27952153b6_o.jpg",
    "id_image": "KAWAII1702202236307",
    "count_view": 0
  },
  {
    "link_thumb": "https://live.staticflickr.com/65535/49694223546_248e7c2f8b_n.jpg",
    "id_album": "1396902986",
    "description": "KAWAII24032022050162",
    "title": "KAWAII24032022050162",
    "link_img": "https://live.staticflickr.com/65535/49694223546_490113feb3_o.jpg",
    "id_image": "KAWAII24032022050162",
    "count_view": 0
  },
  {
    "link_thumb": "https://live.staticflickr.com/65535/49726881143_d4a10af099_n.jpg",
    "id_album": "-1741487325",
    "description": "KAWAII02042019450827",
    "title": "KAWAII02042019450827",
    "link_img": "https://live.staticflickr.com/65535/49726881143_99a3e5255f_o.jpg",
    "id_image": "KAWAII02042019450827",
    "count_view": 0
  },
  {
    "link_thumb": "https://live.staticflickr.com/65535/49548866362_12816ef6b5_n.jpg",
    "id_album": "-1432180061",
    "description": "KAWAII170220223463",
    "title": "KAWAII170220223463",
    "link_img": "https://live.staticflickr.com/65535/49548866362_4041334eae_o.jpg",
    "id_image": "KAWAII170220223463",
    "count_view": 0
  },
  {
    "link_thumb": "https://live.staticflickr.com/65535/49693562108_97c407f7ed_n.jpg",
    "id_album": "1201366373",
    "description": "KAWAII12091895",
    "title": "KAWAII12091895",
    "link_img": "https://live.staticflickr.com/65535/49693562108_078679f628_o.jpg",
    "id_image": "KAWAII12091895",
    "count_view": 0
  },
  {
    "link_thumb": "https://live.staticflickr.com/65535/49727765507_72ed327b7e_n.jpg",
    "id_album": "742877173",
    "description": "KAWAII020420194513228",
    "title": "KAWAII020420194513228",
    "link_img": "https://live.staticflickr.com/65535/49727765507_ef2e736a73_o.jpg",
    "id_image": "KAWAII020420194513228",
    "count_view": 0
  },
  {
    "link_thumb": "https://live.staticflickr.com/65535/49726922683_2146701424_n.jpg",
    "id_album": "-1862561193",
    "description": "KAWAII02042019451154",
    "title": "KAWAII02042019451154",
    "link_img": "https://live.staticflickr.com/65535/49726922683_e269b73430_o.jpg",
    "id_image": "KAWAII02042019451154",
    "count_view": 0
  },
  {
    "link_thumb": "https://live.staticflickr.com/65535/49694111601_9f55f2da0d_n.jpg",
    "id_album": "-643980979",
    "description": "KAWAII1702202237395",
    "title": "KAWAII1702202237395",
    "link_img": "https://live.staticflickr.com/65535/49694111601_c1d2752b4c_o.jpg",
    "id_image": "KAWAII1702202237395",
    "count_view": 0
  },
  {
    "link_thumb": "https://live.staticflickr.com/65535/49694064926_e7c66077c3_n.jpg",
    "id_album": "1699819648",
    "description": "KAWAII0503202021297",
    "title": "KAWAII0503202021297",
    "link_img": "https://live.staticflickr.com/65535/49694064926_6c9622cecc_o.jpg",
    "id_image": "KAWAII0503202021297",
    "count_view": 0
  },
  {
    "link_thumb": "https://live.staticflickr.com/65535/49694073681_26a46d7531_n.jpg",
    "id_album": "-643980979",
    "description": "KAWAII0503202021264",
    "title": "KAWAII0503202021264",
    "link_img": "https://live.staticflickr.com/65535/49694073681_c3e9af1c12_o.jpg",
    "id_image": "KAWAII0503202021264",
    "count_view": 0
  },
  {
    "link_thumb": "https://live.staticflickr.com/65535/49548925482_76aa3720cf_n.jpg",
    "id_album": "-422187261",
    "description": "KAWAII1702202237369",
    "title": "KAWAII1702202237369",
    "link_img": "https://live.staticflickr.com/65535/49548925482_ec816fe0df_o.jpg",
    "id_image": "KAWAII1702202237369",
    "count_view": 0
  },
  {
    "link_thumb": "https://live.staticflickr.com/65535/49623081207_309c899daa_n.jpg",
    "id_album": "-1741487325",
    "description": "KAWAII050320202190",
    "title": "KAWAII050320202190",
    "link_img": "https://live.staticflickr.com/65535/49623081207_5fd50b8331_o.jpg",
    "id_image": "KAWAII050320202190",
    "count_view": 0
  },
  {
    "link_thumb": "https://live.staticflickr.com/65535/49726887613_bb3ab772c0_n.jpg",
    "id_album": "-1497779911",
    "description": "KAWAII1702202239545",
    "title": "KAWAII1702202239545",
    "link_img": "https://live.staticflickr.com/65535/49726887613_f69b805638_o.jpg",
    "id_image": "KAWAII1702202239545",
    "count_view": 0
  },
  {
    "link_thumb": "https://live.staticflickr.com/65535/49693557238_c6b6635ea4_n.jpg",
    "id_album": "1201366373",
    "description": "KAWAII120918309",
    "title": "KAWAII120918309",
    "link_img": "https://live.staticflickr.com/65535/49693557238_c50d74d2b9_o.jpg",
    "id_image": "KAWAII120918309",
    "count_view": 0
  },
  {
    "link_thumb": "https://live.staticflickr.com/65535/49694423912_b880bbe826_n.jpg",
    "id_album": "-643980979",
    "description": "KAWAII2702202351150",
    "title": "KAWAII2702202351150",
    "link_img": "https://live.staticflickr.com/65535/49694423912_eb973bbf79_o.jpg",
    "id_image": "KAWAII2702202351150",
    "count_view": 0
  },
  {
    "link_thumb": "https://live.staticflickr.com/65535/49548112553_abe2621fa0_n.jpg",
    "id_album": "-422187261",
    "description": "KAWAII12091863",
    "title": "KAWAII12091863",
    "link_img": "https://live.staticflickr.com/65535/49548112553_4c15e165d9_o.jpg",
    "id_image": "KAWAII12091863",
    "count_view": 0
  },
  {
    "link_thumb": "https://live.staticflickr.com/65535/49592949777_fc39988613_n.jpg",
    "id_album": "1396902986",
    "description": "KAWAII270220235115",
    "title": "KAWAII270220235115",
    "link_img": "https://live.staticflickr.com/65535/49592949777_f8055c5f8e_o.jpg",
    "id_image": "KAWAII270220235115",
    "count_view": 0
  },
  {
    "link_thumb": "https://live.staticflickr.com/65535/49548903742_c5a43ab67f_n.jpg",
    "id_album": "-316663319",
    "description": "KAWAII1702202236272",
    "title": "KAWAII1702202236272",
    "link_img": "https://live.staticflickr.com/65535/49548903742_3a39d3472c_o.jpg",
    "id_image": "KAWAII1702202236272",
    "count_view": 0
  },
  {
    "link_thumb": "https://live.staticflickr.com/65535/49726878558_b8a8b44afd_n.jpg",
    "id_album": "-1694302085",
    "description": "KAWAII0503202021156",
    "title": "KAWAII0503202021156",
    "link_img": "https://live.staticflickr.com/65535/49726878558_27c639290a_o.jpg",
    "id_image": "KAWAII0503202021156",
    "count_view": 0
  },
  {
    "link_thumb": "https://live.staticflickr.com/65535/49726900093_f832526a51_n.jpg",
    "id_album": "742877173",
    "description": "KAWAII020420194511145",
    "title": "KAWAII020420194511145",
    "link_img": "https://live.staticflickr.com/65535/49726900093_e05e1fa3a0_o.jpg",
    "id_image": "KAWAII020420194511145",
    "count_view": 0
  },
  {
    "link_thumb": "https://live.staticflickr.com/65535/49548917217_2f20948f47_n.jpg",
    "id_album": "-422187261",
    "description": "KAWAII1702202237335",
    "title": "KAWAII1702202237335",
    "link_img": "https://live.staticflickr.com/65535/49548917217_99103157a4_o.jpg",
    "id_image": "KAWAII1702202237335",
    "count_view": 0
  },
  {
    "link_thumb": "https://live.staticflickr.com/65535/49623096527_6a91efda4c_n.jpg",
    "id_album": "-316663319",
    "description": "KAWAII0503202021220",
    "title": "KAWAII0503202021220",
    "link_img": "https://live.staticflickr.com/65535/49623096527_6dbf6469bf_o.jpg",
    "id_image": "KAWAII0503202021220",
    "count_view": 0
  },
  {
    "link_thumb": "https://live.staticflickr.com/65535/49742915511_a4026f2a42_n.jpg",
    "id_album": "-1497779911",
    "description": "KAWAII060420214915314",
    "title": "KAWAII060420214915314",
    "link_img": "https://live.staticflickr.com/65535/49742915511_069aeb92a1_o.jpg",
    "id_image": "KAWAII060420214915314",
    "count_view": 0
  },
  {
    "link_thumb": "https://live.staticflickr.com/65535/49742915231_bdcaf55483_n.jpg",
    "id_album": "-1497779911",
    "description": "KAWAII06042021491499",
    "title": "KAWAII06042021491499",
    "link_img": "https://live.staticflickr.com/65535/49742915231_530e7591da_o.jpg",
    "id_image": "KAWAII06042021491499",
    "count_view": 0
  },
  {
    "link_thumb": "https://live.staticflickr.com/65535/49727778447_499e3b725c_n.jpg",
    "id_album": "1396902986",
    "description": "KAWAII020420194509204",
    "title": "KAWAII020420194509204",
    "link_img": "https://live.staticflickr.com/65535/49727778447_9e3f6db098_o.jpg",
    "id_image": "KAWAII020420194509204",
    "count_view": 0
  },
  {
    "link_thumb": "https://live.staticflickr.com/65535/49727740802_83a4165e0b_n.jpg",
    "id_album": "-1694302085",
    "description": "KAWAII0503202021319",
    "title": "KAWAII0503202021319",
    "link_img": "https://live.staticflickr.com/65535/49727740802_f6b9d9ccb8_o.jpg",
    "id_image": "KAWAII0503202021319",
    "count_view": 0
  },
  {
    "link_thumb": "https://live.staticflickr.com/65535/49548230953_8ac345f2c0_n.jpg",
    "id_album": "-1741487325",
    "description": "KAWAII1702202238497",
    "title": "KAWAII1702202238497",
    "link_img": "https://live.staticflickr.com/65535/49548230953_f32cb29135_o.jpg",
    "id_image": "KAWAII1702202238497",
    "count_view": 0
  },
  {
    "link_thumb": "https://live.staticflickr.com/65535/49548732716_c1b3db900e_n.jpg",
    "id_album": "-422187261",
    "description": "KAWAII1702202239502",
    "title": "KAWAII1702202239502",
    "link_img": "https://live.staticflickr.com/65535/49548732716_9fd25203e7_o.jpg",
    "id_image": "KAWAII1702202239502",
    "count_view": 0
  },
  {
    "link_thumb": "https://live.staticflickr.com/65535/49694385397_00b09b98ba_n.jpg",
    "id_album": "1201366373",
    "description": "KAWAII120918122",
    "title": "KAWAII120918122",
    "link_img": "https://live.staticflickr.com/65535/49694385397_5c25b2ca6f_o.jpg",
    "id_image": "KAWAII120918122",
    "count_view": 0
  },
  {
    "link_thumb": "https://live.staticflickr.com/65535/49694525352_e0861033b7_n.jpg",
    "id_album": "-1432180061",
    "description": "KAWAII17022023464",
    "title": "KAWAII17022023464",
    "link_img": "https://live.staticflickr.com/65535/49694525352_07bed07793_o.jpg",
    "id_image": "KAWAII17022023464",
    "count_view": 0
  },
  {
    "link_thumb": "https://live.staticflickr.com/65535/49592718056_4a8399aa96_n.jpg",
    "id_album": "-316663319",
    "description": "KAWAII27022023514",
    "title": "KAWAII27022023514",
    "link_img": "https://live.staticflickr.com/65535/49592718056_19fffa64ea_o.jpg",
    "id_image": "KAWAII27022023514",
    "count_view": 0
  },
  {
    "link_thumb": "https://live.staticflickr.com/65535/49548630381_63d31e5726_n.jpg",
    "id_album": "-1432180061",
    "description": "KAWAII1702202234106",
    "title": "KAWAII1702202234106",
    "link_img": "https://live.staticflickr.com/65535/49548630381_ede726d8da_o.jpg",
    "id_image": "KAWAII1702202234106",
    "count_view": 0
  },
  {
    "link_thumb": "https://live.staticflickr.com/65535/49693549593_4b8e5f1b2c_n.jpg",
    "id_album": "1201366373",
    "description": "KAWAII120918228",
    "title": "KAWAII120918228",
    "link_img": "https://live.staticflickr.com/65535/49693549593_926417a85b_o.jpg",
    "id_image": "KAWAII120918228",
    "count_view": 0
  },
  {
    "link_thumb": "https://live.staticflickr.com/65535/49693531088_f8aa4fc009_n.jpg",
    "id_album": "1201366373",
    "description": "KAWAII0503202021294",
    "title": "KAWAII0503202021294",
    "link_img": "https://live.staticflickr.com/65535/49693531088_828666a701_o.jpg",
    "id_image": "KAWAII0503202021294",
    "count_view": 0
  },
  {
    "link_thumb": "https://live.staticflickr.com/65535/49548226593_ab0fbceb32_n.jpg",
    "id_album": "-422187261",
    "description": "KAWAII1702202238480",
    "title": "KAWAII1702202238480",
    "link_img": "https://live.staticflickr.com/65535/49548226593_99ae3b87b7_o.jpg",
    "id_image": "KAWAII1702202238480",
    "count_view": 0
  },
  {
    "link_thumb": "https://live.staticflickr.com/65535/49548093483_9ab45cb624_n.jpg",
    "id_album": "-1099943053",
    "description": "KAWAII120918320",
    "title": "KAWAII120918320",
    "link_img": "https://live.staticflickr.com/65535/49548093483_a370cd9c27_o.jpg",
    "id_image": "KAWAII120918320",
    "count_view": 0
  },
  {
    "link_thumb": "https://live.staticflickr.com/65535/49727469631_da5e3d1ea9_n.jpg",
    "id_album": "-1862561193",
    "description": "KAWAII020420194511194",
    "title": "KAWAII020420194511194",
    "link_img": "https://live.staticflickr.com/65535/49727469631_c02d13e981_o.jpg",
    "id_image": "KAWAII020420194511194",
    "count_view": 0
  },
  {
    "link_thumb": "https://live.staticflickr.com/65535/49548180303_ee417ed302_n.jpg",
    "id_album": "1396902986",
    "description": "KAWAII1702202236296",
    "title": "KAWAII1702202236296",
    "link_img": "https://live.staticflickr.com/65535/49548180303_e1d6316ffd_o.jpg",
    "id_image": "KAWAII1702202236296",
    "count_view": 0
  },
  {
    "link_thumb": "https://live.staticflickr.com/65535/49622808686_2516abf137_n.jpg",
    "id_album": "-1741487325",
    "description": "KAWAII050320202173",
    "title": "KAWAII050320202173",
    "link_img": "https://live.staticflickr.com/65535/49622808686_4f6b8249d3_o.jpg",
    "id_image": "KAWAII050320202173",
    "count_view": 0
  },
  {
    "link_thumb": "https://live.staticflickr.com/65535/49548110983_1e71a4b2c7_n.jpg",
    "id_album": "-1432180061",
    "description": "KAWAII12091854",
    "title": "KAWAII12091854",
    "link_img": "https://live.staticflickr.com/65535/49548110983_320ca9e4dc_o.jpg",
    "id_image": "KAWAII12091854",
    "count_view": 0
  },
  {
    "link_thumb": "https://live.staticflickr.com/65535/49742912051_2dd184ee26_n.jpg",
    "id_album": "-1741487325",
    "description": "KAWAII060420214912194",
    "title": "KAWAII060420214912194",
    "link_img": "https://live.staticflickr.com/65535/49742912051_c0027a0bb3_o.jpg",
    "id_image": "KAWAII060420214912194",
    "count_view": 0
  },
  {
    "link_thumb": "https://live.staticflickr.com/65535/49548979192_8701e062fe_n.jpg",
    "id_album": "-1431786825",
    "description": "KAWAII1702202239579",
    "title": "KAWAII1702202239579",
    "link_img": "https://live.staticflickr.com/65535/49548979192_dbd6fac7f5_o.jpg",
    "id_image": "KAWAII1702202239579",
    "count_view": 0
  },
  {
    "link_thumb": "https://live.staticflickr.com/65535/49694077516_8d3d9517bb_n.jpg",
    "id_album": "-643980979",
    "description": "KAWAII050320202167",
    "title": "KAWAII050320202167",
    "link_img": "https://live.staticflickr.com/65535/49694077516_f2232cf1c9_o.jpg",
    "id_image": "KAWAII050320202167",
    "count_view": 0
  },
  {
    "link_thumb": "https://live.staticflickr.com/65535/49727759597_d1afff97f9_n.jpg",
    "id_album": "742877173",
    "description": "KAWAII020420194510107",
    "title": "KAWAII020420194510107",
    "link_img": "https://live.staticflickr.com/65535/49727759597_b05e372b1b_o.jpg",
    "id_image": "KAWAII020420194510107",
    "count_view": 0
  },
  {
    "link_thumb": "https://live.staticflickr.com/65535/49742950451_7db9483b51_n.jpg",
    "id_album": "-1862561193",
    "description": "KAWAII0604202149126",
    "title": "KAWAII0604202149126",
    "link_img": "https://live.staticflickr.com/65535/49742950451_bf6196a714_o.jpg",
    "id_image": "KAWAII0604202149126",
    "count_view": 0
  },
  {
    "link_thumb": "https://live.staticflickr.com/65535/49548600941_c97c21e536_n.jpg",
    "id_album": "-422187261",
    "description": "KAWAII120918343",
    "title": "KAWAII120918343",
    "link_img": "https://live.staticflickr.com/65535/49548600941_e8e8a58049_o.jpg",
    "id_image": "KAWAII120918343",
    "count_view": 0
  },
  {
    "link_thumb": "https://live.staticflickr.com/65535/49548624861_25dfed5587_n.jpg",
    "id_album": "-316663319",
    "description": "KAWAII170220223321",
    "title": "KAWAII170220223321",
    "link_img": "https://live.staticflickr.com/65535/49548624861_ea60be6153_o.jpg",
    "id_image": "KAWAII170220223321",
    "count_view": 0
  },
  {
    "link_thumb": "https://live.staticflickr.com/65535/49742406923_1631d0f5fc_n.jpg",
    "id_album": "-1431786825",
    "description": "KAWAII06042021491268",
    "title": "KAWAII06042021491268",
    "link_img": "https://live.staticflickr.com/65535/49742406923_797826b5f0_o.jpg",
    "id_image": "KAWAII06042021491268",
    "count_view": 0
  },
  {
    "link_thumb": "https://live.staticflickr.com/65535/49623074512_72ec37dba4_n.jpg",
    "id_album": "1396902986",
    "description": "KAWAII050320202124",
    "title": "KAWAII050320202124",
    "link_img": "https://live.staticflickr.com/65535/49623074512_8a5df48ac3_o.jpg",
    "id_image": "KAWAII050320202124",
    "count_view": 0
  },
  {
    "link_thumb": "https://live.staticflickr.com/65535/49694126256_4dc9484853_n.jpg",
    "id_album": "-1431786825",
    "description": "KAWAII270220235197",
    "title": "KAWAII270220235197",
    "link_img": "https://live.staticflickr.com/65535/49694126256_a9edd582f5_o.jpg",
    "id_image": "KAWAII270220235197",
    "count_view": 0
  },
  {
    "link_thumb": "https://live.staticflickr.com/65535/49592211593_d8bbd64d7a_n.jpg",
    "id_album": "-316663319",
    "description": "KAWAII2702202351116",
    "title": "KAWAII2702202351116",
    "link_img": "https://live.staticflickr.com/65535/49592211593_9bcae88091_o.jpg",
    "id_image": "KAWAII2702202351116",
    "count_view": 0
  },
  {
    "link_thumb": "https://live.staticflickr.com/65535/49548575331_8576900620_n.jpg",
    "id_album": "-316663319",
    "description": "KAWAII120918231",
    "title": "KAWAII120918231",
    "link_img": "https://live.staticflickr.com/65535/49548575331_cc77fbf7e5_o.jpg",
    "id_image": "KAWAII120918231",
    "count_view": 0
  },
  {
    "link_thumb": "https://live.staticflickr.com/65535/49743240127_a27ab55489_n.jpg",
    "id_album": "-643980979",
    "description": "KAWAII060420214915151",
    "title": "KAWAII060420214915151",
    "link_img": "https://live.staticflickr.com/65535/49743240127_0e1c01ba4a_o.jpg",
    "id_image": "KAWAII060420214915151",
    "count_view": 0
  },
  {
    "link_thumb": "https://live.staticflickr.com/65535/49743275962_48012dd7d3_n.jpg",
    "id_album": "-1862561193",
    "description": "KAWAII060420214917269",
    "title": "KAWAII060420214917269",
    "link_img": "https://live.staticflickr.com/65535/49743275962_ff52811d6c_o.jpg",
    "id_image": "KAWAII060420214917269",
    "count_view": 0
  },
  {
    "link_thumb": "https://live.staticflickr.com/65535/49742903211_fcd07ca84a_n.jpg",
    "id_album": "-1913845949",
    "description": "KAWAII06042021491513",
    "title": "KAWAII06042021491513",
    "link_img": "https://live.staticflickr.com/65535/49742903211_a219540e98_o.jpg",
    "id_image": "KAWAII06042021491513",
    "count_view": 0
  },
  {
    "link_thumb": "https://live.staticflickr.com/65535/49694419002_e65fc5005a_n.jpg",
    "id_album": "-643980979",
    "description": "KAWAII170220234618",
    "title": "KAWAII170220234618",
    "link_img": "https://live.staticflickr.com/65535/49694419002_8ab9b82634_o.jpg",
    "id_image": "KAWAII170220234618",
    "count_view": 0
  },
  {
    "link_thumb": "https://live.staticflickr.com/65535/49548781432_bbf23e809a_n.jpg",
    "id_album": "-316663319",
    "description": "KAWAII12091814",
    "title": "KAWAII12091814",
    "link_img": "https://live.staticflickr.com/65535/49548781432_02ef9ac37d_o.jpg",
    "id_image": "KAWAII12091814",
    "count_view": 0
  },
  {
    "link_thumb": "https://live.staticflickr.com/65535/49623069322_56a5a0f0ea_n.jpg",
    "id_album": "-422187261",
    "description": "KAWAII0503202021236",
    "title": "KAWAII0503202021236",
    "link_img": "https://live.staticflickr.com/65535/49623069322_0491e6eca9_o.jpg",
    "id_image": "KAWAII0503202021236",
    "count_view": 0
  },
  {
    "link_thumb": "https://live.staticflickr.com/65535/49727763977_e863d26ff9_n.jpg",
    "id_album": "742877173",
    "description": "KAWAII020420194512253",
    "title": "KAWAII020420194512253",
    "link_img": "https://live.staticflickr.com/65535/49727763977_92c1b7021c_o.jpg",
    "id_image": "KAWAII020420194512253",
    "count_view": 0
  },
  {
    "link_thumb": "https://live.staticflickr.com/65535/49726920793_d5f069a07f_n.jpg",
    "id_album": "-1862561193",
    "description": "KAWAII0204201945111",
    "title": "KAWAII0204201945111",
    "link_img": "https://live.staticflickr.com/65535/49726920793_d6b6f36c3f_o.jpg",
    "id_image": "KAWAII0204201945111",
    "count_view": 0
  },
  {
    "link_thumb": "https://live.staticflickr.com/65535/49693528903_122ff17fb2_n.jpg",
    "id_album": "-643980979",
    "description": "KAWAII0503202021221",
    "title": "KAWAII0503202021221",
    "link_img": "https://live.staticflickr.com/65535/49693528903_94f5696501_o.jpg",
    "id_image": "KAWAII0503202021221",
    "count_view": 0
  },
  {
    "link_thumb": "https://live.staticflickr.com/65535/49622284898_9e965641df_n.jpg",
    "id_album": "1396902986",
    "description": "KAWAII0503202021155",
    "title": "KAWAII0503202021155",
    "link_img": "https://live.staticflickr.com/65535/49622284898_19d82e608c_o.jpg",
    "id_image": "KAWAII0503202021155",
    "count_view": 0
  },
  {
    "link_thumb": "https://live.staticflickr.com/65535/49693562678_666524c205_n.jpg",
    "id_album": "1201366373",
    "description": "KAWAII17022022333",
    "title": "KAWAII17022022333",
    "link_img": "https://live.staticflickr.com/65535/49693562678_002115e5c4_o.jpg",
    "id_image": "KAWAII17022022333",
    "count_view": 0
  },
  {
    "link_thumb": "https://live.staticflickr.com/65535/49694127156_caf5214d04_n.jpg",
    "id_album": "1563362783",
    "description": "KAWAII1702202239565",
    "title": "KAWAII1702202239565",
    "link_img": "https://live.staticflickr.com/65535/49694127156_61cf2b0257_o.jpg",
    "id_image": "KAWAII1702202239565",
    "count_view": 0
  },
  {
    "link_thumb": "https://live.staticflickr.com/65535/49548730031_4400a7483c_n.jpg",
    "id_album": "-1431786825",
    "description": "KAWAII1702202238493",
    "title": "KAWAII1702202238493",
    "link_img": "https://live.staticflickr.com/65535/49548730031_a2c1c20dbf_o.jpg",
    "id_image": "KAWAII1702202238493",
    "count_view": 0
  },
  {
    "link_thumb": "https://live.staticflickr.com/65535/49549001717_8ec64f1a0b_n.jpg",
    "id_album": "949200594",
    "description": "KAWAII17091858",
    "title": "KAWAII17091858",
    "link_img": "https://live.staticflickr.com/65535/49549001717_cf02f085f2_o.jpg",
    "id_image": "KAWAII17091858",
    "count_view": 0
  },
  {
    "link_thumb": "https://live.staticflickr.com/65535/49592216943_17cddedd62_n.jpg",
    "id_album": "-316663319",
    "description": "KAWAII270220235169",
    "title": "KAWAII270220235169",
    "link_img": "https://live.staticflickr.com/65535/49592216943_9690c5453f_o.jpg",
    "id_image": "KAWAII270220235169",
    "count_view": 0
  },
  {
    "link_thumb": "https://live.staticflickr.com/65535/49548708171_6d1d5e9699_n.jpg",
    "id_album": "-1741487325",
    "description": "KAWAII1702202238410",
    "title": "KAWAII1702202238410",
    "link_img": "https://live.staticflickr.com/65535/49548708171_89e5112627_o.jpg",
    "id_image": "KAWAII1702202238410",
    "count_view": 0
  },
  {
    "link_thumb": "https://live.staticflickr.com/65535/49578975347_2b3fc70b48_n.jpg",
    "id_album": "-1741487325",
    "description": "KAWAII190220211130",
    "title": "KAWAII190220211130",
    "link_img": "https://live.staticflickr.com/65535/49578975347_ba688e51c1_o.jpg",
    "id_image": "KAWAII190220211130",
    "count_view": 0
  },
  {
    "link_thumb": "https://live.staticflickr.com/65535/49694096531_6d257d2400_n.jpg",
    "id_album": "1201366373",
    "description": "KAWAII120918256",
    "title": "KAWAII120918256",
    "link_img": "https://live.staticflickr.com/65535/49694096531_ee6e497485_o.jpg",
    "id_image": "KAWAII120918256",
    "count_view": 0
  },
  {
    "link_thumb": "https://live.staticflickr.com/65535/49548219163_b7c23d2f73_n.jpg",
    "id_album": "-422187261",
    "description": "KAWAII1702202238454",
    "title": "KAWAII1702202238454",
    "link_img": "https://live.staticflickr.com/65535/49548219163_85206ac23f_o.jpg",
    "id_image": "KAWAII1702202238454",
    "count_view": 0
  },
  {
    "link_thumb": "https://live.staticflickr.com/65535/49592953622_ed10c76b9d_n.jpg",
    "id_album": "-1741487325",
    "description": "KAWAII2702202351103",
    "title": "KAWAII2702202351103",
    "link_img": "https://live.staticflickr.com/65535/49592953622_5b9fa45da4_o.jpg",
    "id_image": "KAWAII2702202351103",
    "count_view": 0
  },
  {
    "link_thumb": "https://live.staticflickr.com/65535/49742906736_e96c174ea1_n.jpg",
    "id_album": "1699819648",
    "description": "KAWAII060420214914299",
    "title": "KAWAII060420214914299",
    "link_img": "https://live.staticflickr.com/65535/49742906736_034e0f4e56_o.jpg",
    "id_image": "KAWAII060420214914299",
    "count_view": 0
  },
  {
    "link_thumb": "https://live.staticflickr.com/65535/49694130451_011541c1c3_n.jpg",
    "id_album": "431597977",
    "description": "KAWAII12091819",
    "title": "KAWAII12091819",
    "link_img": "https://live.staticflickr.com/65535/49694130451_5f5ee9beeb_o.jpg",
    "id_image": "KAWAII12091819",
    "count_view": 0
  },
  {
    "link_thumb": "https://live.staticflickr.com/65535/49742370283_264933b2a1_n.jpg",
    "id_album": "-128218148",
    "description": "KAWAII060420214912111",
    "title": "KAWAII060420214912111",
    "link_img": "https://live.staticflickr.com/65535/49742370283_50ef9d42d0_o.jpg",
    "id_image": "KAWAII060420214912111",
    "count_view": 0
  },
  {
    "link_thumb": "https://live.staticflickr.com/65535/49548671301_2ff61f3d30_n.jpg",
    "id_album": "-1099943053",
    "description": "KAWAII1702202236244",
    "title": "KAWAII1702202236244",
    "link_img": "https://live.staticflickr.com/65535/49548671301_90c4e550f5_o.jpg",
    "id_image": "KAWAII1702202236244",
    "count_view": 0
  },
  {
    "link_thumb": "https://live.staticflickr.com/65535/49578751021_24517b2d60_n.jpg",
    "id_album": "-316663319",
    "description": "KAWAII19022021119",
    "title": "KAWAII19022021119",
    "link_img": "https://live.staticflickr.com/65535/49578751021_dc150cfc10_o.jpg",
    "id_image": "KAWAII19022021119",
    "count_view": 0
  },
  {
    "link_thumb": "https://live.staticflickr.com/65535/49726898223_db6360e8d8_n.jpg",
    "id_album": "742877173",
    "description": "KAWAII020420194510152",
    "title": "KAWAII020420194510152",
    "link_img": "https://live.staticflickr.com/65535/49726898223_764fd1c933_o.jpg",
    "id_image": "KAWAII020420194510152",
    "count_view": 0
  },
  {
    "link_thumb": "https://live.staticflickr.com/65535/49622833516_ae393cdda7_n.jpg",
    "id_album": "-316663319",
    "description": "KAWAII0503202021325",
    "title": "KAWAII0503202021325",
    "link_img": "https://live.staticflickr.com/65535/49622833516_076f9d9752_o.jpg",
    "id_image": "KAWAII0503202021325",
    "count_view": 0
  },
  {
    "link_thumb": "https://live.staticflickr.com/65535/49694128691_4f0e62d6c1_n.jpg",
    "id_album": "1226948986",
    "description": "TOTORO220320154113",
    "title": "TOTORO220320154113",
    "link_img": "https://live.staticflickr.com/65535/49694128691_9b97e65182_o.jpg",
    "id_image": "TOTORO220320154113",
    "count_view": 0
  },
  {
    "link_thumb": "https://live.staticflickr.com/65535/49592974692_fd00c209aa_n.jpg",
    "id_album": "949200594",
    "description": "KAWAII270220235146",
    "title": "KAWAII270220235146",
    "link_img": "https://live.staticflickr.com/65535/49592974692_6cc0ddaf7b_o.jpg",
    "id_image": "KAWAII270220235146",
    "count_view": 0
  },
  {
    "link_thumb": "https://live.staticflickr.com/65535/49693567538_cf1f40e282_n.jpg",
    "id_album": "-643980979",
    "description": "KAWAII1702202236291",
    "title": "KAWAII1702202236291",
    "link_img": "https://live.staticflickr.com/65535/49693567538_534a3fa332_o.jpg",
    "id_image": "KAWAII1702202236291",
    "count_view": 0
  },
  {
    "link_thumb": "https://live.staticflickr.com/65535/49592977537_6b698f11fb_n.jpg",
    "id_album": "431597977",
    "description": "KAWAII2702202351127",
    "title": "KAWAII2702202351127",
    "link_img": "https://live.staticflickr.com/65535/49592977537_9ce2167b2c_o.jpg",
    "id_image": "KAWAII2702202351127",
    "count_view": 0
  },
  {
    "link_thumb": "https://live.staticflickr.com/65535/49548662521_495fec0c6f_n.jpg",
    "id_album": "1396902986",
    "description": "KAWAII1702202235199",
    "title": "KAWAII1702202235199",
    "link_img": "https://live.staticflickr.com/65535/49548662521_41402ffbc9_o.jpg",
    "id_image": "KAWAII1702202235199",
    "count_view": 0
  },
  {
    "link_thumb": "https://live.staticflickr.com/65535/49727429366_4dc911d79c_n.jpg",
    "id_album": "-1741487325",
    "description": "KAWAII02042019451286",
    "title": "KAWAII02042019451286",
    "link_img": "https://live.staticflickr.com/65535/49727429366_9d132547f7_o.jpg",
    "id_image": "KAWAII02042019451286",
    "count_view": 0
  },
  {
    "link_thumb": "https://live.staticflickr.com/65535/49743255132_4bdd550b75_n.jpg",
    "id_album": "-316663319",
    "description": "KAWAII060420214917185",
    "title": "KAWAII060420214917185",
    "link_img": "https://live.staticflickr.com/65535/49743255132_dc88868ca4_o.jpg",
    "id_image": "KAWAII060420214917185",
    "count_view": 0
  },
  {
    "link_thumb": "https://live.staticflickr.com/65535/49694123996_c9489a0f7a_n.jpg",
    "id_album": "-358592519",
    "description": "KAWAII1209182",
    "title": "KAWAII1209182",
    "link_img": "https://live.staticflickr.com/65535/49694123996_cea27b0603_o.jpg",
    "id_image": "KAWAII1209182",
    "count_view": 0
  },
  {
    "link_thumb": "https://live.staticflickr.com/65535/49694078471_063ecc0884_n.jpg",
    "id_album": "-643980979",
    "description": "KAWAII050320202177",
    "title": "KAWAII050320202177",
    "link_img": "https://live.staticflickr.com/65535/49694078471_c5ebb44ffc_o.jpg",
    "id_image": "KAWAII050320202177",
    "count_view": 0
  },
  {
    "link_thumb": "https://live.staticflickr.com/65535/49727761752_c968d433f3_n.jpg",
    "id_album": "742877173",
    "description": "KAWAII02042019451113",
    "title": "KAWAII02042019451113",
    "link_img": "https://live.staticflickr.com/65535/49727761752_441f8fa031_o.jpg",
    "id_image": "KAWAII02042019451113",
    "count_view": 0
  },
  {
    "link_thumb": "https://live.staticflickr.com/65535/49743252197_fc8e6aff13_n.jpg",
    "id_album": "-316663319",
    "description": "KAWAII060420214915220",
    "title": "KAWAII060420214915220",
    "link_img": "https://live.staticflickr.com/65535/49743252197_a0dbe1a485_o.jpg",
    "id_image": "KAWAII060420214915220",
    "count_view": 0
  },
  {
    "link_thumb": "https://live.staticflickr.com/65535/49726924473_3f8ea1d665_n.jpg",
    "id_album": "-1862561193",
    "description": "KAWAII020420194513106",
    "title": "KAWAII020420194513106",
    "link_img": "https://live.staticflickr.com/65535/49726924473_6c8e71e23c_o.jpg",
    "id_image": "KAWAII020420194513106",
    "count_view": 0
  },
  {
    "link_thumb": "https://live.staticflickr.com/65535/49694079036_c5b22da7ce_n.jpg",
    "id_album": "-643980979",
    "description": "KAWAII050320202184",
    "title": "KAWAII050320202184",
    "link_img": "https://live.staticflickr.com/65535/49694079036_5552a877d7_o.jpg",
    "id_image": "KAWAII050320202184",
    "count_view": 0
  },
  {
    "link_thumb": "https://live.staticflickr.com/65535/49622840081_e373bc4bf9_n.jpg",
    "id_album": "-1694302085",
    "description": "KAWAII050320202197",
    "title": "KAWAII050320202197",
    "link_img": "https://live.staticflickr.com/65535/49622840081_3138ee4372_o.jpg",
    "id_image": "KAWAII050320202197",
    "count_view": 0
  },
  {
    "link_thumb": "https://live.staticflickr.com/65535/49743236517_585777528f_n.jpg",
    "id_album": "-1741487325",
    "description": "KAWAII060420214918140",
    "title": "KAWAII060420214918140",
    "link_img": "https://live.staticflickr.com/65535/49743236517_c67a517862_o.jpg",
    "id_image": "KAWAII060420214918140",
    "count_view": 0
  },
  {
    "link_thumb": "https://live.staticflickr.com/65535/49694418562_51e263706d_n.jpg",
    "id_album": "-643980979",
    "description": "KAWAII170220234616",
    "title": "KAWAII170220234616",
    "link_img": "https://live.staticflickr.com/65535/49694418562_c02075e061_o.jpg",
    "id_image": "KAWAII170220234616",
    "count_view": 0
  },
  {
    "link_thumb": "https://live.staticflickr.com/65535/49622330628_bc94cffc7c_n.jpg",
    "id_album": "-406350429",
    "description": "KAWAII0503202021232",
    "title": "KAWAII0503202021232",
    "link_img": "https://live.staticflickr.com/65535/49622330628_fa947f14f9_o.jpg",
    "id_image": "KAWAII0503202021232",
    "count_view": 0
  },
  {
    "link_thumb": "https://live.staticflickr.com/65535/49742950846_26970047b4_n.jpg",
    "id_album": "-1862561193",
    "description": "KAWAII060420214914236",
    "title": "KAWAII060420214914236",
    "link_img": "https://live.staticflickr.com/65535/49742950846_f89017c778_o.jpg",
    "id_image": "KAWAII060420214914236",
    "count_view": 0
  },
  {
    "link_thumb": "https://live.staticflickr.com/65535/49623117147_71b8dfdc96_n.jpg",
    "id_album": "-406350429",
    "description": "KAWAII0503202021230",
    "title": "KAWAII0503202021230",
    "link_img": "https://live.staticflickr.com/65535/49623117147_b583232f1f_o.jpg",
    "id_image": "KAWAII0503202021230",
    "count_view": 0
  },
  {
    "link_thumb": "https://live.staticflickr.com/65535/49693578608_18b1ed3562_n.jpg",
    "id_album": "-643980979",
    "description": "KAWAII2702202351160",
    "title": "KAWAII2702202351160",
    "link_img": "https://live.staticflickr.com/65535/49693578608_a956a23dc3_o.jpg",
    "id_image": "KAWAII2702202351160",
    "count_view": 0
  },
  {
    "link_thumb": "https://live.staticflickr.com/65535/49727475381_d6c16969bd_n.jpg",
    "id_album": "1226948986",
    "description": "KAWAII020420194509140",
    "title": "KAWAII020420194509140",
    "link_img": "https://live.staticflickr.com/65535/49727475381_b1e3ecfe87_o.jpg",
    "id_image": "KAWAII020420194509140",
    "count_view": 0
  },
  {
    "link_thumb": "https://live.staticflickr.com/65535/49548171968_0bf8a7aa6e_n.jpg",
    "id_album": "-1099943053",
    "description": "KAWAII1702202236254",
    "title": "KAWAII1702202236254",
    "link_img": "https://live.staticflickr.com/65535/49548171968_cf0e681af6_o.jpg",
    "id_image": "KAWAII1702202236254",
    "count_view": 0
  },
  {
    "link_thumb": "https://live.staticflickr.com/65535/49743248487_2470e7d2eb_n.jpg",
    "id_album": "-316663319",
    "description": "KAWAII060420214913307",
    "title": "KAWAII060420214913307",
    "link_img": "https://live.staticflickr.com/65535/49743248487_0739556b42_o.jpg",
    "id_image": "KAWAII060420214913307",
    "count_view": 0
  },
  {
    "link_thumb": "https://live.staticflickr.com/65535/49727452801_b9eb6a96fd_n.jpg",
    "id_album": "742877173",
    "description": "KAWAII02042019451424",
    "title": "KAWAII02042019451424",
    "link_img": "https://live.staticflickr.com/65535/49727452801_8e28368279_o.jpg",
    "id_image": "KAWAII02042019451424",
    "count_view": 0
  },
  {
    "link_thumb": "https://live.staticflickr.com/65535/49743246987_d06bd0e462_n.jpg",
    "id_album": "-316663319",
    "description": "KAWAII06042021491263",
    "title": "KAWAII06042021491263",
    "link_img": "https://live.staticflickr.com/65535/49743246987_31ab39aa3d_o.jpg",
    "id_image": "KAWAII06042021491263",
    "count_view": 0
  },
  {
    "link_thumb": "https://live.staticflickr.com/65535/49743238712_63dded63b7_n.jpg",
    "id_album": "-1497779911",
    "description": "KAWAII06042021491445",
    "title": "KAWAII06042021491445",
    "link_img": "https://live.staticflickr.com/65535/49743238712_d4ec543d5d_o.jpg",
    "id_image": "KAWAII06042021491445",
    "count_view": 0
  },
  {
    "link_thumb": "https://live.staticflickr.com/65535/49592732726_278f17e315_n.jpg",
    "id_album": "949200594",
    "description": "KAWAII270220235154",
    "title": "KAWAII270220235154",
    "link_img": "https://live.staticflickr.com/65535/49592732726_7fb09fa990_o.jpg",
    "id_image": "KAWAII270220235154",
    "count_view": 0
  },
  {
    "link_thumb": "https://live.staticflickr.com/65535/49693580228_5013bfae93_n.jpg",
    "id_album": "-643980979",
    "description": "KAWAII270220235186",
    "title": "KAWAII270220235186",
    "link_img": "https://live.staticflickr.com/65535/49693580228_8613ee9d35_o.jpg",
    "id_image": "KAWAII270220235186",
    "count_view": 0
  },
  {
    "link_thumb": "https://live.staticflickr.com/65535/49742410198_11b0110020_n.jpg",
    "id_album": "1226948986",
    "description": "KAWAII060420214911212",
    "title": "KAWAII060420214911212",
    "link_img": "https://live.staticflickr.com/65535/49742410198_306bfbd04b_o.jpg",
    "id_image": "KAWAII060420214911212",
    "count_view": 0
  },
  {
    "link_thumb": "https://live.staticflickr.com/65535/49622314693_bcce1671b7_n.jpg",
    "id_album": "-316663319",
    "description": "KAWAII0503202021281",
    "title": "KAWAII0503202021281",
    "link_img": "https://live.staticflickr.com/65535/49622314693_850067808d_o.jpg",
    "id_image": "KAWAII0503202021281",
    "count_view": 0
  },
  {
    "link_thumb": "https://live.staticflickr.com/65535/49592734431_2caa3999b0_n.jpg",
    "id_album": "949200594",
    "description": "KAWAII27022023519",
    "title": "KAWAII27022023519",
    "link_img": "https://live.staticflickr.com/65535/49592734431_cc7c9317c4_o.jpg",
    "id_image": "KAWAII27022023519",
    "count_view": 0
  },
  {
    "link_thumb": "https://live.staticflickr.com/65535/49742952811_958f39fba4_n.jpg",
    "id_album": "-1862561193",
    "description": "KAWAII060420214917320",
    "title": "KAWAII060420214917320",
    "link_img": "https://live.staticflickr.com/65535/49742952811_f7a81fdf3b_o.jpg",
    "id_image": "KAWAII060420214917320",
    "count_view": 0
  },
  {
    "link_thumb": "https://live.staticflickr.com/65535/49592952392_4c43bf382f_n.jpg",
    "id_album": "-1741487325",
    "description": "KAWAII1702202237338",
    "title": "KAWAII1702202237338",
    "link_img": "https://live.staticflickr.com/65535/49592952392_4bb44f63a9_o.jpg",
    "id_image": "KAWAII1702202237338",
    "count_view": 0
  },
  {
    "link_thumb": "https://live.staticflickr.com/65535/49694125931_f8f3987c14_n.jpg",
    "id_album": "-358592519",
    "description": "KAWAII1702202239568",
    "title": "KAWAII1702202239568",
    "link_img": "https://live.staticflickr.com/65535/49694125931_361e3743c3_o.jpg",
    "id_image": "KAWAII1702202239568",
    "count_view": 0
  },
  {
    "link_thumb": "https://live.staticflickr.com/65535/49552523746_a8b4097645_n.jpg",
    "id_album": "1396902986",
    "description": "KAWAII1209182518022020599",
    "title": "KAWAII1209182518022020599",
    "link_img": "https://live.staticflickr.com/65535/49552523746_1566cd17a8_o.jpg",
    "id_image": "KAWAII1209182518022020599",
    "count_view": 0
  },
  {
    "link_thumb": "https://live.staticflickr.com/65535/49548208343_1835ca9b10_n.jpg",
    "id_album": "431597977",
    "description": "KAWAII1702202238413",
    "title": "KAWAII1702202238413",
    "link_img": "https://live.staticflickr.com/65535/49548208343_ee01e69020_o.jpg",
    "id_image": "KAWAII1702202238413",
    "count_view": 0
  },
  {
    "link_thumb": "https://live.staticflickr.com/65535/49592230628_c6e755e674_n.jpg",
    "id_album": "949200594",
    "description": "KAWAII270220235176",
    "title": "KAWAII270220235176",
    "link_img": "https://live.staticflickr.com/65535/49592230628_149dc42680_o.jpg",
    "id_image": "KAWAII270220235176",
    "count_view": 0
  },
  {
    "link_thumb": "https://live.staticflickr.com/65535/49742958361_ec0c86e7bb_n.jpg",
    "id_album": "1226948986",
    "description": "KAWAII06042021491791",
    "title": "KAWAII06042021491791",
    "link_img": "https://live.staticflickr.com/65535/49742958361_61b7b026d3_o.jpg",
    "id_image": "KAWAII06042021491791",
    "count_view": 0
  },
  {
    "link_thumb": "https://live.staticflickr.com/65535/49592709616_dbb1dc7bb1_n.jpg",
    "id_album": "-1741487325",
    "description": "KAWAII170220223486",
    "title": "KAWAII170220223486",
    "link_img": "https://live.staticflickr.com/65535/49592709616_b051e88591_o.jpg",
    "id_image": "KAWAII170220223486",
    "count_view": 0
  },
  {
    "link_thumb": "https://live.staticflickr.com/65535/49548835222_2433b1acd6_n.jpg",
    "id_album": "-1741487325",
    "description": "KAWAII120918370",
    "title": "KAWAII120918370",
    "link_img": "https://live.staticflickr.com/65535/49548835222_33e1fa10d3_o.jpg",
    "id_image": "KAWAII120918370",
    "count_view": 0
  },
  {
    "link_thumb": "https://live.staticflickr.com/65535/49592721871_d8c01a7af3_n.jpg",
    "id_album": "-316663319",
    "description": "KAWAII270220235192",
    "title": "KAWAII270220235192",
    "link_img": "https://live.staticflickr.com/65535/49592721871_96360fb768_o.jpg",
    "id_image": "KAWAII270220235192",
    "count_view": 0
  },
  {
    "link_thumb": "https://live.staticflickr.com/65535/49742945926_2ba74fd24d_n.jpg",
    "id_album": "-1779286820",
    "description": "KAWAII060420214918265",
    "title": "KAWAII060420214918265",
    "link_img": "https://live.staticflickr.com/65535/49742945926_6ef82b7a3f_o.jpg",
    "id_image": "KAWAII060420214918265",
    "count_view": 0
  },
  {
    "link_thumb": "https://live.staticflickr.com/65535/49548569451_10e4a2c2b7_n.jpg",
    "id_album": "-1741487325",
    "description": "KAWAII120918204",
    "title": "KAWAII120918204",
    "link_img": "https://live.staticflickr.com/65535/49548569451_93394d3e56_o.jpg",
    "id_image": "KAWAII120918204",
    "count_view": 0
  },
  {
    "link_thumb": "https://live.staticflickr.com/65535/49727425881_98e8640648_n.jpg",
    "id_album": "-1694302085",
    "description": "KAWAII02042019450887",
    "title": "KAWAII02042019450887",
    "link_img": "https://live.staticflickr.com/65535/49727425881_41398fda39_o.jpg",
    "id_image": "KAWAII02042019450887",
    "count_view": 0
  },
  {
    "link_thumb": "https://live.staticflickr.com/65535/49742955191_ec5217740a_n.jpg",
    "id_album": "-1431786825",
    "description": "KAWAII06042021491270",
    "title": "KAWAII06042021491270",
    "link_img": "https://live.staticflickr.com/65535/49742955191_f64c7952b5_o.jpg",
    "id_image": "KAWAII06042021491270",
    "count_view": 0
  },
  {
    "link_thumb": "https://live.staticflickr.com/65535/49548742611_b5332b7a92_n.jpg",
    "id_album": "1396902986",
    "description": "KAWAII1702202239539",
    "title": "KAWAII1702202239539",
    "link_img": "https://live.staticflickr.com/65535/49548742611_78c0a19566_o.jpg",
    "id_image": "KAWAII1702202239539",
    "count_view": 0
  },
  {
    "link_thumb": "https://live.staticflickr.com/65535/49694123501_ec500e9a63_n.jpg",
    "id_album": "-784970094",
    "description": "KAWAII1702202235202",
    "title": "KAWAII1702202235202",
    "link_img": "https://live.staticflickr.com/65535/49694123501_326bc2acc0_o.jpg",
    "id_image": "KAWAII1702202235202",
    "count_view": 0
  },
  {
    "link_thumb": "https://live.staticflickr.com/65535/49622837701_8c5132a8df_n.jpg",
    "id_album": "-316663319",
    "description": "KAWAII050320202153",
    "title": "KAWAII050320202153",
    "link_img": "https://live.staticflickr.com/65535/49622837701_082e4868e9_o.jpg",
    "id_image": "KAWAII050320202153",
    "count_view": 0
  },
  {
    "link_thumb": "https://live.staticflickr.com/65535/49694375157_db336622d4_n.jpg",
    "id_album": "-643980979",
    "description": "KAWAII0503202021228",
    "title": "KAWAII0503202021228",
    "link_img": "https://live.staticflickr.com/65535/49694375157_cec48781da_o.jpg",
    "id_image": "KAWAII0503202021228",
    "count_view": 0
  },
  {
    "link_thumb": "https://live.staticflickr.com/65535/49727448541_087b7b8cab_n.jpg",
    "id_album": "742877173",
    "description": "KAWAII02042019451188",
    "title": "KAWAII02042019451188",
    "link_img": "https://live.staticflickr.com/65535/49727448541_16fd383dcc_o.jpg",
    "id_image": "KAWAII02042019451188",
    "count_view": 0
  },
  {
    "link_thumb": "https://live.staticflickr.com/65535/49727750827_5544a6d51e_n.jpg",
    "id_album": "-316663319",
    "description": "KAWAII02042019450928",
    "title": "KAWAII02042019450928",
    "link_img": "https://live.staticflickr.com/65535/49727750827_b0a265e665_o.jpg",
    "id_image": "KAWAII02042019450928",
    "count_view": 0
  },
  {
    "link_thumb": "https://live.staticflickr.com/65535/49743226692_5476773f2b_n.jpg",
    "id_album": "-1913845949",
    "description": "KAWAII060420214915145",
    "title": "KAWAII060420214915145",
    "link_img": "https://live.staticflickr.com/65535/49743226692_8d41fa8dc2_o.jpg",
    "id_image": "KAWAII060420214915145",
    "count_view": 0
  },
  {
    "link_thumb": "https://live.staticflickr.com/65535/49693576683_b0ede188d0_n.jpg",
    "id_album": "1201366373",
    "description": "KAWAII17091832",
    "title": "KAWAII17091832",
    "link_img": "https://live.staticflickr.com/65535/49693576683_cfec756f53_o.jpg",
    "id_image": "KAWAII17091832",
    "count_view": 0
  },
  {
    "link_thumb": "https://live.staticflickr.com/65535/49727743857_0937fd0b71_n.jpg",
    "id_album": "-1741487325",
    "description": "KAWAII020420194513254",
    "title": "KAWAII020420194513254",
    "link_img": "https://live.staticflickr.com/65535/49727743857_36fd5a4ba1_o.jpg",
    "id_image": "KAWAII020420194513254",
    "count_view": 0
  },
  {
    "link_thumb": "https://live.staticflickr.com/65535/49694102261_ea702f35c0_n.jpg",
    "id_album": "1201366373",
    "description": "KAWAII12091849",
    "title": "KAWAII12091849",
    "link_img": "https://live.staticflickr.com/65535/49694102261_3f4c6bfa43_o.jpg",
    "id_image": "KAWAII12091849",
    "count_view": 0
  },
  {
    "link_thumb": "https://live.staticflickr.com/65535/49694218276_54cc4425bf_n.jpg",
    "id_album": "-643980979",
    "description": "KAWAII2403202205017",
    "title": "KAWAII2403202205017",
    "link_img": "https://live.staticflickr.com/65535/49694218276_e05bf39ccf_o.jpg",
    "id_image": "KAWAII2403202205017",
    "count_view": 0
  },
  {
    "link_thumb": "https://live.staticflickr.com/65535/49743258997_7e5f53904a_n.jpg",
    "id_album": "-1473448477",
    "description": "KAWAII060420214915155",
    "title": "KAWAII060420214915155",
    "link_img": "https://live.staticflickr.com/65535/49743258997_29df7961ef_o.jpg",
    "id_image": "KAWAII060420214915155",
    "count_view": 0
  },
  {
    "link_thumb": "https://live.staticflickr.com/65535/49727752792_9bf6e0ced5_n.jpg",
    "id_album": "-316663319",
    "description": "KAWAII020420194511112",
    "title": "KAWAII020420194511112",
    "link_img": "https://live.staticflickr.com/65535/49727752792_1bf4696a5e_o.jpg",
    "id_image": "KAWAII020420194511112",
    "count_view": 0
  },
  {
    "link_thumb": "https://live.staticflickr.com/65535/49592209938_f62c424820_n.jpg",
    "id_album": "-1432180061",
    "description": "KAWAII270220235185",
    "title": "KAWAII270220235185",
    "link_img": "https://live.staticflickr.com/65535/49592209938_780f1ea26a_o.jpg",
    "id_image": "KAWAII270220235185",
    "count_view": 0
  },
  {
    "link_thumb": "https://live.staticflickr.com/65535/49578979872_210bd44659_n.jpg",
    "id_album": "-1099943053",
    "description": "KAWAII190220211132",
    "title": "KAWAII190220211132",
    "link_img": "https://live.staticflickr.com/65535/49578979872_38bc4a89ff_o.jpg",
    "id_image": "KAWAII190220211132",
    "count_view": 0
  },
  {
    "link_thumb": "https://live.staticflickr.com/65535/49623077527_f75a4ccf12_n.jpg",
    "id_album": "1396902986",
    "description": "KAWAII050320202189",
    "title": "KAWAII050320202189",
    "link_img": "https://live.staticflickr.com/65535/49623077527_f93d23b57d_o.jpg",
    "id_image": "KAWAII050320202189",
    "count_view": 0
  },
  {
    "link_thumb": "https://live.staticflickr.com/65535/49742919341_7d960dfd4e_n.jpg",
    "id_album": "-128218148",
    "description": "KAWAII06042021491238",
    "title": "KAWAII06042021491238",
    "link_img": "https://live.staticflickr.com/65535/49742919341_cb2f770b15_o.jpg",
    "id_image": "KAWAII06042021491238",
    "count_view": 0
  },
  {
    "link_thumb": "https://live.staticflickr.com/65535/49548771156_3f52ac3eba_n.jpg",
    "id_album": "-316663319",
    "description": "KAWAII17091845",
    "title": "KAWAII17091845",
    "link_img": "https://live.staticflickr.com/65535/49548771156_4ddeb425f3_o.jpg",
    "id_image": "KAWAII17091845",
    "count_view": 0
  },
  {
    "link_thumb": "https://live.staticflickr.com/65535/49622832336_d7491684ce_n.jpg",
    "id_album": "-316663319",
    "description": "KAWAII0503202021310",
    "title": "KAWAII0503202021310",
    "link_img": "https://live.staticflickr.com/65535/49622832336_5dbcbf4dd3_o.jpg",
    "id_image": "KAWAII0503202021310",
    "count_view": 0
  },
  {
    "link_thumb": "https://live.staticflickr.com/65535/49693681758_be15069edc_n.jpg",
    "id_album": "-1862561193",
    "description": "KAWAII24032022050266",
    "title": "KAWAII24032022050266",
    "link_img": "https://live.staticflickr.com/65535/49693681758_6d430e3652_o.jpg",
    "id_image": "KAWAII24032022050266",
    "count_view": 0
  },
  {
    "link_thumb": "https://live.staticflickr.com/65535/49727738072_e0b319797c_n.jpg",
    "id_album": "-1694302085",
    "description": "KAWAII020420194508100",
    "title": "KAWAII020420194508100",
    "link_img": "https://live.staticflickr.com/65535/49727738072_5cb5e421e0_o.jpg",
    "id_image": "KAWAII020420194508100",
    "count_view": 0
  },
  {
    "link_thumb": "https://live.staticflickr.com/65535/49693577243_1d71d43a8f_n.jpg",
    "id_album": "-643980979",
    "description": "KAWAII17091850",
    "title": "KAWAII17091850",
    "link_img": "https://live.staticflickr.com/65535/49693577243_8b5016ac40_o.jpg",
    "id_image": "KAWAII17091850",
    "count_view": 0
  },
  {
    "link_thumb": "https://live.staticflickr.com/65535/49726891718_e82beb4569_n.jpg",
    "id_album": "-316663319",
    "description": "KAWAII02042019451168",
    "title": "KAWAII02042019451168",
    "link_img": "https://live.staticflickr.com/65535/49726891718_a5c78c6d61_o.jpg",
    "id_image": "KAWAII02042019451168",
    "count_view": 0
  },
  {
    "link_thumb": "https://live.staticflickr.com/65535/49742404138_dd39a00ba4_n.jpg",
    "id_album": "-1862561193",
    "description": "KAWAII060420214915222",
    "title": "KAWAII060420214915222",
    "link_img": "https://live.staticflickr.com/65535/49742404138_ee8899e8f9_o.jpg",
    "id_image": "KAWAII060420214915222",
    "count_view": 0
  }
]