[
  {
    "link_thumb": "https://live.staticflickr.com/65535/49548933977_7d5feaa596_n.jpg",
    "id_album": "1396902986",
    "description": "KAWAII1702202238403",
    "title": "KAWAII1702202238403",
    "link_img": "https://live.staticflickr.com/65535/49548933977_def2e352e9_o.jpg",
    "id_image": "KAWAII1702202238403",
    "count_view": 0
  },
  {
    "link_thumb": "https://live.staticflickr.com/65535/49548830407_1885e519e1_n.jpg",
    "id_album": "-1099943053",
    "description": "KAWAII120918351",
    "title": "KAWAII120918351",
    "link_img": "https://live.staticflickr.com/65535/49548830407_e3d8f85daa_o.jpg",
    "id_image": "KAWAII120918351",
    "count_view": 0
  },
  {
    "link_thumb": "https://live.staticflickr.com/65535/49743247677_fdc0dc1ca9_n.jpg",
    "id_album": "-316663319",
    "description": "KAWAII060420214913153",
    "title": "KAWAII060420214913153",
    "link_img": "https://live.staticflickr.com/65535/49743247677_14ba0362cd_o.jpg",
    "id_image": "KAWAII060420214913153",
    "count_view": 0
  },
  {
    "link_thumb": "https://live.staticflickr.com/65535/49694384597_349f683169_n.jpg",
    "id_album": "1201366373",
    "description": "KAWAII120918116",
    "title": "KAWAII120918116",
    "link_img": "https://live.staticflickr.com/65535/49694384597_a8a8631421_o.jpg",
    "id_image": "KAWAII120918116",
    "count_view": 0
  },
  {
    "link_thumb": "https://live.staticflickr.com/65535/49693577613_5c37370496_n.jpg",
    "id_album": "-643980979",
    "description": "KAWAII19022021115",
    "title": "KAWAII19022021115",
    "link_img": "https://live.staticflickr.com/65535/49693577613_4c43e8a7ea_o.jpg",
    "id_image": "KAWAII19022021115",
    "count_view": 0
  },
  {
    "link_thumb": "https://live.staticflickr.com/65535/49548211348_d0b36c2d46_n.jpg",
    "id_album": "-1694302085",
    "description": "KAWAII1702202238424",
    "title": "KAWAII1702202238424",
    "link_img": "https://live.staticflickr.com/65535/49548211348_dd8a3c08df_o.jpg",
    "id_image": "KAWAII1702202238424",
    "count_view": 0
  },
  {
    "link_thumb": "https://live.staticflickr.com/65535/49694071171_cd5ac07c04_n.jpg",
    "id_album": "-643980979",
    "description": "KAWAII0503202021165",
    "title": "KAWAII0503202021165",
    "link_img": "https://live.staticflickr.com/65535/49694071171_d1e527d8fc_o.jpg",
    "id_image": "KAWAII0503202021165",
    "count_view": 0
  },
  {
    "link_thumb": "https://live.staticflickr.com/65535/49726891718_e82beb4569_n.jpg",
    "id_album": "-316663319",
    "description": "KAWAII02042019451168",
    "title": "KAWAII02042019451168",
    "link_img": "https://live.staticflickr.com/65535/49726891718_a5c78c6d61_o.jpg",
    "id_image": "KAWAII02042019451168",
    "count_view": 0
  },
  {
    "link_thumb": "https://live.staticflickr.com/65535/49694394307_ce4ef3eaf2_n.jpg",
    "id_album": "-643980979",
    "description": "KAWAII120918216",
    "title": "KAWAII120918216",
    "link_img": "https://live.staticflickr.com/65535/49694394307_024ed829e4_o.jpg",
    "id_image": "KAWAII120918216",
    "count_view": 0
  },
  {
    "link_thumb": "https://live.staticflickr.com/65535/49694221281_4bcc2ed000_n.jpg",
    "id_album": "-1432180061",
    "description": "KAWAII1702202237340",
    "title": "KAWAII1702202237340",
    "link_img": "https://live.staticflickr.com/65535/49694221281_264ab1e996_o.jpg",
    "id_image": "KAWAII1702202237340",
    "count_view": 0
  },
  {
    "link_thumb": "https://live.staticflickr.com/65535/49726884643_2a9d92e5af_n.jpg",
    "id_album": "-1497779911",
    "description": "KAWAII050320202123",
    "title": "KAWAII050320202123",
    "link_img": "https://live.staticflickr.com/65535/49726884643_2321187220_o.jpg",
    "id_image": "KAWAII050320202123",
    "count_view": 0
  },
  {
    "link_thumb": "https://live.staticflickr.com/65535/49727446656_3d400cb0f2_n.jpg",
    "id_album": "742877173",
    "description": "KAWAII020420194510205",
    "title": "KAWAII020420194510205",
    "link_img": "https://live.staticflickr.com/65535/49727446656_4aba0d4041_o.jpg",
    "id_image": "KAWAII020420194510205",
    "count_view": 0
  },
  {
    "link_thumb": "https://live.staticflickr.com/65535/49694113391_93707dee7b_n.jpg",
    "id_album": "1201366373",
    "description": "KAWAII1702202239507",
    "title": "KAWAII1702202239507",
    "link_img": "https://live.staticflickr.com/65535/49694113391_47d1006bf4_o.jpg",
    "id_image": "KAWAII1702202239507",
    "count_view": 0
  },
  {
    "link_thumb": "https://live.staticflickr.com/65535/49694227571_4a8796ce62_n.jpg",
    "id_album": "1226948986",
    "description": "KAWAII24032022050221",
    "title": "KAWAII24032022050221",
    "link_img": "https://live.staticflickr.com/65535/49694227571_bc26e018a6_o.jpg",
    "id_image": "KAWAII24032022050221",
    "count_view": 0
  },
  {
    "link_thumb": "https://live.staticflickr.com/65535/49548547066_a5fcae1d0d_n.jpg",
    "id_album": "-1741487325",
    "description": "KAWAII120918111",
    "title": "KAWAII120918111",
    "link_img": "https://live.staticflickr.com/65535/49548547066_58e63364cd_o.jpg",
    "id_image": "KAWAII120918111",
    "count_view": 0
  },
  {
    "link_thumb": "https://live.staticflickr.com/65535/49623081207_309c899daa_n.jpg",
    "id_album": "-1741487325",
    "description": "KAWAII050320202190",
    "title": "KAWAII050320202190",
    "link_img": "https://live.staticflickr.com/65535/49623081207_5fd50b8331_o.jpg",
    "id_image": "KAWAII050320202190",
    "count_view": 0
  },
  {
    "link_thumb": "https://live.staticflickr.com/65535/49548832647_f7abbc16dc_n.jpg",
    "id_album": "-1431786825",
    "description": "KAWAII120918360",
    "title": "KAWAII120918360",
    "link_img": "https://live.staticflickr.com/65535/49548832647_6954825421_o.jpg",
    "id_image": "KAWAII120918360",
    "count_view": 0
  },
  {
    "link_thumb": "https://live.staticflickr.com/65535/49548843397_dbf2fe5fe9_n.jpg",
    "id_album": "-1432180061",
    "description": "KAWAII1209187",
    "title": "KAWAII1209187",
    "link_img": "https://live.staticflickr.com/65535/49548843397_bf8a64d198_o.jpg",
    "id_image": "KAWAII1209187",
    "count_view": 0
  },
  {
    "link_thumb": "https://live.staticflickr.com/65535/49742939801_400ce940f5_n.jpg",
    "id_album": "-1473448477",
    "description": "KAWAII06042021491554",
    "title": "KAWAII06042021491554",
    "link_img": "https://live.staticflickr.com/65535/49742939801_689f802c52_o.jpg",
    "id_image": "KAWAII06042021491554",
    "count_view": 0
  },
  {
    "link_thumb": "https://live.staticflickr.com/65535/49694531007_1e94f1ab70_n.jpg",
    "id_album": "1226948986",
    "description": "KAWAII24032022050218",
    "title": "KAWAII24032022050218",
    "link_img": "https://live.staticflickr.com/65535/49694531007_44459561a6_o.jpg",
    "id_image": "KAWAII24032022050218",
    "count_view": 0
  },
  {
    "link_thumb": "https://live.staticflickr.com/65535/49622334648_8e2060c468_n.jpg",
    "id_album": "-406350429",
    "description": "KAWAII050320202169",
    "title": "KAWAII050320202169",
    "link_img": "https://live.staticflickr.com/65535/49622334648_69137388a7_o.jpg",
    "id_image": "KAWAII050320202169",
    "count_view": 0
  },
  {
    "link_thumb": "https://live.staticflickr.com/65535/49578750876_bea642f332_n.jpg",
    "id_album": "-1694302085",
    "description": "KAWAII190220211135",
    "title": "KAWAII190220211135",
    "link_img": "https://live.staticflickr.com/65535/49578750876_721cb6ccf2_o.jpg",
    "id_image": "KAWAII190220211135",
    "count_view": 0
  },
  {
    "link_thumb": "https://live.staticflickr.com/65535/49693537968_aa5e3cc05d_n.jpg",
    "id_album": "1201366373",
    "description": "KAWAII120918113",
    "title": "KAWAII120918113",
    "link_img": "https://live.staticflickr.com/65535/49693537968_6df86be63b_o.jpg",
    "id_image": "KAWAII120918113",
    "count_view": 0
  },
  {
    "link_thumb": "https://live.staticflickr.com/65535/49592708451_8824c137ec_n.jpg",
    "id_album": "1396902986",
    "description": "KAWAII270220235141",
    "title": "KAWAII270220235141",
    "link_img": "https://live.staticflickr.com/65535/49592708451_7b6f016983_o.jpg",
    "id_image": "KAWAII270220235141",
    "count_view": 0
  },
  {
    "link_thumb": "https://live.staticflickr.com/65535/49727470746_fa73e3a37f_n.jpg",
    "id_album": "-1862561193",
    "description": "KAWAII020420194512120",
    "title": "KAWAII020420194512120",
    "link_img": "https://live.staticflickr.com/65535/49727470746_3d39dec80e_o.jpg",
    "id_image": "KAWAII020420194512120",
    "count_view": 0
  },
  {
    "link_thumb": "https://live.staticflickr.com/65535/49742913141_80dec690d6_n.jpg",
    "id_album": "-1741487325",
    "description": "KAWAII060420214918267",
    "title": "KAWAII060420214918267",
    "link_img": "https://live.staticflickr.com/65535/49742913141_792bfbdf35_o.jpg",
    "id_image": "KAWAII060420214918267",
    "count_view": 0
  },
  {
    "link_thumb": "https://live.staticflickr.com/65535/49548632456_02d78aed1e_n.jpg",
    "id_album": "-316663319",
    "description": "KAWAII1702202234119",
    "title": "KAWAII1702202234119",
    "link_img": "https://live.staticflickr.com/65535/49548632456_9273938554_o.jpg",
    "id_image": "KAWAII1702202234119",
    "count_view": 0
  },
  {
    "link_thumb": "https://live.staticflickr.com/65535/49742958361_ec0c86e7bb_n.jpg",
    "id_album": "1226948986",
    "description": "KAWAII06042021491791",
    "title": "KAWAII06042021491791",
    "link_img": "https://live.staticflickr.com/65535/49742958361_61b7b026d3_o.jpg",
    "id_image": "KAWAII06042021491791",
    "count_view": 0
  },
  {
    "link_thumb": "https://live.staticflickr.com/65535/49694226081_6569eac63c_n.jpg",
    "id_album": "1226948986",
    "description": "KAWAII24032022050150",
    "title": "KAWAII24032022050150",
    "link_img": "https://live.staticflickr.com/65535/49694226081_3ee90bb1c7_o.jpg",
    "id_image": "KAWAII24032022050150",
    "count_view": 0
  },
  {
    "link_thumb": "https://live.staticflickr.com/65535/49743241147_80a6becc0c_n.jpg",
    "id_album": "-128218148",
    "description": "KAWAII060420214911110",
    "title": "KAWAII060420214911110",
    "link_img": "https://live.staticflickr.com/65535/49743241147_4cd4d2ac3e_o.jpg",
    "id_image": "KAWAII060420214911110",
    "count_view": 0
  },
  {
    "link_thumb": "https://live.staticflickr.com/65535/49693557238_c6b6635ea4_n.jpg",
    "id_album": "1201366373",
    "description": "KAWAII120918309",
    "title": "KAWAII120918309",
    "link_img": "https://live.staticflickr.com/65535/49693557238_c50d74d2b9_o.jpg",
    "id_image": "KAWAII120918309",
    "count_view": 0
  },
  {
    "link_thumb": "https://live.staticflickr.com/65535/49548896447_10611e9e0e_n.jpg",
    "id_album": "-316663319",
    "description": "KAWAII1702202236231",
    "title": "KAWAII1702202236231",
    "link_img": "https://live.staticflickr.com/65535/49548896447_e20532dd12_o.jpg",
    "id_image": "KAWAII1702202236231",
    "count_view": 0
  },
  {
    "link_thumb": "https://live.staticflickr.com/65535/49726925128_f475533b2b_n.jpg",
    "id_album": "-1862561193",
    "description": "KAWAII02042019451366",
    "title": "KAWAII02042019451366",
    "link_img": "https://live.staticflickr.com/65535/49726925128_bba6ddf96b_o.jpg",
    "id_image": "KAWAII02042019451366",
    "count_view": 0
  },
  {
    "link_thumb": "https://live.staticflickr.com/65535/49727748897_340ff7ecbd_n.jpg",
    "id_album": "-1497779911",
    "description": "KAWAII1702202235213",
    "title": "KAWAII1702202235213",
    "link_img": "https://live.staticflickr.com/65535/49727748897_864116ab44_o.jpg",
    "id_image": "KAWAII1702202235213",
    "count_view": 0
  },
  {
    "link_thumb": "https://live.staticflickr.com/65535/49622802611_b07e2b1953_n.jpg",
    "id_album": "1396902986",
    "description": "KAWAII0503202021257",
    "title": "KAWAII0503202021257",
    "link_img": "https://live.staticflickr.com/65535/49622802611_93a828d3ae_o.jpg",
    "id_image": "KAWAII0503202021257",
    "count_view": 0
  },
  {
    "link_thumb": "https://live.staticflickr.com/65535/49727448881_4cc935def4_n.jpg",
    "id_album": "742877173",
    "description": "KAWAII02042019451193",
    "title": "KAWAII02042019451193",
    "link_img": "https://live.staticflickr.com/65535/49727448881_ef8c24c859_o.jpg",
    "id_image": "KAWAII02042019451193",
    "count_view": 0
  },
  {
    "link_thumb": "https://live.staticflickr.com/65535/49622808686_2516abf137_n.jpg",
    "id_album": "-1741487325",
    "description": "KAWAII050320202173",
    "title": "KAWAII050320202173",
    "link_img": "https://live.staticflickr.com/65535/49622808686_4f6b8249d3_o.jpg",
    "id_image": "KAWAII050320202173",
    "count_view": 0
  },
  {
    "link_thumb": "https://live.staticflickr.com/65535/49694532017_2f599c40e0_n.jpg",
    "id_album": "1226948986",
    "description": "KAWAII24032022050237",
    "title": "KAWAII24032022050237",
    "link_img": "https://live.staticflickr.com/65535/49694532017_1504776f2b_o.jpg",
    "id_image": "KAWAII24032022050237",
    "count_view": 0
  },
  {
    "link_thumb": "https://live.staticflickr.com/65535/49548122483_6b98c05981_n.jpg",
    "id_album": "-422187261",
    "description": "KAWAII170220223319",
    "title": "KAWAII170220223319",
    "link_img": "https://live.staticflickr.com/65535/49548122483_00da78383f_o.jpg",
    "id_image": "KAWAII170220223319",
    "count_view": 0
  },
  {
    "link_thumb": "https://live.staticflickr.com/65535/49694385397_00b09b98ba_n.jpg",
    "id_album": "1201366373",
    "description": "KAWAII120918122",
    "title": "KAWAII120918122",
    "link_img": "https://live.staticflickr.com/65535/49694385397_5c25b2ca6f_o.jpg",
    "id_image": "KAWAII120918122",
    "count_view": 0
  },
  {
    "link_thumb": "https://live.staticflickr.com/65535/49548765461_743ff4ce1a_n.jpg",
    "id_album": "949200594",
    "description": "KAWAII17091827",
    "title": "KAWAII17091827",
    "link_img": "https://live.staticflickr.com/65535/49548765461_2e7a63fb0f_o.jpg",
    "id_image": "KAWAII17091827",
    "count_view": 0
  },
  {
    "link_thumb": "https://live.staticflickr.com/65535/49694090886_f5a8983a5b_n.jpg",
    "id_album": "1201366373",
    "description": "KAWAII120918207",
    "title": "KAWAII120918207",
    "link_img": "https://live.staticflickr.com/65535/49694090886_f2d6594686_o.jpg",
    "id_image": "KAWAII120918207",
    "count_view": 0
  },
  {
    "link_thumb": "https://live.staticflickr.com/65535/49693561578_1491a82a1a_n.jpg",
    "id_album": "-643980979",
    "description": "KAWAII12091889",
    "title": "KAWAII12091889",
    "link_img": "https://live.staticflickr.com/65535/49693561578_76c87b9831_o.jpg",
    "id_image": "KAWAII12091889",
    "count_view": 0
  },
  {
    "link_thumb": "https://live.staticflickr.com/65535/49622319153_3ac6d6079b_n.jpg",
    "id_album": "-1694302085",
    "description": "KAWAII0503202021328",
    "title": "KAWAII0503202021328",
    "link_img": "https://live.staticflickr.com/65535/49622319153_f04c849c44_o.jpg",
    "id_image": "KAWAII0503202021328",
    "count_view": 0
  },
  {
    "link_thumb": "https://live.staticflickr.com/65535/49548045533_0e77f46a71_n.jpg",
    "id_album": "-422187261",
    "description": "KAWAII120918114",
    "title": "KAWAII120918114",
    "link_img": "https://live.staticflickr.com/65535/49548045533_09119d7bc6_o.jpg",
    "id_image": "KAWAII120918114",
    "count_view": 0
  },
  {
    "link_thumb": "https://live.staticflickr.com/65535/49548710401_22754bc4f3_n.jpg",
    "id_album": "-1431786825",
    "description": "KAWAII1702202238418",
    "title": "KAWAII1702202238418",
    "link_img": "https://live.staticflickr.com/65535/49548710401_ea72394ece_o.jpg",
    "id_image": "KAWAII1702202238418",
    "count_view": 0
  },
  {
    "link_thumb": "https://live.staticflickr.com/65535/49727768697_a0ebfcc31b_n.jpg",
    "id_album": "1201366373",
    "description": "KAWAII120918296",
    "title": "KAWAII120918296",
    "link_img": "https://live.staticflickr.com/65535/49727768697_b04898132a_o.jpg",
    "id_image": "KAWAII120918296",
    "count_view": 0
  },
  {
    "link_thumb": "https://live.staticflickr.com/65535/49694222986_cda2beeb24_n.jpg",
    "id_album": "1201366373",
    "description": "KAWAII24032022050142",
    "title": "KAWAII24032022050142",
    "link_img": "https://live.staticflickr.com/65535/49694222986_33c2bf2483_o.jpg",
    "id_image": "KAWAII24032022050142",
    "count_view": 0
  },
  {
    "link_thumb": "https://live.staticflickr.com/65535/49693686013_12dd2df714_n.jpg",
    "id_album": "1226948986",
    "description": "KAWAII24032022050251",
    "title": "KAWAII24032022050251",
    "link_img": "https://live.staticflickr.com/65535/49693686013_6fa519d395_o.jpg",
    "id_image": "KAWAII24032022050251",
    "count_view": 0
  },
  {
    "link_thumb": "https://live.staticflickr.com/65535/49578248238_c02e450583_n.jpg",
    "id_album": "-1099943053",
    "description": "KAWAII19022021116",
    "title": "KAWAII19022021116",
    "link_img": "https://live.staticflickr.com/65535/49578248238_266350c32d_o.jpg",
    "id_image": "KAWAII19022021116",
    "count_view": 0
  },
  {
    "link_thumb": "https://live.staticflickr.com/65535/49694127666_c8551f3481_n.jpg",
    "id_album": "-755466332",
    "description": "KAWAII12091874",
    "title": "KAWAII12091874",
    "link_img": "https://live.staticflickr.com/65535/49694127666_91c51285b1_o.jpg",
    "id_image": "KAWAII12091874",
    "count_view": 0
  },
  {
    "link_thumb": "https://live.staticflickr.com/65535/49592713936_1da375d6a3_n.jpg",
    "id_album": "-316663319",
    "description": "KAWAII2702202351115",
    "title": "KAWAII2702202351115",
    "link_img": "https://live.staticflickr.com/65535/49592713936_b7d3481be7_o.jpg",
    "id_image": "KAWAII2702202351115",
    "count_view": 0
  },
  {
    "link_thumb": "https://live.staticflickr.com/65535/49548175748_73759313eb_n.jpg",
    "id_album": "1396902986",
    "description": "KAWAII1702202236275",
    "title": "KAWAII1702202236275",
    "link_img": "https://live.staticflickr.com/65535/49548175748_0e675ef75d_o.jpg",
    "id_image": "KAWAII1702202236275",
    "count_view": 0
  },
  {
    "link_thumb": "https://live.staticflickr.com/65535/49623096177_6bc24dae6a_n.jpg",
    "id_album": "-316663319",
    "description": "KAWAII0503202021215",
    "title": "KAWAII0503202021215",
    "link_img": "https://live.staticflickr.com/65535/49623096177_b449b4e1d1_o.jpg",
    "id_image": "KAWAII0503202021215",
    "count_view": 0
  },
  {
    "link_thumb": "https://live.staticflickr.com/65535/49548887602_4a0528ff2f_n.jpg",
    "id_album": "-1741487325",
    "description": "KAWAII1702202235188",
    "title": "KAWAII1702202235188",
    "link_img": "https://live.staticflickr.com/65535/49548887602_753e3e4750_o.jpg",
    "id_image": "KAWAII1702202235188",
    "count_view": 0
  },
  {
    "link_thumb": "https://live.staticflickr.com/65535/49727443936_beae1b9b89_n.jpg",
    "id_album": "742877173",
    "description": "KAWAII020420194509187",
    "title": "KAWAII020420194509187",
    "link_img": "https://live.staticflickr.com/65535/49727443936_a0e4d324d8_o.jpg",
    "id_image": "KAWAII020420194509187",
    "count_view": 0
  },
  {
    "link_thumb": "https://live.staticflickr.com/65535/49592212103_2bcfe25c63_n.jpg",
    "id_album": "-316663319",
    "description": "KAWAII2702202351132",
    "title": "KAWAII2702202351132",
    "link_img": "https://live.staticflickr.com/65535/49592212103_44cba4b19f_o.jpg",
    "id_image": "KAWAII2702202351132",
    "count_view": 0
  },
  {
    "link_thumb": "https://live.staticflickr.com/65535/49743244862_5576d98f85_n.jpg",
    "id_album": "-316663319",
    "description": "KAWAII060420214912154",
    "title": "KAWAII060420214912154",
    "link_img": "https://live.staticflickr.com/65535/49743244862_a121890c7f_o.jpg",
    "id_image": "KAWAII060420214912154",
    "count_view": 0
  },
  {
    "link_thumb": "https://live.staticflickr.com/65535/49694120846_2eac335fe5_n.jpg",
    "id_album": "-643980979",
    "description": "KAWAII2702202351112",
    "title": "KAWAII2702202351112",
    "link_img": "https://live.staticflickr.com/65535/49694120846_3ca1dfdfec_o.jpg",
    "id_image": "KAWAII2702202351112",
    "count_view": 0
  },
  {
    "link_thumb": "https://live.staticflickr.com/65535/49693552923_f17c02dde2_n.jpg",
    "id_album": "1201366373",
    "description": "KAWAII12091825180220205943",
    "title": "KAWAII12091825180220205943",
    "link_img": "https://live.staticflickr.com/65535/49693552923_0114e008e9_o.jpg",
    "id_image": "KAWAII12091825180220205943",
    "count_view": 0
  },
  {
    "link_thumb": "https://live.staticflickr.com/65535/49548576341_b3485a5923_n.jpg",
    "id_album": "-316663319",
    "description": "KAWAII120918238",
    "title": "KAWAII120918238",
    "link_img": "https://live.staticflickr.com/65535/49548576341_7d71027424_o.jpg",
    "id_image": "KAWAII120918238",
    "count_view": 0
  },
  {
    "link_thumb": "https://live.staticflickr.com/65535/49548225908_8b02db5410_n.jpg",
    "id_album": "-1741487325",
    "description": "KAWAII1702202238477",
    "title": "KAWAII1702202238477",
    "link_img": "https://live.staticflickr.com/65535/49548225908_6b4d49fa09_o.jpg",
    "id_image": "KAWAII1702202238477",
    "count_view": 0
  },
  {
    "link_thumb": "https://live.staticflickr.com/65535/49548183848_ded9940ffb_n.jpg",
    "id_album": "-316663319",
    "description": "KAWAII1702202237312",
    "title": "KAWAII1702202237312",
    "link_img": "https://live.staticflickr.com/65535/49548183848_e66a9dce38_o.jpg",
    "id_image": "KAWAII1702202237312",
    "count_view": 0
  },
  {
    "link_thumb": "https://live.staticflickr.com/65535/49578979767_e6d2afdbf8_n.jpg",
    "id_album": "-1099943053",
    "description": "KAWAII190220211128",
    "title": "KAWAII190220211128",
    "link_img": "https://live.staticflickr.com/65535/49578979767_dd095c1211_o.jpg",
    "id_image": "KAWAII190220211128",
    "count_view": 0
  },
  {
    "link_thumb": "https://live.staticflickr.com/65535/49548262878_df4979d677_n.jpg",
    "id_album": "949200594",
    "description": "KAWAII1709182",
    "title": "KAWAII1709182",
    "link_img": "https://live.staticflickr.com/65535/49548262878_9031c1d28c_o.jpg",
    "id_image": "KAWAII1709182",
    "count_view": 0
  },
  {
    "link_thumb": "https://live.staticflickr.com/65535/49743223077_cb6b0d531b_n.jpg",
    "id_album": "-1913845949",
    "description": "KAWAII06042021491116",
    "title": "KAWAII06042021491116",
    "link_img": "https://live.staticflickr.com/65535/49743223077_8b00a1bf15_o.jpg",
    "id_image": "KAWAII06042021491116",
    "count_view": 0
  },
  {
    "link_thumb": "https://live.staticflickr.com/65535/49548939692_eeedcea466_n.jpg",
    "id_album": "1396902986",
    "description": "KAWAII1702202238425",
    "title": "KAWAII1702202238425",
    "link_img": "https://live.staticflickr.com/65535/49548939692_4661bebe6c_o.jpg",
    "id_image": "KAWAII1702202238425",
    "count_view": 0
  },
  {
    "link_thumb": "https://live.staticflickr.com/65535/49742920591_936f45c463_n.jpg",
    "id_album": "-316663319",
    "description": "KAWAII060420214912117",
    "title": "KAWAII060420214912117",
    "link_img": "https://live.staticflickr.com/65535/49742920591_768b5a36c8_o.jpg",
    "id_image": "KAWAII060420214912117",
    "count_view": 0
  },
  {
    "link_thumb": "https://live.staticflickr.com/65535/49743230407_647f4957e1_n.jpg",
    "id_album": "-422187261",
    "description": "KAWAII060420214912126",
    "title": "KAWAII060420214912126",
    "link_img": "https://live.staticflickr.com/65535/49743230407_19a72103ae_o.jpg",
    "id_image": "KAWAII060420214912126",
    "count_view": 0
  },
  {
    "link_thumb": "https://live.staticflickr.com/65535/49548096618_cf27c22d92_n.jpg",
    "id_album": "-316663319",
    "description": "KAWAII120918333",
    "title": "KAWAII120918333",
    "link_img": "https://live.staticflickr.com/65535/49548096618_b4ddfc91c2_o.jpg",
    "id_image": "KAWAII120918333",
    "count_view": 0
  },
  {
    "link_thumb": "https://live.staticflickr.com/65535/49592972197_bbe1fefcc0_n.jpg",
    "id_album": "949200594",
    "description": "KAWAII2702202351124",
    "title": "KAWAII2702202351124",
    "link_img": "https://live.staticflickr.com/65535/49592972197_c4a68a870f_o.jpg",
    "id_image": "KAWAII2702202351124",
    "count_view": 0
  },
  {
    "link_thumb": "https://live.staticflickr.com/65535/49548935857_227d1e92ef_n.jpg",
    "id_album": "-422187261",
    "description": "KAWAII1702202238411",
    "title": "KAWAII1702202238411",
    "link_img": "https://live.staticflickr.com/65535/49548935857_20b73201c8_o.jpg",
    "id_image": "KAWAII1702202238411",
    "count_view": 0
  },
  {
    "link_thumb": "https://live.staticflickr.com/65535/49548116398_7aa6d8aed3_n.jpg",
    "id_album": "-316663319",
    "description": "KAWAII12091882",
    "title": "KAWAII12091882",
    "link_img": "https://live.staticflickr.com/65535/49548116398_cbf8fd4eaf_o.jpg",
    "id_image": "KAWAII12091882",
    "count_view": 0
  },
  {
    "link_thumb": "https://live.staticflickr.com/65535/49693682648_1a841806bb_n.jpg",
    "id_album": "46674803",
    "description": "KAWAII24032022050349",
    "title": "KAWAII24032022050349",
    "link_img": "https://live.staticflickr.com/65535/49693682648_21aa5984af_o.jpg",
    "id_image": "KAWAII24032022050349",
    "count_view": 0
  },
  {
    "link_thumb": "https://live.staticflickr.com/65535/49743226692_5476773f2b_n.jpg",
    "id_album": "-1913845949",
    "description": "KAWAII060420214915145",
    "title": "KAWAII060420214915145",
    "link_img": "https://live.staticflickr.com/65535/49743226692_8d41fa8dc2_o.jpg",
    "id_image": "KAWAII060420214915145",
    "count_view": 0
  },
  {
    "link_thumb": "https://live.staticflickr.com/65535/49742950221_4312b49a6a_n.jpg",
    "id_album": "-1862561193",
    "description": "KAWAII060420214912115",
    "title": "KAWAII060420214912115",
    "link_img": "https://live.staticflickr.com/65535/49742950221_7ea92642e8_o.jpg",
    "id_image": "KAWAII060420214912115",
    "count_view": 0
  },
  {
    "link_thumb": "https://live.staticflickr.com/65535/49694395392_08a2bd609a_n.jpg",
    "id_album": "1201366373",
    "description": "KAWAII120918227",
    "title": "KAWAII120918227",
    "link_img": "https://live.staticflickr.com/65535/49694395392_53d4fb2179_o.jpg",
    "id_image": "KAWAII120918227",
    "count_view": 0
  },
  {
    "link_thumb": "https://live.staticflickr.com/65535/49622314693_bcce1671b7_n.jpg",
    "id_album": "-316663319",
    "description": "KAWAII0503202021281",
    "title": "KAWAII0503202021281",
    "link_img": "https://live.staticflickr.com/65535/49622314693_850067808d_o.jpg",
    "id_image": "KAWAII0503202021281",
    "count_view": 0
  },
  {
    "link_thumb": "https://live.staticflickr.com/65535/49548911892_ae57db85f4_n.jpg",
    "id_album": "-422187261",
    "description": "KAWAII1702202237309",
    "title": "KAWAII1702202237309",
    "link_img": "https://live.staticflickr.com/65535/49548911892_342fb1ff70_o.jpg",
    "id_image": "KAWAII1702202237309",
    "count_view": 0
  },
  {
    "link_thumb": "https://live.staticflickr.com/65535/49694371987_aff287f26d_n.jpg",
    "id_album": "-643980979",
    "description": "KAWAII0503202021106",
    "title": "KAWAII0503202021106",
    "link_img": "https://live.staticflickr.com/65535/49694371987_c04ff20047_o.jpg",
    "id_image": "KAWAII0503202021106",
    "count_view": 0
  },
  {
    "link_thumb": "https://live.staticflickr.com/65535/49742956766_47b7a5156a_n.jpg",
    "id_album": "-1431786825",
    "description": "KAWAII060420214915297",
    "title": "KAWAII060420214915297",
    "link_img": "https://live.staticflickr.com/65535/49742956766_8f346b98d5_o.jpg",
    "id_image": "KAWAII060420214915297",
    "count_view": 0
  },
  {
    "link_thumb": "https://live.staticflickr.com/65535/49548271533_25e62fa621_n.jpg",
    "id_album": "-1741487325",
    "description": "KAWAII17091848",
    "title": "KAWAII17091848",
    "link_img": "https://live.staticflickr.com/65535/49548271533_37461da76b_o.jpg",
    "id_image": "KAWAII17091848",
    "count_view": 0
  },
  {
    "link_thumb": "https://live.staticflickr.com/65535/49694391217_c2cb8c3d6e_n.jpg",
    "id_album": "-643980979",
    "description": "KAWAII120918188",
    "title": "KAWAII120918188",
    "link_img": "https://live.staticflickr.com/65535/49694391217_bf892865be_o.jpg",
    "id_image": "KAWAII120918188",
    "count_view": 0
  },
  {
    "link_thumb": "https://live.staticflickr.com/65535/49743230917_4a213ccc73_n.jpg",
    "id_album": "-422187261",
    "description": "KAWAII06042021491288",
    "title": "KAWAII06042021491288",
    "link_img": "https://live.staticflickr.com/65535/49743230917_6c13b44d19_o.jpg",
    "id_image": "KAWAII06042021491288",
    "count_view": 0
  },
  {
    "link_thumb": "https://live.staticflickr.com/65535/49743260607_18448666e8_n.jpg",
    "id_album": "-1473448477",
    "description": "KAWAII060420214915228",
    "title": "KAWAII060420214915228",
    "link_img": "https://live.staticflickr.com/65535/49743260607_b7e23e9d31_o.jpg",
    "id_image": "KAWAII060420214915228",
    "count_view": 0
  },
  {
    "link_thumb": "https://live.staticflickr.com/65535/49548836022_9aaa929a07_n.jpg",
    "id_album": "-422187261",
    "description": "KAWAII120918374",
    "title": "KAWAII120918374",
    "link_img": "https://live.staticflickr.com/65535/49548836022_bb62d6afac_o.jpg",
    "id_image": "KAWAII120918374",
    "count_view": 0
  },
  {
    "link_thumb": "https://live.staticflickr.com/65535/49548964322_51e844af5a_n.jpg",
    "id_album": "-1099943053",
    "description": "KAWAII1702202239518",
    "title": "KAWAII1702202239518",
    "link_img": "https://live.staticflickr.com/65535/49548964322_7516ae3c5c_o.jpg",
    "id_image": "KAWAII1702202239518",
    "count_view": 0
  },
  {
    "link_thumb": "https://live.staticflickr.com/65535/49548157168_2631bc68a8_n.jpg",
    "id_album": "-1099943053",
    "description": "KAWAII1702202235180",
    "title": "KAWAII1702202235180",
    "link_img": "https://live.staticflickr.com/65535/49548157168_858f7d729f_o.jpg",
    "id_image": "KAWAII1702202235180",
    "count_view": 0
  },
  {
    "link_thumb": "https://live.staticflickr.com/65535/49693543518_7f415ef2a6_n.jpg",
    "id_album": "1201366373",
    "description": "KAWAII120918174",
    "title": "KAWAII120918174",
    "link_img": "https://live.staticflickr.com/65535/49693543518_017f9c514a_o.jpg",
    "id_image": "KAWAII120918174",
    "count_view": 0
  },
  {
    "link_thumb": "https://live.staticflickr.com/65535/49742931711_77cbb86041_n.jpg",
    "id_album": "-316663319",
    "description": "KAWAII060420214917277",
    "title": "KAWAII060420214917277",
    "link_img": "https://live.staticflickr.com/65535/49742931711_35c6fdfc96_o.jpg",
    "id_image": "KAWAII060420214917277",
    "count_view": 0
  },
  {
    "link_thumb": "https://live.staticflickr.com/65535/49548168908_a553a00311_n.jpg",
    "id_album": "-422187261",
    "description": "KAWAII1702202236236",
    "title": "KAWAII1702202236236",
    "link_img": "https://live.staticflickr.com/65535/49548168908_427e7af454_o.jpg",
    "id_image": "KAWAII1702202236236",
    "count_view": 0
  },
  {
    "link_thumb": "https://live.staticflickr.com/65535/49693526753_b1d2803960_n.jpg",
    "id_album": "-643980979",
    "description": "KAWAII0503202021140",
    "title": "KAWAII0503202021140",
    "link_img": "https://live.staticflickr.com/65535/49693526753_3f30c097d4_o.jpg",
    "id_image": "KAWAII0503202021140",
    "count_view": 0
  },
  {
    "link_thumb": "https://live.staticflickr.com/65535/49592958267_6c6c938d37_n.jpg",
    "id_album": "-316663319",
    "description": "KAWAII2702202351147",
    "title": "KAWAII2702202351147",
    "link_img": "https://live.staticflickr.com/65535/49592958267_63297f9b80_o.jpg",
    "id_image": "KAWAII2702202351147",
    "count_view": 0
  },
  {
    "link_thumb": "https://live.staticflickr.com/65535/49742934841_69d09604fe_n.jpg",
    "id_album": "-1473448477",
    "description": "KAWAII06042021491514",
    "title": "KAWAII06042021491514",
    "link_img": "https://live.staticflickr.com/65535/49742934841_48a5606e88_o.jpg",
    "id_image": "KAWAII06042021491514",
    "count_view": 0
  },
  {
    "link_thumb": "https://live.staticflickr.com/65535/49548979192_8701e062fe_n.jpg",
    "id_album": "-1431786825",
    "description": "KAWAII1702202239579",
    "title": "KAWAII1702202239579",
    "link_img": "https://live.staticflickr.com/65535/49548979192_dbd6fac7f5_o.jpg",
    "id_image": "KAWAII1702202239579",
    "count_view": 0
  },
  {
    "link_thumb": "https://live.staticflickr.com/65535/49694396057_61f4b86a01_n.jpg",
    "id_album": "1201366373",
    "description": "KAWAII120918239",
    "title": "KAWAII120918239",
    "link_img": "https://live.staticflickr.com/65535/49694396057_648b11ea93_o.jpg",
    "id_image": "KAWAII120918239",
    "count_view": 0
  },
  {
    "link_thumb": "https://live.staticflickr.com/65535/49726883238_c1f6625ddc_n.jpg",
    "id_album": "-1497779911",
    "description": "KAWAII020420194512169",
    "title": "KAWAII020420194512169",
    "link_img": "https://live.staticflickr.com/65535/49726883238_e983ae8813_o.jpg",
    "id_image": "KAWAII020420194512169",
    "count_view": 0
  },
  {
    "link_thumb": "https://live.staticflickr.com/65535/49693562268_2210e22661_n.jpg",
    "id_album": "1201366373",
    "description": "KAWAII12091899",
    "title": "KAWAII12091899",
    "link_img": "https://live.staticflickr.com/65535/49693562268_e18dd1bf79_o.jpg",
    "id_image": "KAWAII12091899",
    "count_view": 0
  },
  {
    "link_thumb": "https://live.staticflickr.com/65535/49694414657_93b941e79f_n.jpg",
    "id_album": "-643980979",
    "description": "KAWAII1702202238417",
    "title": "KAWAII1702202238417",
    "link_img": "https://live.staticflickr.com/65535/49694414657_66ce6860ea_o.jpg",
    "id_image": "KAWAII1702202238417",
    "count_view": 0
  },
  {
    "link_thumb": "https://live.staticflickr.com/65535/49743252732_c485ed0a5b_n.jpg",
    "id_album": "-316663319",
    "description": "KAWAII060420214915259",
    "title": "KAWAII060420214915259",
    "link_img": "https://live.staticflickr.com/65535/49743252732_68d6e0a7e8_o.jpg",
    "id_image": "KAWAII060420214915259",
    "count_view": 0
  },
  {
    "link_thumb": "https://live.staticflickr.com/65535/49548645296_9dcffe9684_n.jpg",
    "id_album": "-1432180061",
    "description": "KAWAII170220223492",
    "title": "KAWAII170220223492",
    "link_img": "https://live.staticflickr.com/65535/49548645296_0a4dc82c12_o.jpg",
    "id_image": "KAWAII170220223492",
    "count_view": 0
  },
  {
    "link_thumb": "https://live.staticflickr.com/65535/49694519607_e4b83724e6_n.jpg",
    "id_album": "-1694302085",
    "description": "KAWAII24032022050240",
    "title": "KAWAII24032022050240",
    "link_img": "https://live.staticflickr.com/65535/49694519607_620c1d6101_o.jpg",
    "id_image": "KAWAII24032022050240",
    "count_view": 0
  },
  {
    "link_thumb": "https://live.staticflickr.com/65535/49548083248_38f59ac156_n.jpg",
    "id_album": "-1741487325",
    "description": "KAWAII12091828",
    "title": "KAWAII12091828",
    "link_img": "https://live.staticflickr.com/65535/49548083248_c20621c5d3_o.jpg",
    "id_image": "KAWAII12091828",
    "count_view": 0
  },
  {
    "link_thumb": "https://live.staticflickr.com/65535/49548637661_4ae151bdfe_n.jpg",
    "id_album": "-422187261",
    "description": "KAWAII170220223458",
    "title": "KAWAII170220223458",
    "link_img": "https://live.staticflickr.com/65535/49548637661_246e7542bb_o.jpg",
    "id_image": "KAWAII170220223458",
    "count_view": 0
  },
  {
    "link_thumb": "https://live.staticflickr.com/65535/49592721721_e06e36db65_n.jpg",
    "id_album": "-316663319",
    "description": "KAWAII270220235191",
    "title": "KAWAII270220235191",
    "link_img": "https://live.staticflickr.com/65535/49592721721_5b0f60168c_o.jpg",
    "id_image": "KAWAII270220235191",
    "count_view": 0
  },
  {
    "link_thumb": "https://live.staticflickr.com/65535/49592216793_9f13e875ce_n.jpg",
    "id_album": "-316663319",
    "description": "KAWAII270220235168",
    "title": "KAWAII270220235168",
    "link_img": "https://live.staticflickr.com/65535/49592216793_25bdab5987_o.jpg",
    "id_image": "KAWAII270220235168",
    "count_view": 0
  },
  {
    "link_thumb": "https://live.staticflickr.com/65535/49727435836_0d2afe0df0_n.jpg",
    "id_album": "-316663319",
    "description": "KAWAII02042019450816",
    "title": "KAWAII02042019450816",
    "link_img": "https://live.staticflickr.com/65535/49727435836_df66c3d637_o.jpg",
    "id_image": "KAWAII02042019450816",
    "count_view": 0
  },
  {
    "link_thumb": "https://live.staticflickr.com/65535/49693560668_ac78a369e1_n.jpg",
    "id_album": "1201366373",
    "description": "KAWAII12091868",
    "title": "KAWAII12091868",
    "link_img": "https://live.staticflickr.com/65535/49693560668_03fd48be55_o.jpg",
    "id_image": "KAWAII12091868",
    "count_view": 0
  },
  {
    "link_thumb": "https://live.staticflickr.com/65535/49592975332_0aaa759e49_n.jpg",
    "id_album": "949200594",
    "description": "KAWAII27022023516",
    "title": "KAWAII27022023516",
    "link_img": "https://live.staticflickr.com/65535/49592975332_4ee484f112_o.jpg",
    "id_image": "KAWAII27022023516",
    "count_view": 0
  },
  {
    "link_thumb": "https://live.staticflickr.com/65535/49548903547_a7812df0f8_n.jpg",
    "id_album": "-422187261",
    "description": "KAWAII1702202236271",
    "title": "KAWAII1702202236271",
    "link_img": "https://live.staticflickr.com/65535/49548903547_c91e97f61d_o.jpg",
    "id_image": "KAWAII1702202236271",
    "count_view": 0
  },
  {
    "link_thumb": "https://live.staticflickr.com/65535/49592212928_405a8dd919_n.jpg",
    "id_album": "-316663319",
    "description": "KAWAII2702202351143",
    "title": "KAWAII2702202351143",
    "link_img": "https://live.staticflickr.com/65535/49592212928_3f4652a666_o.jpg",
    "id_image": "KAWAII2702202351143",
    "count_view": 0
  },
  {
    "link_thumb": "https://live.staticflickr.com/65535/49622282488_3d68eeeb21_n.jpg",
    "id_album": "-422187261",
    "description": "KAWAII05032020214",
    "title": "KAWAII05032020214",
    "link_img": "https://live.staticflickr.com/65535/49622282488_75d958fc73_o.jpg",
    "id_image": "KAWAII05032020214",
    "count_view": 0
  },
  {
    "link_thumb": "https://live.staticflickr.com/65535/49592231623_7d354d6249_n.jpg",
    "id_album": "-1431786825",
    "description": "KAWAII27022023512",
    "title": "KAWAII27022023512",
    "link_img": "https://live.staticflickr.com/65535/49592231623_1da59328d9_o.jpg",
    "id_image": "KAWAII27022023512",
    "count_view": 0
  },
  {
    "link_thumb": "https://live.staticflickr.com/65535/49726917603_404d3589cb_n.jpg",
    "id_album": "1396902986",
    "description": "KAWAII020420194511104",
    "title": "KAWAII020420194511104",
    "link_img": "https://live.staticflickr.com/65535/49726917603_3448c3a652_o.jpg",
    "id_image": "KAWAII020420194511104",
    "count_view": 0
  },
  {
    "link_thumb": "https://live.staticflickr.com/65535/49548228903_a91159fa1e_n.jpg",
    "id_album": "-1432180061",
    "description": "KAWAII1702202238490",
    "title": "KAWAII1702202238490",
    "link_img": "https://live.staticflickr.com/65535/49548228903_2cc4c933a6_o.jpg",
    "id_image": "KAWAII1702202238490",
    "count_view": 0
  },
  {
    "link_thumb": "https://live.staticflickr.com/65535/49622842546_d246727f5d_n.jpg",
    "id_album": "-406350429",
    "description": "KAWAII0503202021129",
    "title": "KAWAII0503202021129",
    "link_img": "https://live.staticflickr.com/65535/49622842546_1fdb3f8ea0_o.jpg",
    "id_image": "KAWAII0503202021129",
    "count_view": 0
  },
  {
    "link_thumb": "https://live.staticflickr.com/65535/49548883037_90f47a531b_n.jpg",
    "id_album": "-1099943053",
    "description": "KAWAII1702202235167",
    "title": "KAWAII1702202235167",
    "link_img": "https://live.staticflickr.com/65535/49548883037_5000aae354_o.jpg",
    "id_image": "KAWAII1702202235167",
    "count_view": 0
  },
  {
    "link_thumb": "https://live.staticflickr.com/65535/49742958826_9d73988b98_n.jpg",
    "id_album": "1226948986",
    "description": "KAWAII060420214918254",
    "title": "KAWAII060420214918254",
    "link_img": "https://live.staticflickr.com/65535/49742958826_454e3e0b10_o.jpg",
    "id_image": "KAWAII060420214918254",
    "count_view": 0
  },
  {
    "link_thumb": "https://live.staticflickr.com/65535/49743251107_e88cc269cf_n.jpg",
    "id_album": "-316663319",
    "description": "KAWAII060420214915164",
    "title": "KAWAII060420214915164",
    "link_img": "https://live.staticflickr.com/65535/49743251107_4266a8506e_o.jpg",
    "id_image": "KAWAII060420214915164",
    "count_view": 0
  },
  {
    "link_thumb": "https://live.staticflickr.com/65535/49548666081_af29dc7e0d_n.jpg",
    "id_album": "-316663319",
    "description": "KAWAII1702202235217",
    "title": "KAWAII1702202235217",
    "link_img": "https://live.staticflickr.com/65535/49548666081_f380b51d80_o.jpg",
    "id_image": "KAWAII1702202235217",
    "count_view": 0
  },
  {
    "link_thumb": "https://live.staticflickr.com/65535/49548997562_78b5dab695_n.jpg",
    "id_album": "-316663319",
    "description": "KAWAII17091843",
    "title": "KAWAII17091843",
    "link_img": "https://live.staticflickr.com/65535/49548997562_84d0f9d739_o.jpg",
    "id_image": "KAWAII17091843",
    "count_view": 0
  },
  {
    "link_thumb": "https://live.staticflickr.com/65535/49727438706_b9603057a0_n.jpg",
    "id_album": "-316663319",
    "description": "KAWAII020420194511149",
    "title": "KAWAII020420194511149",
    "link_img": "https://live.staticflickr.com/65535/49727438706_77d57e8b5d_o.jpg",
    "id_image": "KAWAII020420194511149",
    "count_view": 0
  },
  {
    "link_thumb": "https://live.staticflickr.com/65535/49549724838_49f72f0e2b_n.jpg",
    "id_album": "-1694302085",
    "description": "KAWAII12091834",
    "title": "KAWAII12091834",
    "link_img": "https://live.staticflickr.com/65535/49549724838_77a3d2a921_o.jpg",
    "id_image": "KAWAII12091834",
    "count_view": 0
  },
  {
    "link_thumb": "https://live.staticflickr.com/65535/49726888268_378c11866f_n.jpg",
    "id_album": "-316663319",
    "description": "KAWAII020420194507136",
    "title": "KAWAII020420194507136",
    "link_img": "https://live.staticflickr.com/65535/49726888268_6343a99482_o.jpg",
    "id_image": "KAWAII020420194507136",
    "count_view": 0
  },
  {
    "link_thumb": "https://live.staticflickr.com/65535/49693680053_5058b72042_n.jpg",
    "id_album": "1201366373",
    "description": "KAWAII24032022050243",
    "title": "KAWAII24032022050243",
    "link_img": "https://live.staticflickr.com/65535/49693680053_0fbb10e2f5_o.jpg",
    "id_image": "KAWAII24032022050243",
    "count_view": 0
  },
  {
    "link_thumb": "https://live.staticflickr.com/65535/49694227926_f1cd878911_n.jpg",
    "id_album": "1226948986",
    "description": "KAWAII24032022050226",
    "title": "KAWAII24032022050226",
    "link_img": "https://live.staticflickr.com/65535/49694227926_69285a2df3_o.jpg",
    "id_image": "KAWAII24032022050226",
    "count_view": 0
  },
  {
    "link_thumb": "https://live.staticflickr.com/65535/49622825466_29ee1c26a4_n.jpg",
    "id_album": "-316663319",
    "description": "KAWAII0503202021227",
    "title": "KAWAII0503202021227",
    "link_img": "https://live.staticflickr.com/65535/49622825466_a5578440bd_o.jpg",
    "id_image": "KAWAII0503202021227",
    "count_view": 0
  },
  {
    "link_thumb": "https://live.staticflickr.com/65535/49592977537_6b698f11fb_n.jpg",
    "id_album": "431597977",
    "description": "KAWAII2702202351127",
    "title": "KAWAII2702202351127",
    "link_img": "https://live.staticflickr.com/65535/49592977537_9ce2167b2c_o.jpg",
    "id_image": "KAWAII2702202351127",
    "count_view": 0
  },
  {
    "link_thumb": "https://live.staticflickr.com/65535/49622318298_c76690c0d0_n.jpg",
    "id_album": "-316663319",
    "description": "KAWAII0503202021318",
    "title": "KAWAII0503202021318",
    "link_img": "https://live.staticflickr.com/65535/49622318298_b27af57c0d_o.jpg",
    "id_image": "KAWAII0503202021318",
    "count_view": 0
  },
  {
    "link_thumb": "https://live.staticflickr.com/65535/49548627341_d1e91ca898_n.jpg",
    "id_album": "1396902986",
    "description": "KAWAII170220223332",
    "title": "KAWAII170220223332",
    "link_img": "https://live.staticflickr.com/65535/49548627341_947cb50218_o.jpg",
    "id_image": "KAWAII170220223332",
    "count_view": 0
  },
  {
    "link_thumb": "https://live.staticflickr.com/65535/49727452181_6e3fb2e28d_n.jpg",
    "id_album": "742877173",
    "description": "KAWAII02042019451392",
    "title": "KAWAII02042019451392",
    "link_img": "https://live.staticflickr.com/65535/49727452181_79ff531b9a_o.jpg",
    "id_image": "KAWAII02042019451392",
    "count_view": 0
  },
  {
    "link_thumb": "https://live.staticflickr.com/65535/49592732136_8ec2b07b5c_n.jpg",
    "id_album": "949200594",
    "description": "KAWAII270220235128",
    "title": "KAWAII270220235128",
    "link_img": "https://live.staticflickr.com/65535/49592732136_e1c28a6421_o.jpg",
    "id_image": "KAWAII270220235128",
    "count_view": 0
  },
  {
    "link_thumb": "https://live.staticflickr.com/65535/49710287328_18c2ba3d5f_n.jpg",
    "id_album": "-1599896063",
    "description": "LITTLEMONK29032012063624",
    "title": "LITTLEMONK29032012063624",
    "link_img": "https://live.staticflickr.com/65535/49710287328_1c3a63f6c7_o.jpg",
    "id_image": "LITTLEMONK29032012063624",
    "count_view": 0
  },
  {
    "link_thumb": "https://live.staticflickr.com/65535/49693574143_b085e67ec3_n.jpg",
    "id_album": "-643980979",
    "description": "KAWAII17022023463",
    "title": "KAWAII17022023463",
    "link_img": "https://live.staticflickr.com/65535/49693574143_396fa49eca_o.jpg",
    "id_image": "KAWAII17022023463",
    "count_view": 0
  },
  {
    "link_thumb": "https://live.staticflickr.com/65535/49548831722_d24a211b41_n.jpg",
    "id_album": "-1741487325",
    "description": "KAWAII120918357",
    "title": "KAWAII120918357",
    "link_img": "https://live.staticflickr.com/65535/49548831722_b0387db658_o.jpg",
    "id_image": "KAWAII120918357",
    "count_view": 0
  },
  {
    "link_thumb": "https://live.staticflickr.com/65535/49622840081_e373bc4bf9_n.jpg",
    "id_album": "-1694302085",
    "description": "KAWAII050320202197",
    "title": "KAWAII050320202197",
    "link_img": "https://live.staticflickr.com/65535/49622840081_3138ee4372_o.jpg",
    "id_image": "KAWAII050320202197",
    "count_view": 0
  },
  {
    "link_thumb": "https://live.staticflickr.com/65535/49548557526_ce8318248b_n.jpg",
    "id_album": "-1741487325",
    "description": "KAWAII120918154",
    "title": "KAWAII120918154",
    "link_img": "https://live.staticflickr.com/65535/49548557526_0c16422ca2_o.jpg",
    "id_image": "KAWAII120918154",
    "count_view": 0
  },
  {
    "link_thumb": "https://live.staticflickr.com/65535/49548198158_5a9a25317d_n.jpg",
    "id_album": "1396902986",
    "description": "KAWAII1702202237373",
    "title": "KAWAII1702202237373",
    "link_img": "https://live.staticflickr.com/65535/49548198158_a3bf926739_o.jpg",
    "id_image": "KAWAII1702202237373",
    "count_view": 0
  },
  {
    "link_thumb": "https://live.staticflickr.com/65535/49693675653_0e7fd4a63e_n.jpg",
    "id_album": "-643980979",
    "description": "KAWAII24032022050223",
    "title": "KAWAII24032022050223",
    "link_img": "https://live.staticflickr.com/65535/49693675653_c3fa1e43ba_o.jpg",
    "id_image": "KAWAII24032022050223",
    "count_view": 0
  },
  {
    "link_thumb": "https://live.staticflickr.com/65535/49623106012_72c5b795af_n.jpg",
    "id_album": "-316663319",
    "description": "KAWAII0503202021329",
    "title": "KAWAII0503202021329",
    "link_img": "https://live.staticflickr.com/65535/49623106012_690d803bf8_o.jpg",
    "id_image": "KAWAII0503202021329",
    "count_view": 0
  },
  {
    "link_thumb": "https://live.staticflickr.com/65535/49592706831_861ca62369_n.jpg",
    "id_album": "1396902986",
    "description": "KAWAII2702202351138",
    "title": "KAWAII2702202351138",
    "link_img": "https://live.staticflickr.com/65535/49592706831_561d937080_o.jpg",
    "id_image": "KAWAII2702202351138",
    "count_view": 0
  },
  {
    "link_thumb": "https://live.staticflickr.com/65535/49693672998_18981af17b_n.jpg",
    "id_album": "-1741487325",
    "description": "KAWAII0503202021121",
    "title": "KAWAII0503202021121",
    "link_img": "https://live.staticflickr.com/65535/49693672998_32a6f17ddf_o.jpg",
    "id_image": "KAWAII0503202021121",
    "count_view": 0
  },
  {
    "link_thumb": "https://live.staticflickr.com/65535/49622318068_abdf8528a3_n.jpg",
    "id_album": "-316663319",
    "description": "KAWAII0503202021317",
    "title": "KAWAII0503202021317",
    "link_img": "https://live.staticflickr.com/65535/49622318068_1c4d332d4b_o.jpg",
    "id_image": "KAWAII0503202021317",
    "count_view": 0
  },
  {
    "link_thumb": "https://live.staticflickr.com/65535/49622817691_a07586d03f_n.jpg",
    "id_album": "-316663319",
    "description": "KAWAII0503202021136",
    "title": "KAWAII0503202021136",
    "link_img": "https://live.staticflickr.com/65535/49622817691_ecde707fe4_o.jpg",
    "id_image": "KAWAII0503202021136",
    "count_view": 0
  },
  {
    "link_thumb": "https://live.staticflickr.com/65535/49694074191_e14d810a12_n.jpg",
    "id_album": "1201366373",
    "description": "KAWAII0503202021272",
    "title": "KAWAII0503202021272",
    "link_img": "https://live.staticflickr.com/65535/49694074191_c31d33492f_o.jpg",
    "id_image": "KAWAII0503202021272",
    "count_view": 0
  },
  {
    "link_thumb": "https://live.staticflickr.com/65535/49694218436_5e85cee4f6_n.jpg",
    "id_album": "-643980979",
    "description": "KAWAII24032022050213",
    "title": "KAWAII24032022050213",
    "link_img": "https://live.staticflickr.com/65535/49694218436_ac6a12492e_o.jpg",
    "id_image": "KAWAII24032022050213",
    "count_view": 0
  },
  {
    "link_thumb": "https://live.staticflickr.com/65535/49592204403_99989d7f92_n.jpg",
    "id_album": "1396902986",
    "description": "KAWAII2702202351145",
    "title": "KAWAII2702202351145",
    "link_img": "https://live.staticflickr.com/65535/49592204403_aa5304ec91_o.jpg",
    "id_image": "KAWAII2702202351145",
    "count_view": 0
  },
  {
    "link_thumb": "https://live.staticflickr.com/65535/49694427082_1206fc2ee5_n.jpg",
    "id_album": "-358592519",
    "description": "KAWAII120918347",
    "title": "KAWAII120918347",
    "link_img": "https://live.staticflickr.com/65535/49694427082_21e2e6b3a7_o.jpg",
    "id_image": "KAWAII120918347",
    "count_view": 0
  },
  {
    "link_thumb": "https://live.staticflickr.com/65535/49694077156_c5fd24ec02_n.jpg",
    "id_album": "1201366373",
    "description": "KAWAII050320202157",
    "title": "KAWAII050320202157",
    "link_img": "https://live.staticflickr.com/65535/49694077156_9f3764fdb2_o.jpg",
    "id_image": "KAWAII050320202157",
    "count_view": 0
  },
  {
    "link_thumb": "https://live.staticflickr.com/65535/49548070103_c51992d11a_n.jpg",
    "id_album": "-316663319",
    "description": "KAWAII120918218",
    "title": "KAWAII120918218",
    "link_img": "https://live.staticflickr.com/65535/49548070103_060f53032d_o.jpg",
    "id_image": "KAWAII120918218",
    "count_view": 0
  },
  {
    "link_thumb": "https://live.staticflickr.com/65535/49624534956_61c9218b20_n.jpg",
    "id_album": "-316663319",
    "description": "KAWAII0503202021123",
    "title": "KAWAII0503202021123",
    "link_img": "https://live.staticflickr.com/65535/49624534956_f0789ba80b_o.jpg",
    "id_image": "KAWAII0503202021123",
    "count_view": 0
  },
  {
    "link_thumb": "https://live.staticflickr.com/65535/49548797477_8571510e7c_n.jpg",
    "id_album": "-316663319",
    "description": "KAWAII120918211",
    "title": "KAWAII120918211",
    "link_img": "https://live.staticflickr.com/65535/49548797477_695593c1eb_o.jpg",
    "id_image": "KAWAII120918211",
    "count_view": 0
  },
  {
    "link_thumb": "https://live.staticflickr.com/65535/49548569911_ae8fa3c61b_n.jpg",
    "id_album": "-316663319",
    "description": "KAWAII120918206",
    "title": "KAWAII120918206",
    "link_img": "https://live.staticflickr.com/65535/49548569911_2d31a8ac7c_o.jpg",
    "id_image": "KAWAII120918206",
    "count_view": 0
  },
  {
    "link_thumb": "https://live.staticflickr.com/65535/49694120256_28cdfc4b93_n.jpg",
    "id_album": "-643980979",
    "description": "KAWAII1709186",
    "title": "KAWAII1709186",
    "link_img": "https://live.staticflickr.com/65535/49694120256_9b5ee318c4_o.jpg",
    "id_image": "KAWAII1709186",
    "count_view": 0
  },
  {
    "link_thumb": "https://live.staticflickr.com/65535/49693571358_8e09d12fdf_n.jpg",
    "id_album": "1201366373",
    "description": "KAWAII1702202239530",
    "title": "KAWAII1702202239530",
    "link_img": "https://live.staticflickr.com/65535/49693571358_19ac9b5d03_o.jpg",
    "id_image": "KAWAII1702202239530",
    "count_view": 0
  },
  {
    "link_thumb": "https://live.staticflickr.com/65535/49578975672_8980cce170_n.jpg",
    "id_album": "-1694302085",
    "description": "KAWAII190220211114",
    "title": "KAWAII190220211114",
    "link_img": "https://live.staticflickr.com/65535/49578975672_926de08b53_o.jpg",
    "id_image": "KAWAII190220211114",
    "count_view": 0
  },
  {
    "link_thumb": "https://live.staticflickr.com/65535/49694399217_cbba865cc7_n.jpg",
    "id_album": "1201366373",
    "description": "KAWAII120918258",
    "title": "KAWAII120918258",
    "link_img": "https://live.staticflickr.com/65535/49694399217_7d9a3d0afb_o.jpg",
    "id_image": "KAWAII120918258",
    "count_view": 0
  },
  {
    "link_thumb": "https://live.staticflickr.com/65535/49743250357_13ae99ab78_n.jpg",
    "id_album": "-316663319",
    "description": "KAWAII06042021491462",
    "title": "KAWAII06042021491462",
    "link_img": "https://live.staticflickr.com/65535/49743250357_83a78b8b87_o.jpg",
    "id_image": "KAWAII06042021491462",
    "count_view": 0
  },
  {
    "link_thumb": "https://live.staticflickr.com/65535/49548097683_dce4ccbd7e_n.jpg",
    "id_album": "1396902986",
    "description": "KAWAII120918338",
    "title": "KAWAII120918338",
    "link_img": "https://live.staticflickr.com/65535/49548097683_818d033f2d_o.jpg",
    "id_image": "KAWAII120918338",
    "count_view": 0
  },
  {
    "link_thumb": "https://live.staticflickr.com/65535/49743228317_96446c5e59_n.jpg",
    "id_album": "-1913845949",
    "description": "KAWAII060420214917223",
    "title": "KAWAII060420214917223",
    "link_img": "https://live.staticflickr.com/65535/49743228317_44d2346ef5_o.jpg",
    "id_image": "KAWAII060420214917223",
    "count_view": 0
  },
  {
    "link_thumb": "https://live.staticflickr.com/65535/49548761011_a854ffae56_n.jpg",
    "id_album": "-1741487325",
    "description": "KAWAII17091812",
    "title": "KAWAII17091812",
    "link_img": "https://live.staticflickr.com/65535/49548761011_2a9b4eef60_o.jpg",
    "id_image": "KAWAII17091812",
    "count_view": 0
  },
  {
    "link_thumb": "https://live.staticflickr.com/65535/49727451156_2cb9eeaf11_n.jpg",
    "id_album": "742877173",
    "description": "KAWAII020420194513192",
    "title": "KAWAII020420194513192",
    "link_img": "https://live.staticflickr.com/65535/49727451156_412c0019a3_o.jpg",
    "id_image": "KAWAII020420194513192",
    "count_view": 0
  },
  {
    "link_thumb": "https://live.staticflickr.com/65535/49742394333_248e9fd4df_n.jpg",
    "id_album": "-1473448477",
    "description": "KAWAII06042021491769",
    "title": "KAWAII06042021491769",
    "link_img": "https://live.staticflickr.com/65535/49742394333_6a2ae180b8_o.jpg",
    "id_image": "KAWAII06042021491769",
    "count_view": 0
  },
  {
    "link_thumb": "https://live.staticflickr.com/65535/49548974152_be46f5c0fd_n.jpg",
    "id_album": "-1099943053",
    "description": "KAWAII1702202239557",
    "title": "KAWAII1702202239557",
    "link_img": "https://live.staticflickr.com/65535/49548974152_183ccf7aa7_o.jpg",
    "id_image": "KAWAII1702202239557",
    "count_view": 0
  },
  {
    "link_thumb": "https://live.staticflickr.com/65535/49727767512_205497106d_n.jpg",
    "id_album": "742877173",
    "description": "KAWAII02042019451463",
    "title": "KAWAII02042019451463",
    "link_img": "https://live.staticflickr.com/65535/49727767512_7e3dc89614_o.jpg",
    "id_image": "KAWAII02042019451463",
    "count_view": 0
  },
  {
    "link_thumb": "https://live.staticflickr.com/65535/49694376347_2b2a6352a1_n.jpg",
    "id_album": "-643980979",
    "description": "KAWAII050320202127",
    "title": "KAWAII050320202127",
    "link_img": "https://live.staticflickr.com/65535/49694376347_6183e39181_o.jpg",
    "id_image": "KAWAII050320202127",
    "count_view": 0
  },
  {
    "link_thumb": "https://live.staticflickr.com/65535/49548913477_92e37deab5_n.jpg",
    "id_album": "-1432180061",
    "description": "KAWAII1702202237316",
    "title": "KAWAII1702202237316",
    "link_img": "https://live.staticflickr.com/65535/49548913477_c9c6ed692f_o.jpg",
    "id_image": "KAWAII1702202237316",
    "count_view": 0
  },
  {
    "link_thumb": "https://live.staticflickr.com/65535/49548768756_e4617aa069_n.jpg",
    "id_album": "-316663319",
    "description": "KAWAII17091837",
    "title": "KAWAII17091837",
    "link_img": "https://live.staticflickr.com/65535/49548768756_e5066f3994_o.jpg",
    "id_image": "KAWAII17091837",
    "count_view": 0
  },
  {
    "link_thumb": "https://live.staticflickr.com/65535/49742900706_1b37181690_n.jpg",
    "id_album": "-1913845949",
    "description": "KAWAII060420214912227",
    "title": "KAWAII060420214912227",
    "link_img": "https://live.staticflickr.com/65535/49742900706_25e8c5e60f_o.jpg",
    "id_image": "KAWAII060420214912227",
    "count_view": 0
  },
  {
    "link_thumb": "https://live.staticflickr.com/65535/49548105213_4534f29ce5_n.jpg",
    "id_album": "-1741487325",
    "description": "KAWAII120918368",
    "title": "KAWAII120918368",
    "link_img": "https://live.staticflickr.com/65535/49548105213_8eae108d58_o.jpg",
    "id_image": "KAWAII120918368",
    "count_view": 0
  },
  {
    "link_thumb": "https://live.staticflickr.com/65535/49548263893_45c89875c1_n.jpg",
    "id_album": "949200594",
    "description": "KAWAII17091822",
    "title": "KAWAII17091822",
    "link_img": "https://live.staticflickr.com/65535/49548263893_50121a0bbf_o.jpg",
    "id_image": "KAWAII17091822",
    "count_view": 0
  },
  {
    "link_thumb": "https://live.staticflickr.com/65535/49727765352_0869067462_n.jpg",
    "id_album": "742877173",
    "description": "KAWAII02042019451320",
    "title": "KAWAII02042019451320",
    "link_img": "https://live.staticflickr.com/65535/49727765352_8bb5a36140_o.jpg",
    "id_image": "KAWAII02042019451320",
    "count_view": 0
  },
  {
    "link_thumb": "https://live.staticflickr.com/65535/49742930621_46cbfcebfa_n.jpg",
    "id_album": "-316663319",
    "description": "KAWAII060420214917101",
    "title": "KAWAII060420214917101",
    "link_img": "https://live.staticflickr.com/65535/49742930621_c8a5efe622_o.jpg",
    "id_image": "KAWAII060420214917101",
    "count_view": 0
  },
  {
    "link_thumb": "https://live.staticflickr.com/65535/49694126256_4dc9484853_n.jpg",
    "id_album": "-1431786825",
    "description": "KAWAII270220235197",
    "title": "KAWAII270220235197",
    "link_img": "https://live.staticflickr.com/65535/49694126256_a9edd582f5_o.jpg",
    "id_image": "KAWAII270220235197",
    "count_view": 0
  },
  {
    "link_thumb": "https://live.staticflickr.com/65535/49549001717_8ec64f1a0b_n.jpg",
    "id_album": "949200594",
    "description": "KAWAII17091858",
    "title": "KAWAII17091858",
    "link_img": "https://live.staticflickr.com/65535/49549001717_cf02f085f2_o.jpg",
    "id_image": "KAWAII17091858",
    "count_view": 0
  },
  {
    "link_thumb": "https://live.staticflickr.com/65535/49548783417_8fb83743c1_n.jpg",
    "id_album": "-316663319",
    "description": "KAWAII120918149",
    "title": "KAWAII120918149",
    "link_img": "https://live.staticflickr.com/65535/49548783417_2e592593da_o.jpg",
    "id_image": "KAWAII120918149",
    "count_view": 0
  },
  {
    "link_thumb": "https://live.staticflickr.com/65535/49694126526_abcb395523_n.jpg",
    "id_album": "1563362783",
    "description": "KAWAII12091825180220205941",
    "title": "KAWAII12091825180220205941",
    "link_img": "https://live.staticflickr.com/65535/49694126526_2b65538756_o.jpg",
    "id_image": "KAWAII12091825180220205941",
    "count_view": 0
  },
  {
    "link_thumb": "https://live.staticflickr.com/65535/49548978222_83df9d4960_n.jpg",
    "id_album": "-1694302085",
    "description": "KAWAII1702202239575",
    "title": "KAWAII1702202239575",
    "link_img": "https://live.staticflickr.com/65535/49548978222_34d8bacd1b_o.jpg",
    "id_image": "KAWAII1702202239575",
    "count_view": 0
  },
  {
    "link_thumb": "https://live.staticflickr.com/65535/49742395548_5e7830a336_n.jpg",
    "id_album": "-1779286820",
    "description": "KAWAII06042021491283",
    "title": "KAWAII06042021491283",
    "link_img": "https://live.staticflickr.com/65535/49742395548_6ec275cb37_o.jpg",
    "id_image": "KAWAII06042021491283",
    "count_view": 0
  },
  {
    "link_thumb": "https://live.staticflickr.com/65535/49727437436_c6c1274a44_n.jpg",
    "id_album": "-316663319",
    "description": "KAWAII020420194510260",
    "title": "KAWAII020420194510260",
    "link_img": "https://live.staticflickr.com/65535/49727437436_fdae47b3bc_o.jpg",
    "id_image": "KAWAII020420194510260",
    "count_view": 0
  },
  {
    "link_thumb": "https://live.staticflickr.com/65535/49743245022_595e6c3c9d_n.jpg",
    "id_album": "-316663319",
    "description": "KAWAII060420214912171",
    "title": "KAWAII060420214912171",
    "link_img": "https://live.staticflickr.com/65535/49743245022_74a0af58a2_o.jpg",
    "id_image": "KAWAII060420214912171",
    "count_view": 0
  },
  {
    "link_thumb": "https://live.staticflickr.com/65535/49726920793_d5f069a07f_n.jpg",
    "id_album": "-1862561193",
    "description": "KAWAII0204201945111",
    "title": "KAWAII0204201945111",
    "link_img": "https://live.staticflickr.com/65535/49726920793_d6b6f36c3f_o.jpg",
    "id_image": "KAWAII0204201945111",
    "count_view": 0
  },
  {
    "link_thumb": "https://live.staticflickr.com/65535/49727740517_150b78a0fe_n.jpg",
    "id_album": "-1694302085",
    "description": "KAWAII0503202021203",
    "title": "KAWAII0503202021203",
    "link_img": "https://live.staticflickr.com/65535/49727740517_44ae058446_o.jpg",
    "id_image": "KAWAII0503202021203",
    "count_view": 0
  },
  {
    "link_thumb": "https://live.staticflickr.com/65535/49742948761_e94d2c008c_n.jpg",
    "id_album": "1396902986",
    "description": "KAWAII060420214915147",
    "title": "KAWAII060420214915147",
    "link_img": "https://live.staticflickr.com/65535/49742948761_b4e2a9b1d7_o.jpg",
    "id_image": "KAWAII060420214915147",
    "count_view": 0
  },
  {
    "link_thumb": "https://live.staticflickr.com/65535/49622816441_a1185fa8c3_n.jpg",
    "id_album": "-316663319",
    "description": "KAWAII0503202021128",
    "title": "KAWAII0503202021128",
    "link_img": "https://live.staticflickr.com/65535/49622816441_16b93e7b8c_o.jpg",
    "id_image": "KAWAII0503202021128",
    "count_view": 0
  },
  {
    "link_thumb": "https://live.staticflickr.com/65535/49742357218_998358f25d_n.jpg",
    "id_album": "-1913845949",
    "description": "KAWAII06042021491719",
    "title": "KAWAII06042021491719",
    "link_img": "https://live.staticflickr.com/65535/49742357218_847a0f458e_o.jpg",
    "id_image": "KAWAII06042021491719",
    "count_view": 0
  },
  {
    "link_thumb": "https://live.staticflickr.com/65535/49548833852_d878829ec5_n.jpg",
    "id_album": "-1741487325",
    "description": "KAWAII120918365",
    "title": "KAWAII120918365",
    "link_img": "https://live.staticflickr.com/65535/49548833852_1826f5a600_o.jpg",
    "id_image": "KAWAII120918365",
    "count_view": 0
  },
  {
    "link_thumb": "https://live.staticflickr.com/65535/49726879358_9ce8e60cbd_n.jpg",
    "id_album": "-1694302085",
    "description": "KAWAII1702202235203",
    "title": "KAWAII1702202235203",
    "link_img": "https://live.staticflickr.com/65535/49726879358_ba7a714bb3_o.jpg",
    "id_image": "KAWAII1702202235203",
    "count_view": 0
  },
  {
    "link_thumb": "https://live.staticflickr.com/65535/49694096531_6d257d2400_n.jpg",
    "id_album": "1201366373",
    "description": "KAWAII120918256",
    "title": "KAWAII120918256",
    "link_img": "https://live.staticflickr.com/65535/49694096531_ee6e497485_o.jpg",
    "id_image": "KAWAII120918256",
    "count_view": 0
  },
  {
    "link_thumb": "https://live.staticflickr.com/65535/49742356483_b4dbd813b8_n.jpg",
    "id_album": "-1913845949",
    "description": "KAWAII060420214915298",
    "title": "KAWAII060420214915298",
    "link_img": "https://live.staticflickr.com/65535/49742356483_5d266574ca_o.jpg",
    "id_image": "KAWAII060420214915298",
    "count_view": 0
  },
  {
    "link_thumb": "https://live.staticflickr.com/65535/49727745242_30f5689fc8_n.jpg",
    "id_album": "-1497779911",
    "description": "KAWAII0503202021111",
    "title": "KAWAII0503202021111",
    "link_img": "https://live.staticflickr.com/65535/49727745242_eabb43d373_o.jpg",
    "id_image": "KAWAII0503202021111",
    "count_view": 0
  },
  {
    "link_thumb": "https://live.staticflickr.com/65535/49548735951_b794b658f5_n.jpg",
    "id_album": "-1099943053",
    "description": "KAWAII1702202239513",
    "title": "KAWAII1702202239513",
    "link_img": "https://live.staticflickr.com/65535/49548735951_f7a5f3408a_o.jpg",
    "id_image": "KAWAII1702202239513",
    "count_view": 0
  },
  {
    "link_thumb": "https://live.staticflickr.com/65535/49592714866_6f627c0f8c_n.jpg",
    "id_album": "-316663319",
    "description": "KAWAII2702202351133",
    "title": "KAWAII2702202351133",
    "link_img": "https://live.staticflickr.com/65535/49592714866_e095f49d99_o.jpg",
    "id_image": "KAWAII2702202351133",
    "count_view": 0
  },
  {
    "link_thumb": "https://live.staticflickr.com/65535/49622799796_dd4a25355b_n.jpg",
    "id_album": "1396902986",
    "description": "KAWAII0503202021137",
    "title": "KAWAII0503202021137",
    "link_img": "https://live.staticflickr.com/65535/49622799796_cc0cd3eacf_o.jpg",
    "id_image": "KAWAII0503202021137",
    "count_view": 0
  },
  {
    "link_thumb": "https://live.staticflickr.com/65535/49622800506_09fc9b0002_n.jpg",
    "id_album": "1396902986",
    "description": "KAWAII0503202021183",
    "title": "KAWAII0503202021183",
    "link_img": "https://live.staticflickr.com/65535/49622800506_077a2f79f3_o.jpg",
    "id_image": "KAWAII0503202021183",
    "count_view": 0
  },
  {
    "link_thumb": "https://live.staticflickr.com/65535/49548925972_dd3fa62419_n.jpg",
    "id_album": "-1694302085",
    "description": "KAWAII1702202237371",
    "title": "KAWAII1702202237371",
    "link_img": "https://live.staticflickr.com/65535/49548925972_2d9bcc6478_o.jpg",
    "id_image": "KAWAII1702202237371",
    "count_view": 0
  },
  {
    "link_thumb": "https://live.staticflickr.com/65535/49742383978_dc2f7e6b51_n.jpg",
    "id_album": "-316663319",
    "description": "KAWAII060420214917274",
    "title": "KAWAII060420214917274",
    "link_img": "https://live.staticflickr.com/65535/49742383978_41a4e29da8_o.jpg",
    "id_image": "KAWAII060420214917274",
    "count_view": 0
  },
  {
    "link_thumb": "https://live.staticflickr.com/65535/49548898457_9de20dea0d_n.jpg",
    "id_album": "-1099943053",
    "description": "KAWAII1702202236242",
    "title": "KAWAII1702202236242",
    "link_img": "https://live.staticflickr.com/65535/49548898457_c80e13399e_o.jpg",
    "id_image": "KAWAII1702202236242",
    "count_view": 0
  },
  {
    "link_thumb": "https://live.staticflickr.com/65535/49694123786_4dfbc91314_n.jpg",
    "id_album": "-358592519",
    "description": "KAWAII12091813",
    "title": "KAWAII12091813",
    "link_img": "https://live.staticflickr.com/65535/49694123786_e816227923_o.jpg",
    "id_image": "KAWAII12091813",
    "count_view": 0
  },
  {
    "link_thumb": "https://live.staticflickr.com/65535/49743271717_310a3eb648_n.jpg",
    "id_album": "1396902986",
    "description": "KAWAII060420214914281",
    "title": "KAWAII060420214914281",
    "link_img": "https://live.staticflickr.com/65535/49743271717_6beb0e24a8_o.jpg",
    "id_image": "KAWAII060420214914281",
    "count_view": 0
  },
  {
    "link_thumb": "https://live.staticflickr.com/65535/49742352313_f78cb67432_n.jpg",
    "id_album": "-1913845949",
    "description": "KAWAII060420214911172",
    "title": "KAWAII060420214911172",
    "link_img": "https://live.staticflickr.com/65535/49742352313_0846d8bdda_o.jpg",
    "id_image": "KAWAII060420214911172",
    "count_view": 0
  },
  {
    "link_thumb": "https://live.staticflickr.com/65535/49552757447_256c75cf48_n.jpg",
    "id_album": "-1694302085",
    "description": "KAWAII12091825180220205924",
    "title": "KAWAII12091825180220205924",
    "link_img": "https://live.staticflickr.com/65535/49552757447_0c6ce1820b_o.jpg",
    "id_image": "KAWAII12091825180220205924",
    "count_view": 0
  },
  {
    "link_thumb": "https://live.staticflickr.com/65535/49742356873_a75b1528ac_n.jpg",
    "id_album": "-1913845949",
    "description": "KAWAII06042021491565",
    "title": "KAWAII06042021491565",
    "link_img": "https://live.staticflickr.com/65535/49742356873_ab7a02cb9b_o.jpg",
    "id_image": "KAWAII06042021491565",
    "count_view": 0
  },
  {
    "link_thumb": "https://live.staticflickr.com/65535/49548107723_a6803ce39d_n.jpg",
    "id_album": "-422187261",
    "description": "KAWAII12091839",
    "title": "KAWAII12091839",
    "link_img": "https://live.staticflickr.com/65535/49548107723_3fc0b3dfa7_o.jpg",
    "id_image": "KAWAII12091839",
    "count_view": 0
  },
  {
    "link_thumb": "https://live.staticflickr.com/65535/49623109402_bf0168a028_n.jpg",
    "id_album": "-316663319",
    "description": "KAWAII050320202142",
    "title": "KAWAII050320202142",
    "link_img": "https://live.staticflickr.com/65535/49623109402_f72bd09d27_o.jpg",
    "id_image": "KAWAII050320202142",
    "count_view": 0
  },
  {
    "link_thumb": "https://live.staticflickr.com/65535/49694223711_9936d6d2f6_n.jpg",
    "id_album": "-1862561193",
    "description": "KAWAII24032022050147",
    "title": "KAWAII24032022050147",
    "link_img": "https://live.staticflickr.com/65535/49694223711_6553dda6a5_o.jpg",
    "id_image": "KAWAII24032022050147",
    "count_view": 0
  },
  {
    "link_thumb": "https://live.staticflickr.com/65535/49694092616_66efc7466f_n.jpg",
    "id_album": "1201366373",
    "description": "KAWAII120918224",
    "title": "KAWAII120918224",
    "link_img": "https://live.staticflickr.com/65535/49694092616_a1a1582151_o.jpg",
    "id_image": "KAWAII120918224",
    "count_view": 0
  },
  {
    "link_thumb": "https://live.staticflickr.com/65535/49693580228_5013bfae93_n.jpg",
    "id_album": "-643980979",
    "description": "KAWAII270220235186",
    "title": "KAWAII270220235186",
    "link_img": "https://live.staticflickr.com/65535/49693580228_8613ee9d35_o.jpg",
    "id_image": "KAWAII270220235186",
    "count_view": 0
  },
  {
    "link_thumb": "https://live.staticflickr.com/65535/49622830626_266953618e_n.jpg",
    "id_album": "-316663319",
    "description": "KAWAII0503202021296",
    "title": "KAWAII0503202021296",
    "link_img": "https://live.staticflickr.com/65535/49622830626_87f88097db_o.jpg",
    "id_image": "KAWAII0503202021296",
    "count_view": 0
  },
  {
    "link_thumb": "https://live.staticflickr.com/65535/49548774506_5e5205fcd8_n.jpg",
    "id_album": "-316663319",
    "description": "KAWAII17091856",
    "title": "KAWAII17091856",
    "link_img": "https://live.staticflickr.com/65535/49548774506_33ee29b511_o.jpg",
    "id_image": "KAWAII17091856",
    "count_view": 0
  },
  {
    "link_thumb": "https://live.staticflickr.com/65535/49548181248_3337af56a7_n.jpg",
    "id_album": "-316663319",
    "description": "KAWAII1702202236300",
    "title": "KAWAII1702202236300",
    "link_img": "https://live.staticflickr.com/65535/49548181248_05b162b6d7_o.jpg",
    "id_image": "KAWAII1702202236300",
    "count_view": 0
  },
  {
    "link_thumb": "https://live.staticflickr.com/65535/49592211593_d8bbd64d7a_n.jpg",
    "id_album": "-316663319",
    "description": "KAWAII2702202351116",
    "title": "KAWAII2702202351116",
    "link_img": "https://live.staticflickr.com/65535/49592211593_9bcae88091_o.jpg",
    "id_image": "KAWAII2702202351116",
    "count_view": 0
  },
  {
    "link_thumb": "https://live.staticflickr.com/65535/49726928948_b01828fda9_n.jpg",
    "id_album": "431597977",
    "description": "KAWAII020420194512247",
    "title": "KAWAII020420194512247",
    "link_img": "https://live.staticflickr.com/65535/49726928948_ddd06fd232_o.jpg",
    "id_image": "KAWAII020420194512247",
    "count_view": 0
  },
  {
    "link_thumb": "https://live.staticflickr.com/65535/49548275863_be7720d877_n.jpg",
    "id_album": "949200594",
    "description": "KAWAII1709188",
    "title": "KAWAII1709188",
    "link_img": "https://live.staticflickr.com/65535/49548275863_5317ecc65b_o.jpg",
    "id_image": "KAWAII1709188",
    "count_view": 0
  },
  {
    "link_thumb": "https://live.staticflickr.com/65535/49727752447_13493c610e_n.jpg",
    "id_album": "-316663319",
    "description": "KAWAII02042019451031",
    "title": "KAWAII02042019451031",
    "link_img": "https://live.staticflickr.com/65535/49727752447_5c7a9ecc13_o.jpg",
    "id_image": "KAWAII02042019451031",
    "count_view": 0
  },
  {
    "link_thumb": "https://live.staticflickr.com/65535/49694113176_4998b08d75_n.jpg",
    "id_album": "-643980979",
    "description": "KAWAII1702202238496",
    "title": "KAWAII1702202238496",
    "link_img": "https://live.staticflickr.com/65535/49694113176_0a4c515e09_o.jpg",
    "id_image": "KAWAII1702202238496",
    "count_view": 0
  },
  {
    "link_thumb": "https://live.staticflickr.com/65535/49694424447_8f64755220_n.jpg",
    "id_album": "-643980979",
    "description": "KAWAII270220235131",
    "title": "KAWAII270220235131",
    "link_img": "https://live.staticflickr.com/65535/49694424447_a654decb56_o.jpg",
    "id_image": "KAWAII270220235131",
    "count_view": 0
  },
  {
    "link_thumb": "https://live.staticflickr.com/65535/49548641176_daafac3d1b_n.jpg",
    "id_album": "-422187261",
    "description": "KAWAII170220223473",
    "title": "KAWAII170220223473",
    "link_img": "https://live.staticflickr.com/65535/49548641176_0de4ce227a_o.jpg",
    "id_image": "KAWAII170220223473",
    "count_view": 0
  },
  {
    "link_thumb": "https://live.staticflickr.com/65535/49622332363_9dcb2579a8_n.jpg",
    "id_album": "-406350429",
    "description": "KAWAII0503202021268",
    "title": "KAWAII0503202021268",
    "link_img": "https://live.staticflickr.com/65535/49622332363_25d01093c7_o.jpg",
    "id_image": "KAWAII0503202021268",
    "count_view": 0
  },
  {
    "link_thumb": "https://live.staticflickr.com/65535/49694127511_dfcb8f8d26_n.jpg",
    "id_album": "-755466332",
    "description": "KAWAII120918329",
    "title": "KAWAII120918329",
    "link_img": "https://live.staticflickr.com/65535/49694127511_fd11edfdf7_o.jpg",
    "id_image": "KAWAII120918329",
    "count_view": 0
  },
  {
    "link_thumb": "https://live.staticflickr.com/65535/49727754687_0ef88fd8c3_n.jpg",
    "id_album": "-316663319",
    "description": "KAWAII02042019451298",
    "title": "KAWAII02042019451298",
    "link_img": "https://live.staticflickr.com/65535/49727754687_d35c90e8e0_o.jpg",
    "id_image": "KAWAII02042019451298",
    "count_view": 0
  },
  {
    "link_thumb": "https://live.staticflickr.com/65535/49727754157_91cc09de26_n.jpg",
    "id_album": "-316663319",
    "description": "KAWAII020420194512160",
    "title": "KAWAII020420194512160",
    "link_img": "https://live.staticflickr.com/65535/49727754157_1ab4982a2a_o.jpg",
    "id_image": "KAWAII020420194512160",
    "count_view": 0
  },
  {
    "link_thumb": "https://live.staticflickr.com/65535/49693546958_bf60f7305c_n.jpg",
    "id_album": "1201366373",
    "description": "KAWAII120918205",
    "title": "KAWAII120918205",
    "link_img": "https://live.staticflickr.com/65535/49693546958_624b9d5b61_o.jpg",
    "id_image": "KAWAII120918205",
    "count_view": 0
  },
  {
    "link_thumb": "https://live.staticflickr.com/65535/49548847582_c1e6076bf8_n.jpg",
    "id_album": "-422187261",
    "description": "KAWAII1209189",
    "title": "KAWAII1209189",
    "link_img": "https://live.staticflickr.com/65535/49548847582_1ffc716c5e_o.jpg",
    "id_image": "KAWAII1209189",
    "count_view": 0
  },
  {
    "link_thumb": "https://live.staticflickr.com/65535/49548172753_6ce5717ff2_n.jpg",
    "id_album": "1396902986",
    "description": "KAWAII1702202236257",
    "title": "KAWAII1702202236257",
    "link_img": "https://live.staticflickr.com/65535/49548172753_645a75a782_o.jpg",
    "id_image": "KAWAII1702202236257",
    "count_view": 0
  },
  {
    "link_thumb": "https://live.staticflickr.com/65535/49694115256_2cb04d6c80_n.jpg",
    "id_album": "-643980979",
    "description": "KAWAII170220234611",
    "title": "KAWAII170220234611",
    "link_img": "https://live.staticflickr.com/65535/49694115256_299f262f28_o.jpg",
    "id_image": "KAWAII170220234611",
    "count_view": 0
  },
  {
    "link_thumb": "https://live.staticflickr.com/65535/49694086531_52cb022398_n.jpg",
    "id_album": "1201366373",
    "description": "KAWAII120918167",
    "title": "KAWAII120918167",
    "link_img": "https://live.staticflickr.com/65535/49694086531_feef5a9d45_o.jpg",
    "id_image": "KAWAII120918167",
    "count_view": 0
  },
  {
    "link_thumb": "https://live.staticflickr.com/65535/49548110983_1e71a4b2c7_n.jpg",
    "id_album": "-1432180061",
    "description": "KAWAII12091854",
    "title": "KAWAII12091854",
    "link_img": "https://live.staticflickr.com/65535/49548110983_320ca9e4dc_o.jpg",
    "id_image": "KAWAII12091854",
    "count_view": 0
  },
  {
    "link_thumb": "https://live.staticflickr.com/65535/49592231873_ddb759420f_n.jpg",
    "id_album": "-1431786825",
    "description": "KAWAII270220235123",
    "title": "KAWAII270220235123",
    "link_img": "https://live.staticflickr.com/65535/49592231873_cbc9d93ce9_o.jpg",
    "id_image": "KAWAII270220235123",
    "count_view": 0
  },
  {
    "link_thumb": "https://live.staticflickr.com/65535/49742928611_e115991e55_n.jpg",
    "id_album": "-316663319",
    "description": "KAWAII060420214915247",
    "title": "KAWAII060420214915247",
    "link_img": "https://live.staticflickr.com/65535/49742928611_c3a8ea8e41_o.jpg",
    "id_image": "KAWAII060420214915247",
    "count_view": 0
  },
  {
    "link_thumb": "https://live.staticflickr.com/65535/49743256862_0bb0d1dbd6_n.jpg",
    "id_album": "-316663319",
    "description": "KAWAII060420214918256",
    "title": "KAWAII060420214918256",
    "link_img": "https://live.staticflickr.com/65535/49743256862_8171ab2751_o.jpg",
    "id_image": "KAWAII060420214918256",
    "count_view": 0
  },
  {
    "link_thumb": "https://live.staticflickr.com/65535/49694379302_6d40337bae_n.jpg",
    "id_album": "-643980979",
    "description": "KAWAII050320202156",
    "title": "KAWAII050320202156",
    "link_img": "https://live.staticflickr.com/65535/49694379302_393105eca9_o.jpg",
    "id_image": "KAWAII050320202156",
    "count_view": 0
  },
  {
    "link_thumb": "https://live.staticflickr.com/65535/49742359078_fd9d82915a_n.jpg",
    "id_album": "1699819648",
    "description": "KAWAII06042021491275",
    "title": "KAWAII06042021491275",
    "link_img": "https://live.staticflickr.com/65535/49742359078_abdedcd173_o.jpg",
    "id_image": "KAWAII06042021491275",
    "count_view": 0
  },
  {
    "link_thumb": "https://live.staticflickr.com/65535/49622329373_ee5b1507ff_n.jpg",
    "id_album": "-406350429",
    "description": "KAWAII0503202021196",
    "title": "KAWAII0503202021196",
    "link_img": "https://live.staticflickr.com/65535/49622329373_3d1c00cf08_o.jpg",
    "id_image": "KAWAII0503202021196",
    "count_view": 0
  },
  {
    "link_thumb": "https://live.staticflickr.com/65535/49693562518_c990bb6178_n.jpg",
    "id_album": "1201366373",
    "description": "KAWAII170220223322",
    "title": "KAWAII170220223322",
    "link_img": "https://live.staticflickr.com/65535/49693562518_ac33d40c0e_o.jpg",
    "id_image": "KAWAII170220223322",
    "count_view": 0
  },
  {
    "link_thumb": "https://live.staticflickr.com/65535/49694392237_a898db2aed_n.jpg",
    "id_album": "1201366373",
    "description": "KAWAII120918197",
    "title": "KAWAII120918197",
    "link_img": "https://live.staticflickr.com/65535/49694392237_749440c1a6_o.jpg",
    "id_image": "KAWAII120918197",
    "count_view": 0
  },
  {
    "link_thumb": "https://live.staticflickr.com/65535/49742938901_507f0fb296_n.jpg",
    "id_album": "-1473448477",
    "description": "KAWAII060420214915300",
    "title": "KAWAII060420214915300",
    "link_img": "https://live.staticflickr.com/65535/49742938901_df0988c9a6_o.jpg",
    "id_image": "KAWAII060420214915300",
    "count_view": 0
  },
  {
    "link_thumb": "https://live.staticflickr.com/65535/49743272922_9784ee7c02_n.jpg",
    "id_album": "1396902986",
    "description": "KAWAII060420214915233",
    "title": "KAWAII060420214915233",
    "link_img": "https://live.staticflickr.com/65535/49743272922_1f2442eeac_o.jpg",
    "id_image": "KAWAII060420214915233",
    "count_view": 0
  },
  {
    "link_thumb": "https://live.staticflickr.com/65535/49742399878_faea0d5d6b_n.jpg",
    "id_album": "1396902986",
    "description": "KAWAII06042021491277",
    "title": "KAWAII06042021491277",
    "link_img": "https://live.staticflickr.com/65535/49742399878_a23337b0c7_o.jpg",
    "id_image": "KAWAII06042021491277",
    "count_view": 0
  },
  {
    "link_thumb": "https://live.staticflickr.com/65535/49694384787_491000eb76_n.jpg",
    "id_album": "1201366373",
    "description": "KAWAII120918118",
    "title": "KAWAII120918118",
    "link_img": "https://live.staticflickr.com/65535/49694384787_a790272051_o.jpg",
    "id_image": "KAWAII120918118",
    "count_view": 0
  },
  {
    "link_thumb": "https://live.staticflickr.com/65535/49693686563_02b03fcd19_n.jpg",
    "id_album": "1226948986",
    "description": "KAWAII24032022050259",
    "title": "KAWAII24032022050259",
    "link_img": "https://live.staticflickr.com/65535/49693686563_edfd6d82e3_o.jpg",
    "id_image": "KAWAII24032022050259",
    "count_view": 0
  },
  {
    "link_thumb": "https://live.staticflickr.com/65535/49743278442_bc32367502_n.jpg",
    "id_album": "-1431786825",
    "description": "KAWAII060420214914189",
    "title": "KAWAII060420214914189",
    "link_img": "https://live.staticflickr.com/65535/49743278442_2e24886911_o.jpg",
    "id_image": "KAWAII060420214914189",
    "count_view": 0
  },
  {
    "link_thumb": "https://live.staticflickr.com/65535/49592705886_95ab1e321a_n.jpg",
    "id_album": "1396902986",
    "description": "KAWAII27022023511",
    "title": "KAWAII27022023511",
    "link_img": "https://live.staticflickr.com/65535/49592705886_eec36d8b13_o.jpg",
    "id_image": "KAWAII27022023511",
    "count_view": 0
  },
  {
    "link_thumb": "https://live.staticflickr.com/65535/49693543258_a0562319da_n.jpg",
    "id_album": "1201366373",
    "description": "KAWAII120918170",
    "title": "KAWAII120918170",
    "link_img": "https://live.staticflickr.com/65535/49693543258_81c88d8bb9_o.jpg",
    "id_image": "KAWAII120918170",
    "count_view": 0
  },
  {
    "link_thumb": "https://live.staticflickr.com/65535/49548617406_84aee99d48_n.jpg",
    "id_album": "-316663319",
    "description": "KAWAII12091877",
    "title": "KAWAII12091877",
    "link_img": "https://live.staticflickr.com/65535/49548617406_6cbf2fa379_o.jpg",
    "id_image": "KAWAII12091877",
    "count_view": 0
  },
  {
    "link_thumb": "https://live.staticflickr.com/65535/49693682353_8b39a5992c_n.jpg",
    "id_album": "46674803",
    "description": "KAWAII24032022050233",
    "title": "KAWAII24032022050233",
    "link_img": "https://live.staticflickr.com/65535/49693682353_ffce88a729_o.jpg",
    "id_image": "KAWAII24032022050233",
    "count_view": 0
  },
  {
    "link_thumb": "https://live.staticflickr.com/65535/49548715926_c11836b31f_n.jpg",
    "id_album": "-422187261",
    "description": "KAWAII1702202238439",
    "title": "KAWAII1702202238439",
    "link_img": "https://live.staticflickr.com/65535/49548715926_bc37b6ac4d_o.jpg",
    "id_image": "KAWAII1702202238439",
    "count_view": 0
  },
  {
    "link_thumb": "https://live.staticflickr.com/65535/49742903211_fcd07ca84a_n.jpg",
    "id_album": "-1913845949",
    "description": "KAWAII06042021491513",
    "title": "KAWAII06042021491513",
    "link_img": "https://live.staticflickr.com/65535/49742903211_a219540e98_o.jpg",
    "id_image": "KAWAII06042021491513",
    "count_view": 0
  },
  {
    "link_thumb": "https://live.staticflickr.com/65535/49694227126_690962cd91_n.jpg",
    "id_album": "1226948986",
    "description": "KAWAII24032022050216",
    "title": "KAWAII24032022050216",
    "link_img": "https://live.staticflickr.com/65535/49694227126_383d7ae9b4_o.jpg",
    "id_image": "KAWAII24032022050216",
    "count_view": 0
  },
  {
    "link_thumb": "https://live.staticflickr.com/65535/49548174633_4ee07fc12f_n.jpg",
    "id_album": "-1694302085",
    "description": "KAWAII1702202236268",
    "title": "KAWAII1702202236268",
    "link_img": "https://live.staticflickr.com/65535/49548174633_12b2ef2a42_o.jpg",
    "id_image": "KAWAII1702202236268",
    "count_view": 0
  }
]