[
  {
    "link_thumb": "https://live.staticflickr.com/65535/49548247368_c984c30ec9_n.jpg",
    "id_album": "1396902986",
    "description": "KAWAII1702202239560",
    "title": "KAWAII1702202239560",
    "link_img": "https://live.staticflickr.com/65535/49548247368_84baf8d586_o.jpg",
    "id_image": "KAWAII1702202239560",
    "count_view": 0
  },
  {
    "link_thumb": "https://live.staticflickr.com/65535/49727452366_a4211e3486_n.jpg",
    "id_album": "742877173",
    "description": "KAWAII020420194514200",
    "title": "KAWAII020420194514200",
    "link_img": "https://live.staticflickr.com/65535/49727452366_78405656a3_o.jpg",
    "id_image": "KAWAII020420194514200",
    "count_view": 0
  },
  {
    "link_thumb": "https://live.staticflickr.com/65535/49693578178_f5f851143b_n.jpg",
    "id_album": "-643980979",
    "description": "KAWAII2702202351144",
    "title": "KAWAII2702202351144",
    "link_img": "https://live.staticflickr.com/65535/49693578178_f2df832e5c_o.jpg",
    "id_image": "KAWAII2702202351144",
    "count_view": 0
  },
  {
    "link_thumb": "https://live.staticflickr.com/65535/49693532323_7162d35f4b_n.jpg",
    "id_album": "-643980979",
    "description": "KAWAII050320202143",
    "title": "KAWAII050320202143",
    "link_img": "https://live.staticflickr.com/65535/49693532323_2bbe67359d_o.jpg",
    "id_image": "KAWAII050320202143",
    "count_view": 0
  },
  {
    "link_thumb": "https://live.staticflickr.com/65535/49623089127_82e998fa86_n.jpg",
    "id_album": "-316663319",
    "description": "KAWAII0503202021130",
    "title": "KAWAII0503202021130",
    "link_img": "https://live.staticflickr.com/65535/49623089127_b7aaee0817_o.jpg",
    "id_image": "KAWAII0503202021130",
    "count_view": 0
  },
  {
    "link_thumb": "https://live.staticflickr.com/65535/49548781432_bbf23e809a_n.jpg",
    "id_album": "-316663319",
    "description": "KAWAII12091814",
    "title": "KAWAII12091814",
    "link_img": "https://live.staticflickr.com/65535/49548781432_02ef9ac37d_o.jpg",
    "id_image": "KAWAII12091814",
    "count_view": 0
  },
  {
    "link_thumb": "https://live.staticflickr.com/65535/49592950957_761b2dfd03_n.jpg",
    "id_album": "1396902986",
    "description": "KAWAII270220235156",
    "title": "KAWAII270220235156",
    "link_img": "https://live.staticflickr.com/65535/49592950957_b165c6d881_o.jpg",
    "id_image": "KAWAII270220235156",
    "count_view": 0
  },
  {
    "link_thumb": "https://live.staticflickr.com/65535/49693560668_ac78a369e1_n.jpg",
    "id_album": "1201366373",
    "description": "KAWAII12091868",
    "title": "KAWAII12091868",
    "link_img": "https://live.staticflickr.com/65535/49693560668_03fd48be55_o.jpg",
    "id_image": "KAWAII12091868",
    "count_view": 0
  },
  {
    "link_thumb": "https://live.staticflickr.com/65535/49548829712_507eb00ccd_n.jpg",
    "id_album": "-1099943053",
    "description": "KAWAII120918349",
    "title": "KAWAII120918349",
    "link_img": "https://live.staticflickr.com/65535/49548829712_07620e2619_o.jpg",
    "id_image": "KAWAII120918349",
    "count_view": 0
  },
  {
    "link_thumb": "https://live.staticflickr.com/65535/49710822536_6e7910804a_n.jpg",
    "id_album": "-1599896063",
    "description": "LITTLEMONK2903201206396",
    "title": "LITTLEMONK2903201206396",
    "link_img": "https://live.staticflickr.com/65535/49710822536_705c64d0a0_o.jpg",
    "id_image": "LITTLEMONK2903201206396",
    "count_view": 0
  },
  {
    "link_thumb": "https://live.staticflickr.com/65535/49592207698_9b9319dfcf_n.jpg",
    "id_album": "-1741487325",
    "description": "KAWAII1702202238422",
    "title": "KAWAII1702202238422",
    "link_img": "https://live.staticflickr.com/65535/49592207698_6744df8991_o.jpg",
    "id_image": "KAWAII1702202238422",
    "count_view": 0
  },
  {
    "link_thumb": "https://live.staticflickr.com/65535/49742901501_e4f5d95199_n.jpg",
    "id_album": "-1913845949",
    "description": "KAWAII06042021491242",
    "title": "KAWAII06042021491242",
    "link_img": "https://live.staticflickr.com/65535/49742901501_d47960e2eb_o.jpg",
    "id_image": "KAWAII06042021491242",
    "count_view": 0
  },
  {
    "link_thumb": "https://live.staticflickr.com/65535/49622325243_66ae261293_n.jpg",
    "id_album": "-316663319",
    "description": "KAWAII050320202191",
    "title": "KAWAII050320202191",
    "link_img": "https://live.staticflickr.com/65535/49622325243_6b33b0da10_o.jpg",
    "id_image": "KAWAII050320202191",
    "count_view": 0
  },
  {
    "link_thumb": "https://live.staticflickr.com/65535/49727435321_745f69d1d7_n.jpg",
    "id_album": "-1497779911",
    "description": "KAWAII17091851",
    "title": "KAWAII17091851",
    "link_img": "https://live.staticflickr.com/65535/49727435321_421dab3039_o.jpg",
    "id_image": "KAWAII17091851",
    "count_view": 0
  },
  {
    "link_thumb": "https://live.staticflickr.com/65535/49742356068_9a5b2b97e1_n.jpg",
    "id_album": "-1913845949",
    "description": "KAWAII060420214915285",
    "title": "KAWAII060420214915285",
    "link_img": "https://live.staticflickr.com/65535/49742356068_001339ef2a_o.jpg",
    "id_image": "KAWAII060420214915285",
    "count_view": 0
  },
  {
    "link_thumb": "https://live.staticflickr.com/65535/49548582731_356f3cb7a8_n.jpg",
    "id_album": "-422187261",
    "description": "KAWAII120918269",
    "title": "KAWAII120918269",
    "link_img": "https://live.staticflickr.com/65535/49548582731_fff15eca70_o.jpg",
    "id_image": "KAWAII120918269",
    "count_view": 0
  },
  {
    "link_thumb": "https://live.staticflickr.com/65535/49742370283_264933b2a1_n.jpg",
    "id_album": "-128218148",
    "description": "KAWAII060420214912111",
    "title": "KAWAII060420214912111",
    "link_img": "https://live.staticflickr.com/65535/49742370283_50ef9d42d0_o.jpg",
    "id_image": "KAWAII060420214912111",
    "count_view": 0
  },
  {
    "link_thumb": "https://live.staticflickr.com/65535/49742410028_95aa6f0114_n.jpg",
    "id_album": "1563362783",
    "description": "KAWAII06042021491740",
    "title": "KAWAII06042021491740",
    "link_img": "https://live.staticflickr.com/65535/49742410028_d5b26217ee_o.jpg",
    "id_image": "KAWAII06042021491740",
    "count_view": 0
  },
  {
    "link_thumb": "https://live.staticflickr.com/65535/49742919341_7d960dfd4e_n.jpg",
    "id_album": "-128218148",
    "description": "KAWAII06042021491238",
    "title": "KAWAII06042021491238",
    "link_img": "https://live.staticflickr.com/65535/49742919341_cb2f770b15_o.jpg",
    "id_image": "KAWAII06042021491238",
    "count_view": 0
  },
  {
    "link_thumb": "https://live.staticflickr.com/65535/49694380432_89f3889088_n.jpg",
    "id_album": "-643980979",
    "description": "KAWAII050320202175",
    "title": "KAWAII050320202175",
    "link_img": "https://live.staticflickr.com/65535/49694380432_579e059c17_o.jpg",
    "id_image": "KAWAII050320202175",
    "count_view": 0
  },
  {
    "link_thumb": "https://live.staticflickr.com/65535/49552022683_2c3037ec3c_n.jpg",
    "id_album": "431597977",
    "description": "KAWAII1209182518022020593",
    "title": "KAWAII1209182518022020593",
    "link_img": "https://live.staticflickr.com/65535/49552022683_e8585838e2_o.jpg",
    "id_image": "KAWAII1209182518022020593",
    "count_view": 0
  },
  {
    "link_thumb": "https://live.staticflickr.com/65535/49726916968_cf41131008_n.jpg",
    "id_album": "1396902986",
    "description": "KAWAII02042019450862",
    "title": "KAWAII02042019450862",
    "link_img": "https://live.staticflickr.com/65535/49726916968_406629827f_o.jpg",
    "id_image": "KAWAII02042019450862",
    "count_view": 0
  },
  {
    "link_thumb": "https://live.staticflickr.com/65535/49548569911_ae8fa3c61b_n.jpg",
    "id_album": "-316663319",
    "description": "KAWAII120918206",
    "title": "KAWAII120918206",
    "link_img": "https://live.staticflickr.com/65535/49548569911_2d31a8ac7c_o.jpg",
    "id_image": "KAWAII120918206",
    "count_view": 0
  },
  {
    "link_thumb": "https://live.staticflickr.com/65535/49694085616_2567ac3105_n.jpg",
    "id_album": "1201366373",
    "description": "KAWAII12091816",
    "title": "KAWAII12091816",
    "link_img": "https://live.staticflickr.com/65535/49694085616_b9d55b8e93_o.jpg",
    "id_image": "KAWAII12091816",
    "count_view": 0
  },
  {
    "link_thumb": "https://live.staticflickr.com/65535/49622817691_a07586d03f_n.jpg",
    "id_album": "-316663319",
    "description": "KAWAII0503202021136",
    "title": "KAWAII0503202021136",
    "link_img": "https://live.staticflickr.com/65535/49622817691_ecde707fe4_o.jpg",
    "id_image": "KAWAII0503202021136",
    "count_view": 0
  },
  {
    "link_thumb": "https://live.staticflickr.com/65535/49548898457_9de20dea0d_n.jpg",
    "id_album": "-1099943053",
    "description": "KAWAII1702202236242",
    "title": "KAWAII1702202236242",
    "link_img": "https://live.staticflickr.com/65535/49548898457_c80e13399e_o.jpg",
    "id_image": "KAWAII1702202236242",
    "count_view": 0
  },
  {
    "link_thumb": "https://live.staticflickr.com/65535/49552020238_5f3b69df12_n.jpg",
    "id_album": "431597977",
    "description": "KAWAII12091825180220205910",
    "title": "KAWAII12091825180220205910",
    "link_img": "https://live.staticflickr.com/65535/49552020238_8e8b804ebf_o.jpg",
    "id_image": "KAWAII12091825180220205910",
    "count_view": 0
  },
  {
    "link_thumb": "https://live.staticflickr.com/65535/49592711266_9f1c10e4a6_n.jpg",
    "id_album": "-1741487325",
    "description": "KAWAII2702202351135",
    "title": "KAWAII2702202351135",
    "link_img": "https://live.staticflickr.com/65535/49592711266_c98eb4866d_o.jpg",
    "id_image": "KAWAII2702202351135",
    "count_view": 0
  },
  {
    "link_thumb": "https://live.staticflickr.com/65535/49548781682_9a1b7ee2c7_n.jpg",
    "id_album": "-316663319",
    "description": "KAWAII120918140",
    "title": "KAWAII120918140",
    "link_img": "https://live.staticflickr.com/65535/49548781682_1a37108021_o.jpg",
    "id_image": "KAWAII120918140",
    "count_view": 0
  },
  {
    "link_thumb": "https://live.staticflickr.com/65535/49727780287_9923136f83_n.jpg",
    "id_album": "-1862561193",
    "description": "KAWAII020420194508139",
    "title": "KAWAII020420194508139",
    "link_img": "https://live.staticflickr.com/65535/49727780287_1926a29ea5_o.jpg",
    "id_image": "KAWAII020420194508139",
    "count_view": 0
  },
  {
    "link_thumb": "https://live.staticflickr.com/65535/49694399017_c0024defa7_n.jpg",
    "id_album": "1201366373",
    "description": "KAWAII120918257",
    "title": "KAWAII120918257",
    "link_img": "https://live.staticflickr.com/65535/49694399017_4d233fe629_o.jpg",
    "id_image": "KAWAII120918257",
    "count_view": 0
  },
  {
    "link_thumb": "https://live.staticflickr.com/65535/49548730616_5f6af3c076_n.jpg",
    "id_album": "-1694302085",
    "description": "KAWAII1702202238495",
    "title": "KAWAII1702202238495",
    "link_img": "https://live.staticflickr.com/65535/49548730616_0486905b47_o.jpg",
    "id_image": "KAWAII1702202238495",
    "count_view": 0
  },
  {
    "link_thumb": "https://live.staticflickr.com/65535/49743255132_4bdd550b75_n.jpg",
    "id_album": "-316663319",
    "description": "KAWAII060420214917185",
    "title": "KAWAII060420214917185",
    "link_img": "https://live.staticflickr.com/65535/49743255132_dc88868ca4_o.jpg",
    "id_image": "KAWAII060420214917185",
    "count_view": 0
  },
  {
    "link_thumb": "https://live.staticflickr.com/65535/49592218708_fb065ae9fa_n.jpg",
    "id_album": "-316663319",
    "description": "KAWAII270220235189",
    "title": "KAWAII270220235189",
    "link_img": "https://live.staticflickr.com/65535/49592218708_a837ee0215_o.jpg",
    "id_image": "KAWAII270220235189",
    "count_view": 0
  },
  {
    "link_thumb": "https://live.staticflickr.com/65535/49548904132_d7952a7245_n.jpg",
    "id_album": "-1432180061",
    "description": "KAWAII1702202236274",
    "title": "KAWAII1702202236274",
    "link_img": "https://live.staticflickr.com/65535/49548904132_0e885dabcf_o.jpg",
    "id_image": "KAWAII1702202236274",
    "count_view": 0
  },
  {
    "link_thumb": "https://live.staticflickr.com/65535/49694398037_e0da415dea_n.jpg",
    "id_album": "1201366373",
    "description": "KAWAII120918251",
    "title": "KAWAII120918251",
    "link_img": "https://live.staticflickr.com/65535/49694398037_a82ac6fb46_o.jpg",
    "id_image": "KAWAII120918251",
    "count_view": 0
  },
  {
    "link_thumb": "https://live.staticflickr.com/65535/49548847582_c1e6076bf8_n.jpg",
    "id_album": "-422187261",
    "description": "KAWAII1209189",
    "title": "KAWAII1209189",
    "link_img": "https://live.staticflickr.com/65535/49548847582_1ffc716c5e_o.jpg",
    "id_image": "KAWAII1209189",
    "count_view": 0
  },
  {
    "link_thumb": "https://live.staticflickr.com/65535/49592973922_08dc9c5398_n.jpg",
    "id_album": "949200594",
    "description": "KAWAII270220235116",
    "title": "KAWAII270220235116",
    "link_img": "https://live.staticflickr.com/65535/49592973922_d02ee31ff6_o.jpg",
    "id_image": "KAWAII270220235116",
    "count_view": 0
  },
  {
    "link_thumb": "https://live.staticflickr.com/65535/49693556423_912b6b5276_n.jpg",
    "id_album": "1201366373",
    "description": "KAWAII12091829",
    "title": "KAWAII12091829",
    "link_img": "https://live.staticflickr.com/65535/49693556423_9168122226_o.jpg",
    "id_image": "KAWAII12091829",
    "count_view": 0
  },
  {
    "link_thumb": "https://live.staticflickr.com/65535/49552757447_256c75cf48_n.jpg",
    "id_album": "-1694302085",
    "description": "KAWAII12091825180220205924",
    "title": "KAWAII12091825180220205924",
    "link_img": "https://live.staticflickr.com/65535/49552757447_0c6ce1820b_o.jpg",
    "id_image": "KAWAII12091825180220205924",
    "count_view": 0
  },
  {
    "link_thumb": "https://live.staticflickr.com/65535/49548624096_f438edf6e3_n.jpg",
    "id_album": "1396902986",
    "description": "KAWAII170220223318",
    "title": "KAWAII170220223318",
    "link_img": "https://live.staticflickr.com/65535/49548624096_5f1f26a17b_o.jpg",
    "id_image": "KAWAII170220223318",
    "count_view": 0
  },
  {
    "link_thumb": "https://live.staticflickr.com/65535/49622796941_4f3450b9b0_n.jpg",
    "id_album": "-422187261",
    "description": "KAWAII0503202021180",
    "title": "KAWAII0503202021180",
    "link_img": "https://live.staticflickr.com/65535/49622796941_225dec259f_o.jpg",
    "id_image": "KAWAII0503202021180",
    "count_view": 0
  },
  {
    "link_thumb": "https://live.staticflickr.com/65535/49548206843_8fde65bb42_n.jpg",
    "id_album": "431597977",
    "description": "KAWAII1702202238407",
    "title": "KAWAII1702202238407",
    "link_img": "https://live.staticflickr.com/65535/49548206843_e68a019677_o.jpg",
    "id_image": "KAWAII1702202238407",
    "count_view": 0
  },
  {
    "link_thumb": "https://live.staticflickr.com/65535/49711146377_82eb555582_n.jpg",
    "id_album": "-1599896063",
    "description": "LITTLEMONK29032012064018",
    "title": "LITTLEMONK29032012064018",
    "link_img": "https://live.staticflickr.com/65535/49711146377_944993cde7_o.jpg",
    "id_image": "LITTLEMONK29032012064018",
    "count_view": 0
  },
  {
    "link_thumb": "https://live.staticflickr.com/65535/49694429872_2b6e9fdab7_n.jpg",
    "id_album": "1563362783",
    "description": "KAWAII1702202239529",
    "title": "KAWAII1702202239529",
    "link_img": "https://live.staticflickr.com/65535/49694429872_d589af1af9_o.jpg",
    "id_image": "KAWAII1702202239529",
    "count_view": 0
  },
  {
    "link_thumb": "https://live.staticflickr.com/65535/49743228787_60894d6234_n.jpg",
    "id_album": "-1913845949",
    "description": "KAWAII060420214918192",
    "title": "KAWAII060420214918192",
    "link_img": "https://live.staticflickr.com/65535/49743228787_cba818aee9_o.jpg",
    "id_image": "KAWAII060420214918192",
    "count_view": 0
  },
  {
    "link_thumb": "https://live.staticflickr.com/65535/49743268837_23516a0724_n.jpg",
    "id_album": "-1779286820",
    "description": "KAWAII060420214918103",
    "title": "KAWAII060420214918103",
    "link_img": "https://live.staticflickr.com/65535/49743268837_894b3edc40_o.jpg",
    "id_image": "KAWAII060420214918103",
    "count_view": 0
  },
  {
    "link_thumb": "https://live.staticflickr.com/65535/49742395988_a59f5d3f3d_n.jpg",
    "id_album": "-1779286820",
    "description": "KAWAII060420214914257",
    "title": "KAWAII060420214914257",
    "link_img": "https://live.staticflickr.com/65535/49742395988_e3017805e1_o.jpg",
    "id_image": "KAWAII060420214914257",
    "count_view": 0
  },
  {
    "link_thumb": "https://live.staticflickr.com/65535/49694127156_caf5214d04_n.jpg",
    "id_album": "1563362783",
    "description": "KAWAII1702202239565",
    "title": "KAWAII1702202239565",
    "link_img": "https://live.staticflickr.com/65535/49694127156_61cf2b0257_o.jpg",
    "id_image": "KAWAII1702202239565",
    "count_view": 0
  },
  {
    "link_thumb": "https://live.staticflickr.com/65535/49548631296_5f6f495d45_n.jpg",
    "id_album": "-316663319",
    "description": "KAWAII1702202234111",
    "title": "KAWAII1702202234111",
    "link_img": "https://live.staticflickr.com/65535/49548631296_4e556fbc92_o.jpg",
    "id_image": "KAWAII1702202234111",
    "count_view": 0
  },
  {
    "link_thumb": "https://live.staticflickr.com/65535/49726920928_8f0623c8c0_n.jpg",
    "id_album": "-1862561193",
    "description": "KAWAII020420194511103",
    "title": "KAWAII020420194511103",
    "link_img": "https://live.staticflickr.com/65535/49726920928_c2143503dd_o.jpg",
    "id_image": "KAWAII020420194511103",
    "count_view": 0
  },
  {
    "link_thumb": "https://live.staticflickr.com/65535/49694388692_8c05230376_n.jpg",
    "id_album": "-643980979",
    "description": "KAWAII120918164",
    "title": "KAWAII120918164",
    "link_img": "https://live.staticflickr.com/65535/49694388692_4df2e7dd01_o.jpg",
    "id_image": "KAWAII120918164",
    "count_view": 0
  },
  {
    "link_thumb": "https://live.staticflickr.com/65535/49727767512_205497106d_n.jpg",
    "id_album": "742877173",
    "description": "KAWAII02042019451463",
    "title": "KAWAII02042019451463",
    "link_img": "https://live.staticflickr.com/65535/49727767512_7e3dc89614_o.jpg",
    "id_image": "KAWAII02042019451463",
    "count_view": 0
  },
  {
    "link_thumb": "https://live.staticflickr.com/65535/49694400567_51744eec7c_n.jpg",
    "id_album": "1201366373",
    "description": "KAWAII120918275",
    "title": "KAWAII120918275",
    "link_img": "https://live.staticflickr.com/65535/49694400567_290d9c2508_o.jpg",
    "id_image": "KAWAII120918275",
    "count_view": 0
  },
  {
    "link_thumb": "https://live.staticflickr.com/65535/49727428866_b94445e179_n.jpg",
    "id_album": "-1741487325",
    "description": "KAWAII020420194509190",
    "title": "KAWAII020420194509190",
    "link_img": "https://live.staticflickr.com/65535/49727428866_92a2cc237b_o.jpg",
    "id_image": "KAWAII020420194509190",
    "count_view": 0
  },
  {
    "link_thumb": "https://live.staticflickr.com/65535/49622808686_2516abf137_n.jpg",
    "id_album": "-1741487325",
    "description": "KAWAII050320202173",
    "title": "KAWAII050320202173",
    "link_img": "https://live.staticflickr.com/65535/49622808686_4f6b8249d3_o.jpg",
    "id_image": "KAWAII050320202173",
    "count_view": 0
  },
  {
    "link_thumb": "https://live.staticflickr.com/65535/49623093352_35b1d184b3_n.jpg",
    "id_album": "-316663319",
    "description": "KAWAII0503202021191",
    "title": "KAWAII0503202021191",
    "link_img": "https://live.staticflickr.com/65535/49623093352_c23b7e6dbd_o.jpg",
    "id_image": "KAWAII0503202021191",
    "count_view": 0
  },
  {
    "link_thumb": "https://live.staticflickr.com/65535/49742409473_d444facdb2_n.jpg",
    "id_album": "-1431786825",
    "description": "KAWAII06042021491753",
    "title": "KAWAII06042021491753",
    "link_img": "https://live.staticflickr.com/65535/49742409473_e2d7689ec8_o.jpg",
    "id_image": "KAWAII06042021491753",
    "count_view": 0
  },
  {
    "link_thumb": "https://live.staticflickr.com/65535/49743252577_c5c37b428b_n.jpg",
    "id_album": "-316663319",
    "description": "KAWAII060420214915250",
    "title": "KAWAII060420214915250",
    "link_img": "https://live.staticflickr.com/65535/49743252577_4990f8d560_o.jpg",
    "id_image": "KAWAII060420214915250",
    "count_view": 0
  },
  {
    "link_thumb": "https://live.staticflickr.com/65535/49548818087_00d48ca029_n.jpg",
    "id_album": "-422187261",
    "description": "KAWAII120918302",
    "title": "KAWAII120918302",
    "link_img": "https://live.staticflickr.com/65535/49548818087_5861591717_o.jpg",
    "id_image": "KAWAII120918302",
    "count_view": 0
  },
  {
    "link_thumb": "https://live.staticflickr.com/65535/49694396432_7a81a4cf67_n.jpg",
    "id_album": "-643980979",
    "description": "KAWAII120918241",
    "title": "KAWAII120918241",
    "link_img": "https://live.staticflickr.com/65535/49694396432_69f5252f72_o.jpg",
    "id_image": "KAWAII120918241",
    "count_view": 0
  },
  {
    "link_thumb": "https://live.staticflickr.com/65535/49548637661_4ae151bdfe_n.jpg",
    "id_album": "-422187261",
    "description": "KAWAII170220223458",
    "title": "KAWAII170220223458",
    "link_img": "https://live.staticflickr.com/65535/49548637661_246e7542bb_o.jpg",
    "id_image": "KAWAII170220223458",
    "count_view": 0
  },
  {
    "link_thumb": "https://live.staticflickr.com/65535/49727755717_c911ae91a5_n.jpg",
    "id_album": "742877173",
    "description": "KAWAII020420194507215",
    "title": "KAWAII020420194507215",
    "link_img": "https://live.staticflickr.com/65535/49727755717_9a4a305ae8_o.jpg",
    "id_image": "KAWAII020420194507215",
    "count_view": 0
  },
  {
    "link_thumb": "https://live.staticflickr.com/65535/49578243728_cffc5e92dd_n.jpg",
    "id_album": "-1694302085",
    "description": "KAWAII19022021112",
    "title": "KAWAII19022021112",
    "link_img": "https://live.staticflickr.com/65535/49578243728_6c35416521_o.jpg",
    "id_image": "KAWAII19022021112",
    "count_view": 0
  },
  {
    "link_thumb": "https://live.staticflickr.com/65535/49548846807_90eed5ba80_n.jpg",
    "id_album": "-1741487325",
    "description": "KAWAII12091887",
    "title": "KAWAII12091887",
    "link_img": "https://live.staticflickr.com/65535/49548846807_a8b7b527ac_o.jpg",
    "id_image": "KAWAII12091887",
    "count_view": 0
  },
  {
    "link_thumb": "https://live.staticflickr.com/65535/49552519201_d4571ef7f6_n.jpg",
    "id_album": "-1694302085",
    "description": "KAWAII12091825180220205927",
    "title": "KAWAII12091825180220205927",
    "link_img": "https://live.staticflickr.com/65535/49552519201_c1699e990d_o.jpg",
    "id_image": "KAWAII12091825180220205927",
    "count_view": 0
  },
  {
    "link_thumb": "https://live.staticflickr.com/65535/49548111418_9a24d946a6_n.jpg",
    "id_album": "-1741487325",
    "description": "KAWAII12091857",
    "title": "KAWAII12091857",
    "link_img": "https://live.staticflickr.com/65535/49548111418_d9dce45796_o.jpg",
    "id_image": "KAWAII12091857",
    "count_view": 0
  },
  {
    "link_thumb": "https://live.staticflickr.com/65535/49548677171_d64ee7e0c8_n.jpg",
    "id_album": "1396902986",
    "description": "KAWAII1702202236276",
    "title": "KAWAII1702202236276",
    "link_img": "https://live.staticflickr.com/65535/49548677171_e3d7c58ebb_o.jpg",
    "id_image": "KAWAII1702202236276",
    "count_view": 0
  },
  {
    "link_thumb": "https://live.staticflickr.com/65535/49742901766_c98d36b777_n.jpg",
    "id_album": "-1913845949",
    "description": "KAWAII060420214913243",
    "title": "KAWAII060420214913243",
    "link_img": "https://live.staticflickr.com/65535/49742901766_c77c801731_o.jpg",
    "id_image": "KAWAII060420214913243",
    "count_view": 0
  },
  {
    "link_thumb": "https://live.staticflickr.com/65535/49694074656_467bd58490_n.jpg",
    "id_album": "-643980979",
    "description": "KAWAII0503202021282",
    "title": "KAWAII0503202021282",
    "link_img": "https://live.staticflickr.com/65535/49694074656_9a1018bd3c_o.jpg",
    "id_image": "KAWAII0503202021282",
    "count_view": 0
  },
  {
    "link_thumb": "https://live.staticflickr.com/65535/49726893173_f736d3d317_n.jpg",
    "id_album": "-316663319",
    "description": "KAWAII020420194514101",
    "title": "KAWAII020420194514101",
    "link_img": "https://live.staticflickr.com/65535/49726893173_efa11a2103_o.jpg",
    "id_image": "KAWAII020420194514101",
    "count_view": 0
  },
  {
    "link_thumb": "https://live.staticflickr.com/65535/49694102616_bcf5bbb1b1_n.jpg",
    "id_album": "1201366373",
    "description": "KAWAII12091852",
    "title": "KAWAII12091852",
    "link_img": "https://live.staticflickr.com/65535/49694102616_fe381c228e_o.jpg",
    "id_image": "KAWAII12091852",
    "count_view": 0
  },
  {
    "link_thumb": "https://live.staticflickr.com/65535/49548173768_b0c339bbb9_n.jpg",
    "id_album": "1396902986",
    "description": "KAWAII1702202236263",
    "title": "KAWAII1702202236263",
    "link_img": "https://live.staticflickr.com/65535/49548173768_00ebf4e24e_o.jpg",
    "id_image": "KAWAII1702202236263",
    "count_view": 0
  },
  {
    "link_thumb": "https://live.staticflickr.com/65535/49693545353_56f7edd886_n.jpg",
    "id_album": "1201366373",
    "description": "KAWAII120918189",
    "title": "KAWAII120918189",
    "link_img": "https://live.staticflickr.com/65535/49693545353_b22fd55d82_o.jpg",
    "id_image": "KAWAII120918189",
    "count_view": 0
  },
  {
    "link_thumb": "https://live.staticflickr.com/65535/49727739842_08815b2b29_n.jpg",
    "id_album": "-1694302085",
    "description": "KAWAII02042019450876",
    "title": "KAWAII02042019450876",
    "link_img": "https://live.staticflickr.com/65535/49727739842_d9ba38723e_o.jpg",
    "id_image": "KAWAII02042019450876",
    "count_view": 0
  },
  {
    "link_thumb": "https://live.staticflickr.com/65535/49694527092_bc6ec76b97_n.jpg",
    "id_album": "1396902986",
    "description": "KAWAII170220223478",
    "title": "KAWAII170220223478",
    "link_img": "https://live.staticflickr.com/65535/49694527092_0f6c240b52_o.jpg",
    "id_image": "KAWAII170220223478",
    "count_view": 0
  },
  {
    "link_thumb": "https://live.staticflickr.com/65535/49548783917_0cd7aa6838_n.jpg",
    "id_album": "-1741487325",
    "description": "KAWAII120918150",
    "title": "KAWAII120918150",
    "link_img": "https://live.staticflickr.com/65535/49548783917_f8974d8288_o.jpg",
    "id_image": "KAWAII120918150",
    "count_view": 0
  },
  {
    "link_thumb": "https://live.staticflickr.com/65535/49592958267_6c6c938d37_n.jpg",
    "id_album": "-316663319",
    "description": "KAWAII2702202351147",
    "title": "KAWAII2702202351147",
    "link_img": "https://live.staticflickr.com/65535/49592958267_63297f9b80_o.jpg",
    "id_image": "KAWAII2702202351147",
    "count_view": 0
  },
  {
    "link_thumb": "https://live.staticflickr.com/65535/49548780792_9b7e4af362_n.jpg",
    "id_album": "-422187261",
    "description": "KAWAII120918137",
    "title": "KAWAII120918137",
    "link_img": "https://live.staticflickr.com/65535/49548780792_3a9fd6b134_o.jpg",
    "id_image": "KAWAII120918137",
    "count_view": 0
  },
  {
    "link_thumb": "https://live.staticflickr.com/65535/49742906226_e9ccba4455_n.jpg",
    "id_album": "-1913845949",
    "description": "KAWAII1702202236218",
    "title": "KAWAII1702202236218",
    "link_img": "https://live.staticflickr.com/65535/49742906226_241a71b539_o.jpg",
    "id_image": "KAWAII1702202236218",
    "count_view": 0
  },
  {
    "link_thumb": "https://live.staticflickr.com/65535/49743234292_8fa71a5011_n.jpg",
    "id_album": "-1694302085",
    "description": "KAWAII060420214918272",
    "title": "KAWAII060420214918272",
    "link_img": "https://live.staticflickr.com/65535/49743234292_684fa57def_o.jpg",
    "id_image": "KAWAII060420214918272",
    "count_view": 0
  },
  {
    "link_thumb": "https://live.staticflickr.com/65535/49727758902_1ef5a00b63_n.jpg",
    "id_album": "742877173",
    "description": "KAWAII02042019450938",
    "title": "KAWAII02042019450938",
    "link_img": "https://live.staticflickr.com/65535/49727758902_2bea519954_o.jpg",
    "id_image": "KAWAII02042019450938",
    "count_view": 0
  },
  {
    "link_thumb": "https://live.staticflickr.com/65535/49726886368_b98d4249b6_n.jpg",
    "id_album": "-1497779911",
    "description": "KAWAII12091841",
    "title": "KAWAII12091841",
    "link_img": "https://live.staticflickr.com/65535/49726886368_dd5b0a008f_o.jpg",
    "id_image": "KAWAII12091841",
    "count_view": 0
  },
  {
    "link_thumb": "https://live.staticflickr.com/65535/49592207433_e6d261d1a6_n.jpg",
    "id_album": "-1741487325",
    "description": "KAWAII1702202237382",
    "title": "KAWAII1702202237382",
    "link_img": "https://live.staticflickr.com/65535/49592207433_5dde2b2cd3_o.jpg",
    "id_image": "KAWAII1702202237382",
    "count_view": 0
  },
  {
    "link_thumb": "https://live.staticflickr.com/65535/49693587498_ae99d125d9_n.jpg",
    "id_album": "1226948986",
    "description": "TOTORO22032015428",
    "title": "TOTORO22032015428",
    "link_img": "https://live.staticflickr.com/65535/49693587498_8001c33ca7_o.jpg",
    "id_image": "TOTORO22032015428",
    "count_view": 0
  },
  {
    "link_thumb": "https://live.staticflickr.com/65535/49548174633_4ee07fc12f_n.jpg",
    "id_album": "-1694302085",
    "description": "KAWAII1702202236268",
    "title": "KAWAII1702202236268",
    "link_img": "https://live.staticflickr.com/65535/49548174633_12b2ef2a42_o.jpg",
    "id_image": "KAWAII1702202236268",
    "count_view": 0
  },
  {
    "link_thumb": "https://live.staticflickr.com/65535/49693547553_3da41a6c6e_n.jpg",
    "id_album": "1201366373",
    "description": "KAWAII12091821",
    "title": "KAWAII12091821",
    "link_img": "https://live.staticflickr.com/65535/49693547553_907850068c_o.jpg",
    "id_image": "KAWAII12091821",
    "count_view": 0
  },
  {
    "link_thumb": "https://live.staticflickr.com/65535/49623091632_8f97fdb1d1_n.jpg",
    "id_album": "-316663319",
    "description": "KAWAII0503202021175",
    "title": "KAWAII0503202021175",
    "link_img": "https://live.staticflickr.com/65535/49623091632_ed87177a81_o.jpg",
    "id_image": "KAWAII0503202021175",
    "count_view": 0
  },
  {
    "link_thumb": "https://live.staticflickr.com/65535/49592732136_8ec2b07b5c_n.jpg",
    "id_album": "949200594",
    "description": "KAWAII270220235128",
    "title": "KAWAII270220235128",
    "link_img": "https://live.staticflickr.com/65535/49592732136_e1c28a6421_o.jpg",
    "id_image": "KAWAII270220235128",
    "count_view": 0
  },
  {
    "link_thumb": "https://live.staticflickr.com/65535/49592225723_8efd54fe30_n.jpg",
    "id_album": "949200594",
    "description": "KAWAII2702202351100",
    "title": "KAWAII2702202351100",
    "link_img": "https://live.staticflickr.com/65535/49592225723_39372012f5_o.jpg",
    "id_image": "KAWAII2702202351100",
    "count_view": 0
  },
  {
    "link_thumb": "https://live.staticflickr.com/65535/49592227688_ef059cfa35_n.jpg",
    "id_album": "949200594",
    "description": "KAWAII270220235113",
    "title": "KAWAII270220235113",
    "link_img": "https://live.staticflickr.com/65535/49592227688_fb97dc9948_o.jpg",
    "id_image": "KAWAII270220235113",
    "count_view": 0
  },
  {
    "link_thumb": "https://live.staticflickr.com/65535/49592217268_d6786c2d1a_n.jpg",
    "id_album": "-316663319",
    "description": "KAWAII270220235181",
    "title": "KAWAII270220235181",
    "link_img": "https://live.staticflickr.com/65535/49592217268_d78b40da3a_o.jpg",
    "id_image": "KAWAII270220235181",
    "count_view": 0
  },
  {
    "link_thumb": "https://live.staticflickr.com/65535/49693544168_467e9abb20_n.jpg",
    "id_album": "1201366373",
    "description": "KAWAII120918177",
    "title": "KAWAII120918177",
    "link_img": "https://live.staticflickr.com/65535/49693544168_251a2efff3_o.jpg",
    "id_image": "KAWAII120918177",
    "count_view": 0
  },
  {
    "link_thumb": "https://live.staticflickr.com/65535/49726884643_2a9d92e5af_n.jpg",
    "id_album": "-1497779911",
    "description": "KAWAII050320202123",
    "title": "KAWAII050320202123",
    "link_img": "https://live.staticflickr.com/65535/49726884643_2321187220_o.jpg",
    "id_image": "KAWAII050320202123",
    "count_view": 0
  },
  {
    "link_thumb": "https://live.staticflickr.com/65535/49622282188_f7238e3cd5_n.jpg",
    "id_album": "-422187261",
    "description": "KAWAII0503202021330",
    "title": "KAWAII0503202021330",
    "link_img": "https://live.staticflickr.com/65535/49622282188_7f6aa8f2ff_o.jpg",
    "id_image": "KAWAII0503202021330",
    "count_view": 0
  },
  {
    "link_thumb": "https://live.staticflickr.com/65535/49694126256_4dc9484853_n.jpg",
    "id_album": "-1431786825",
    "description": "KAWAII270220235197",
    "title": "KAWAII270220235197",
    "link_img": "https://live.staticflickr.com/65535/49694126256_a9edd582f5_o.jpg",
    "id_image": "KAWAII270220235197",
    "count_view": 0
  },
  {
    "link_thumb": "https://live.staticflickr.com/65535/49726883698_396835f2ac_n.jpg",
    "id_album": "-1497779911",
    "description": "KAWAII0503202021120",
    "title": "KAWAII0503202021120",
    "link_img": "https://live.staticflickr.com/65535/49726883698_a381dcbe65_o.jpg",
    "id_image": "KAWAII0503202021120",
    "count_view": 0
  },
  {
    "link_thumb": "https://live.staticflickr.com/65535/49694386657_07a4f6fa3e_n.jpg",
    "id_album": "1201366373",
    "description": "KAWAII12091815",
    "title": "KAWAII12091815",
    "link_img": "https://live.staticflickr.com/65535/49694386657_679a3490e7_o.jpg",
    "id_image": "KAWAII12091815",
    "count_view": 0
  },
  {
    "link_thumb": "https://live.staticflickr.com/65535/49622841011_3417453e23_n.jpg",
    "id_album": "-406350429",
    "description": "KAWAII0503202021100",
    "title": "KAWAII0503202021100",
    "link_img": "https://live.staticflickr.com/65535/49622841011_b10733d940_o.jpg",
    "id_image": "KAWAII0503202021100",
    "count_view": 0
  },
  {
    "link_thumb": "https://live.staticflickr.com/65535/49622834286_33b4a5bf90_n.jpg",
    "id_album": "-316663319",
    "description": "KAWAII050320202139",
    "title": "KAWAII050320202139",
    "link_img": "https://live.staticflickr.com/65535/49622834286_570e0604cd_o.jpg",
    "id_image": "KAWAII050320202139",
    "count_view": 0
  },
  {
    "link_thumb": "https://live.staticflickr.com/65535/49548169653_65379b73e3_n.jpg",
    "id_album": "-1099943053",
    "description": "KAWAII1702202236241",
    "title": "KAWAII1702202236241",
    "link_img": "https://live.staticflickr.com/65535/49548169653_8a7c4e836a_o.jpg",
    "id_image": "KAWAII1702202236241",
    "count_view": 0
  },
  {
    "link_thumb": "https://live.staticflickr.com/65535/49548662521_495fec0c6f_n.jpg",
    "id_album": "1396902986",
    "description": "KAWAII1702202235199",
    "title": "KAWAII1702202235199",
    "link_img": "https://live.staticflickr.com/65535/49548662521_41402ffbc9_o.jpg",
    "id_image": "KAWAII1702202235199",
    "count_view": 0
  },
  {
    "link_thumb": "https://live.staticflickr.com/65535/49742939316_05ef8a4349_n.jpg",
    "id_album": "-1473448477",
    "description": "KAWAII06042021491543",
    "title": "KAWAII06042021491543",
    "link_img": "https://live.staticflickr.com/65535/49742939316_801a766890_o.jpg",
    "id_image": "KAWAII06042021491543",
    "count_view": 0
  },
  {
    "link_thumb": "https://live.staticflickr.com/65535/49742408543_f5f39b9b01_n.jpg",
    "id_album": "-1431786825",
    "description": "KAWAII060420214915193",
    "title": "KAWAII060420214915193",
    "link_img": "https://live.staticflickr.com/65535/49742408543_e1cc061ec5_o.jpg",
    "id_image": "KAWAII060420214915193",
    "count_view": 0
  },
  {
    "link_thumb": "https://live.staticflickr.com/65535/49548598861_c539f958f9_n.jpg",
    "id_album": "-316663319",
    "description": "KAWAII120918334",
    "title": "KAWAII120918334",
    "link_img": "https://live.staticflickr.com/65535/49548598861_130472ddd0_o.jpg",
    "id_image": "KAWAII120918334",
    "count_view": 0
  },
  {
    "link_thumb": "https://live.staticflickr.com/65535/49548831437_5f1799ae82_n.jpg",
    "id_album": "-1741487325",
    "description": "KAWAII120918356",
    "title": "KAWAII120918356",
    "link_img": "https://live.staticflickr.com/65535/49548831437_157df654a0_o.jpg",
    "id_image": "KAWAII120918356",
    "count_view": 0
  },
  {
    "link_thumb": "https://live.staticflickr.com/65535/49548864507_d9e6437c8d_n.jpg",
    "id_album": "431597977",
    "description": "KAWAII170220223455",
    "title": "KAWAII170220223455",
    "link_img": "https://live.staticflickr.com/65535/49548864507_100df156a5_o.jpg",
    "id_image": "KAWAII170220223455",
    "count_view": 0
  },
  {
    "link_thumb": "https://live.staticflickr.com/65535/49622307713_80ee8ee40d_n.jpg",
    "id_album": "-316663319",
    "description": "KAWAII05032020212",
    "title": "KAWAII05032020212",
    "link_img": "https://live.staticflickr.com/65535/49622307713_39424e7f74_o.jpg",
    "id_image": "KAWAII05032020212",
    "count_view": 0
  },
  {
    "link_thumb": "https://live.staticflickr.com/65535/49726905873_760521dc37_n.jpg",
    "id_album": "742877173",
    "description": "KAWAII02042019451456",
    "title": "KAWAII02042019451456",
    "link_img": "https://live.staticflickr.com/65535/49726905873_5c14423e87_o.jpg",
    "id_image": "KAWAII02042019451456",
    "count_view": 0
  },
  {
    "link_thumb": "https://live.staticflickr.com/65535/49548602866_68dc12d7a1_n.jpg",
    "id_album": "-1099943053",
    "description": "KAWAII120918350",
    "title": "KAWAII120918350",
    "link_img": "https://live.staticflickr.com/65535/49548602866_b528e1d3d1_o.jpg",
    "id_image": "KAWAII120918350",
    "count_view": 0
  },
  {
    "link_thumb": "https://live.staticflickr.com/65535/49694431617_90867bcb8a_n.jpg",
    "id_album": "1226948986",
    "description": "TOTORO220320154114",
    "title": "TOTORO220320154114",
    "link_img": "https://live.staticflickr.com/65535/49694431617_c4ac376478_o.jpg",
    "id_image": "TOTORO220320154114",
    "count_view": 0
  },
  {
    "link_thumb": "https://live.staticflickr.com/65535/49693548643_f895171502_n.jpg",
    "id_album": "-643980979",
    "description": "KAWAII120918221",
    "title": "KAWAII120918221",
    "link_img": "https://live.staticflickr.com/65535/49693548643_4a459079ff_o.jpg",
    "id_image": "KAWAII120918221",
    "count_view": 0
  },
  {
    "link_thumb": "https://live.staticflickr.com/65535/49693540143_bacb5cc03a_n.jpg",
    "id_album": "1201366373",
    "description": "KAWAII120918142",
    "title": "KAWAII120918142",
    "link_img": "https://live.staticflickr.com/65535/49693540143_7dacd41cac_o.jpg",
    "id_image": "KAWAII120918142",
    "count_view": 0
  },
  {
    "link_thumb": "https://live.staticflickr.com/65535/49711146947_2b7b494f19_n.jpg",
    "id_album": "-1599896063",
    "description": "LITTLEMONK29032012064226",
    "title": "LITTLEMONK29032012064226",
    "link_img": "https://live.staticflickr.com/65535/49711146947_1ee772217a_o.jpg",
    "id_image": "LITTLEMONK29032012064226",
    "count_view": 0
  },
  {
    "link_thumb": "https://live.staticflickr.com/65535/49694217311_542ebb2eb7_n.jpg",
    "id_album": "-643980979",
    "description": "KAWAII120918100",
    "title": "KAWAII120918100",
    "link_img": "https://live.staticflickr.com/65535/49694217311_d264883ab3_o.jpg",
    "id_image": "KAWAII120918100",
    "count_view": 0
  },
  {
    "link_thumb": "https://live.staticflickr.com/65535/49694227926_f1cd878911_n.jpg",
    "id_album": "1226948986",
    "description": "KAWAII24032022050226",
    "title": "KAWAII24032022050226",
    "link_img": "https://live.staticflickr.com/65535/49694227926_69285a2df3_o.jpg",
    "id_image": "KAWAII24032022050226",
    "count_view": 0
  },
  {
    "link_thumb": "https://live.staticflickr.com/65535/49622307308_3576589ac7_n.jpg",
    "id_album": "-316663319",
    "description": "KAWAII0503202021198",
    "title": "KAWAII0503202021198",
    "link_img": "https://live.staticflickr.com/65535/49622307308_652f5de480_o.jpg",
    "id_image": "KAWAII0503202021198",
    "count_view": 0
  },
  {
    "link_thumb": "https://live.staticflickr.com/65535/49727426016_3ea6756eb8_n.jpg",
    "id_album": "-1694302085",
    "description": "KAWAII02042019451159",
    "title": "KAWAII02042019451159",
    "link_img": "https://live.staticflickr.com/65535/49727426016_645aebf6ea_o.jpg",
    "id_image": "KAWAII02042019451159",
    "count_view": 0
  },
  {
    "link_thumb": "https://live.staticflickr.com/65535/49726883488_df1a893e67_n.jpg",
    "id_album": "-1497779911",
    "description": "KAWAII050320202111",
    "title": "KAWAII050320202111",
    "link_img": "https://live.staticflickr.com/65535/49726883488_252a961326_o.jpg",
    "id_image": "KAWAII050320202111",
    "count_view": 0
  },
  {
    "link_thumb": "https://live.staticflickr.com/65535/49693672398_86aafaeca7_n.jpg",
    "id_album": "-1694302085",
    "description": "KAWAII120918201",
    "title": "KAWAII120918201",
    "link_img": "https://live.staticflickr.com/65535/49693672398_cb7e8c4cdb_o.jpg",
    "id_image": "KAWAII120918201",
    "count_view": 0
  },
  {
    "link_thumb": "https://live.staticflickr.com/65535/49548090478_e14671db02_n.jpg",
    "id_album": "-422187261",
    "description": "KAWAII120918308",
    "title": "KAWAII120918308",
    "link_img": "https://live.staticflickr.com/65535/49548090478_68298f952a_o.jpg",
    "id_image": "KAWAII120918308",
    "count_view": 0
  },
  {
    "link_thumb": "https://live.staticflickr.com/65535/49693567538_cf1f40e282_n.jpg",
    "id_album": "-643980979",
    "description": "KAWAII1702202236291",
    "title": "KAWAII1702202236291",
    "link_img": "https://live.staticflickr.com/65535/49693567538_534a3fa332_o.jpg",
    "id_image": "KAWAII1702202236291",
    "count_view": 0
  },
  {
    "link_thumb": "https://live.staticflickr.com/65535/49693568038_916ee82a8f_n.jpg",
    "id_album": "1201366373",
    "description": "KAWAII1702202237342",
    "title": "KAWAII1702202237342",
    "link_img": "https://live.staticflickr.com/65535/49693568038_c81c3ed181_o.jpg",
    "id_image": "KAWAII1702202237342",
    "count_view": 0
  },
  {
    "link_thumb": "https://live.staticflickr.com/65535/49743261052_4b69c702e4_n.jpg",
    "id_album": "-1473448477",
    "description": "KAWAII06042021491524",
    "title": "KAWAII06042021491524",
    "link_img": "https://live.staticflickr.com/65535/49743261052_51fa3db42d_o.jpg",
    "id_image": "KAWAII06042021491524",
    "count_view": 0
  },
  {
    "link_thumb": "https://live.staticflickr.com/65535/49694094696_78606a6e68_n.jpg",
    "id_album": "1201366373",
    "description": "KAWAII120918246",
    "title": "KAWAII120918246",
    "link_img": "https://live.staticflickr.com/65535/49694094696_3546c39ba8_o.jpg",
    "id_image": "KAWAII120918246",
    "count_view": 0
  },
  {
    "link_thumb": "https://live.staticflickr.com/65535/49711146092_0f18776a20_n.jpg",
    "id_album": "-1599896063",
    "description": "LITTLEMONK2903201206391",
    "title": "LITTLEMONK2903201206391",
    "link_img": "https://live.staticflickr.com/65535/49711146092_80cafb6a23_o.jpg",
    "id_image": "LITTLEMONK2903201206391",
    "count_view": 0
  },
  {
    "link_thumb": "https://live.staticflickr.com/65535/49711144482_7ba00aa8ac_n.jpg",
    "id_album": "-1599896063",
    "description": "LITTLEMONK29032012063427",
    "title": "LITTLEMONK29032012063427",
    "link_img": "https://live.staticflickr.com/65535/49711144482_942eaa2988_o.jpg",
    "id_image": "LITTLEMONK29032012063427",
    "count_view": 0
  },
  {
    "link_thumb": "https://live.staticflickr.com/65535/49693525553_2c502f8a61_n.jpg",
    "id_album": "416744915",
    "description": "KAWAII1702202238442",
    "title": "KAWAII1702202238442",
    "link_img": "https://live.staticflickr.com/65535/49693525553_7d58a7d5b4_o.jpg",
    "id_image": "KAWAII1702202238442",
    "count_view": 0
  },
  {
    "link_thumb": "https://live.staticflickr.com/65535/49548836412_02acd675ab_n.jpg",
    "id_album": "-1741487325",
    "description": "KAWAII120918376",
    "title": "KAWAII120918376",
    "link_img": "https://live.staticflickr.com/65535/49548836412_e605c89512_o.jpg",
    "id_image": "KAWAII120918376",
    "count_view": 0
  },
  {
    "link_thumb": "https://live.staticflickr.com/65535/49694097306_4b8b24b55c_n.jpg",
    "id_album": "1201366373",
    "description": "KAWAII120918260",
    "title": "KAWAII120918260",
    "link_img": "https://live.staticflickr.com/65535/49694097306_3f53713776_o.jpg",
    "id_image": "KAWAII120918260",
    "count_view": 0
  },
  {
    "link_thumb": "https://live.staticflickr.com/65535/49727439666_4d7308a57b_n.jpg",
    "id_album": "-316663319",
    "description": "KAWAII020420194512154",
    "title": "KAWAII020420194512154",
    "link_img": "https://live.staticflickr.com/65535/49727439666_09f88a6c49_o.jpg",
    "id_image": "KAWAII020420194512154",
    "count_view": 0
  },
  {
    "link_thumb": "https://live.staticflickr.com/65535/49548818982_0b96ac76d6_n.jpg",
    "id_album": "-316663319",
    "description": "KAWAII120918306",
    "title": "KAWAII120918306",
    "link_img": "https://live.staticflickr.com/65535/49548818982_364b7e10d1_o.jpg",
    "id_image": "KAWAII120918306",
    "count_view": 0
  },
  {
    "link_thumb": "https://live.staticflickr.com/65535/49694123996_c9489a0f7a_n.jpg",
    "id_album": "-358592519",
    "description": "KAWAII1209182",
    "title": "KAWAII1209182",
    "link_img": "https://live.staticflickr.com/65535/49694123996_cea27b0603_o.jpg",
    "id_image": "KAWAII1209182",
    "count_view": 0
  },
  {
    "link_thumb": "https://live.staticflickr.com/65535/49743263727_d5a7f09562_n.jpg",
    "id_album": "-1473448477",
    "description": "KAWAII06042021491578",
    "title": "KAWAII06042021491578",
    "link_img": "https://live.staticflickr.com/65535/49743263727_3bfb63d4d9_o.jpg",
    "id_image": "KAWAII06042021491578",
    "count_view": 0
  },
  {
    "link_thumb": "https://live.staticflickr.com/65535/49694410897_b8cffab1b0_n.jpg",
    "id_album": "-643980979",
    "description": "KAWAII1702202235136",
    "title": "KAWAII1702202235136",
    "link_img": "https://live.staticflickr.com/65535/49694410897_8bcbcd948f_o.jpg",
    "id_image": "KAWAII1702202235136",
    "count_view": 0
  },
  {
    "link_thumb": "https://live.staticflickr.com/65535/49694114441_d96d2de253_n.jpg",
    "id_album": "1201366373",
    "description": "KAWAII1702202239573",
    "title": "KAWAII1702202239573",
    "link_img": "https://live.staticflickr.com/65535/49694114441_404a9beed8_o.jpg",
    "id_image": "KAWAII1702202239573",
    "count_view": 0
  },
  {
    "link_thumb": "https://live.staticflickr.com/65535/49693568638_859062b459_n.jpg",
    "id_album": "1201366373",
    "description": "KAWAII1702202237389",
    "title": "KAWAII1702202237389",
    "link_img": "https://live.staticflickr.com/65535/49693568638_23620a4415_o.jpg",
    "id_image": "KAWAII1702202237389",
    "count_view": 0
  },
  {
    "link_thumb": "https://live.staticflickr.com/65535/49548188298_60c88f074b_n.jpg",
    "id_album": "-1431786825",
    "description": "KAWAII1702202237333",
    "title": "KAWAII1702202237333",
    "link_img": "https://live.staticflickr.com/65535/49548188298_392174a893_o.jpg",
    "id_image": "KAWAII1702202237333",
    "count_view": 0
  },
  {
    "link_thumb": "https://live.staticflickr.com/65535/49694125311_154b517e69_n.jpg",
    "id_album": "-358592519",
    "description": "KAWAII1702202237314",
    "title": "KAWAII1702202237314",
    "link_img": "https://live.staticflickr.com/65535/49694125311_83b4919df8_o.jpg",
    "id_image": "KAWAII1702202237314",
    "count_view": 0
  },
  {
    "link_thumb": "https://live.staticflickr.com/65535/49622803226_76cafe0d42_n.jpg",
    "id_album": "1396902986",
    "description": "KAWAII0503202021277",
    "title": "KAWAII0503202021277",
    "link_img": "https://live.staticflickr.com/65535/49622803226_e5aed4ff94_o.jpg",
    "id_image": "KAWAII0503202021277",
    "count_view": 0
  },
  {
    "link_thumb": "https://live.staticflickr.com/65535/49548683346_86605be243_n.jpg",
    "id_album": "-422187261",
    "description": "KAWAII1702202236306",
    "title": "KAWAII1702202236306",
    "link_img": "https://live.staticflickr.com/65535/49548683346_e9a5c7e8c8_o.jpg",
    "id_image": "KAWAII1702202236306",
    "count_view": 0
  },
  {
    "link_thumb": "https://live.staticflickr.com/65535/49693585133_e5463d6e2c_n.jpg",
    "id_album": "405170427",
    "description": "KAWAII170220223324",
    "title": "KAWAII170220223324",
    "link_img": "https://live.staticflickr.com/65535/49693585133_9a145701e5_o.jpg",
    "id_image": "KAWAII170220223324",
    "count_view": 0
  },
  {
    "link_thumb": "https://live.staticflickr.com/65535/49743238712_63dded63b7_n.jpg",
    "id_album": "-1497779911",
    "description": "KAWAII06042021491445",
    "title": "KAWAII06042021491445",
    "link_img": "https://live.staticflickr.com/65535/49743238712_d4ec543d5d_o.jpg",
    "id_image": "KAWAII06042021491445",
    "count_view": 0
  },
  {
    "link_thumb": "https://live.staticflickr.com/65535/49743248262_2c94a665f8_n.jpg",
    "id_album": "-316663319",
    "description": "KAWAII060420214913211",
    "title": "KAWAII060420214913211",
    "link_img": "https://live.staticflickr.com/65535/49743248262_287f405867_o.jpg",
    "id_image": "KAWAII060420214913211",
    "count_view": 0
  },
  {
    "link_thumb": "https://live.staticflickr.com/65535/49548842647_98cc1d909e_n.jpg",
    "id_album": "-422187261",
    "description": "KAWAII12091866",
    "title": "KAWAII12091866",
    "link_img": "https://live.staticflickr.com/65535/49548842647_e426b9680e_o.jpg",
    "id_image": "KAWAII12091866",
    "count_view": 0
  },
  {
    "link_thumb": "https://live.staticflickr.com/65535/49624534956_61c9218b20_n.jpg",
    "id_album": "-316663319",
    "description": "KAWAII0503202021123",
    "title": "KAWAII0503202021123",
    "link_img": "https://live.staticflickr.com/65535/49624534956_f0789ba80b_o.jpg",
    "id_image": "KAWAII0503202021123",
    "count_view": 0
  },
  {
    "link_thumb": "https://live.staticflickr.com/65535/49710822451_3c883385b1_n.jpg",
    "id_album": "-1599896063",
    "description": "LITTLEMONK29032012063923",
    "title": "LITTLEMONK29032012063923",
    "link_img": "https://live.staticflickr.com/65535/49710822451_c8ba1ea2fe_o.jpg",
    "id_image": "LITTLEMONK29032012063923",
    "count_view": 0
  },
  {
    "link_thumb": "https://live.staticflickr.com/65535/49743252197_fc8e6aff13_n.jpg",
    "id_album": "-316663319",
    "description": "KAWAII060420214915220",
    "title": "KAWAII060420214915220",
    "link_img": "https://live.staticflickr.com/65535/49743252197_a0dbe1a485_o.jpg",
    "id_image": "KAWAII060420214915220",
    "count_view": 0
  },
  {
    "link_thumb": "https://live.staticflickr.com/65535/49694124181_8597a99e00_n.jpg",
    "id_album": "-358592519",
    "description": "KAWAII120918255",
    "title": "KAWAII120918255",
    "link_img": "https://live.staticflickr.com/65535/49694124181_b7a93c8a2e_o.jpg",
    "id_image": "KAWAII120918255",
    "count_view": 0
  },
  {
    "link_thumb": "https://live.staticflickr.com/65535/49592959667_2f7f2098df_n.jpg",
    "id_album": "-316663319",
    "description": "KAWAII270220235121",
    "title": "KAWAII270220235121",
    "link_img": "https://live.staticflickr.com/65535/49592959667_89894cfff3_o.jpg",
    "id_image": "KAWAII270220235121",
    "count_view": 0
  },
  {
    "link_thumb": "https://live.staticflickr.com/65535/49727755567_e026722fca_n.jpg",
    "id_album": "742877173",
    "description": "KAWAII020420194507150",
    "title": "KAWAII020420194507150",
    "link_img": "https://live.staticflickr.com/65535/49727755567_dcb40c249f_o.jpg",
    "id_image": "KAWAII020420194507150",
    "count_view": 0
  },
  {
    "link_thumb": "https://live.staticflickr.com/65535/49694096531_6d257d2400_n.jpg",
    "id_album": "1201366373",
    "description": "KAWAII120918256",
    "title": "KAWAII120918256",
    "link_img": "https://live.staticflickr.com/65535/49694096531_ee6e497485_o.jpg",
    "id_image": "KAWAII120918256",
    "count_view": 0
  },
  {
    "link_thumb": "https://live.staticflickr.com/65535/49727448881_4cc935def4_n.jpg",
    "id_album": "742877173",
    "description": "KAWAII02042019451193",
    "title": "KAWAII02042019451193",
    "link_img": "https://live.staticflickr.com/65535/49727448881_ef8c24c859_o.jpg",
    "id_image": "KAWAII02042019451193",
    "count_view": 0
  },
  {
    "link_thumb": "https://live.staticflickr.com/65535/49742410363_1acfd7c229_n.jpg",
    "id_album": "1226948986",
    "description": "KAWAII060420214912216",
    "title": "KAWAII060420214912216",
    "link_img": "https://live.staticflickr.com/65535/49742410363_8ef30bc8d8_o.jpg",
    "id_image": "KAWAII060420214912216",
    "count_view": 0
  },
  {
    "link_thumb": "https://live.staticflickr.com/65535/49548608146_9fe9c57e70_n.jpg",
    "id_album": "-1741487325",
    "description": "KAWAII120918373",
    "title": "KAWAII120918373",
    "link_img": "https://live.staticflickr.com/65535/49548608146_ba1314391a_o.jpg",
    "id_image": "KAWAII120918373",
    "count_view": 0
  },
  {
    "link_thumb": "https://live.staticflickr.com/65535/49592214838_890bcf4f6d_n.jpg",
    "id_album": "-316663319",
    "description": "KAWAII270220235129",
    "title": "KAWAII270220235129",
    "link_img": "https://live.staticflickr.com/65535/49592214838_713a6a5106_o.jpg",
    "id_image": "KAWAII270220235129",
    "count_view": 0
  },
  {
    "link_thumb": "https://live.staticflickr.com/65535/49743254072_012f4c650a_n.jpg",
    "id_album": "-316663319",
    "description": "KAWAII06042021491586",
    "title": "KAWAII06042021491586",
    "link_img": "https://live.staticflickr.com/65535/49743254072_b73232a519_o.jpg",
    "id_image": "KAWAII06042021491586",
    "count_view": 0
  },
  {
    "link_thumb": "https://live.staticflickr.com/65535/49592730631_f3ff40a4f1_n.jpg",
    "id_album": "949200594",
    "description": "KAWAII2702202351129",
    "title": "KAWAII2702202351129",
    "link_img": "https://live.staticflickr.com/65535/49592730631_7f24a025c3_o.jpg",
    "id_image": "KAWAII2702202351129",
    "count_view": 0
  },
  {
    "link_thumb": "https://live.staticflickr.com/65535/49623115017_ddf91e3224_n.jpg",
    "id_album": "-406350429",
    "description": "KAWAII0503202021149",
    "title": "KAWAII0503202021149",
    "link_img": "https://live.staticflickr.com/65535/49623115017_21835e7cd3_o.jpg",
    "id_image": "KAWAII0503202021149",
    "count_view": 0
  },
  {
    "link_thumb": "https://live.staticflickr.com/65535/49548269008_3483f63071_n.jpg",
    "id_album": "-316663319",
    "description": "KAWAII17091839",
    "title": "KAWAII17091839",
    "link_img": "https://live.staticflickr.com/65535/49548269008_b3bcef5d54_o.jpg",
    "id_image": "KAWAII17091839",
    "count_view": 0
  },
  {
    "link_thumb": "https://live.staticflickr.com/65535/49727779722_730c65946c_n.jpg",
    "id_album": "1396902986",
    "description": "KAWAII1702202237336",
    "title": "KAWAII1702202237336",
    "link_img": "https://live.staticflickr.com/65535/49727779722_6e4be09687_o.jpg",
    "id_image": "KAWAII1702202237336",
    "count_view": 0
  },
  {
    "link_thumb": "https://live.staticflickr.com/65535/49548792212_18652bd969_n.jpg",
    "id_album": "-1694302085",
    "description": "KAWAII120918186",
    "title": "KAWAII120918186",
    "link_img": "https://live.staticflickr.com/65535/49548792212_2f9e4d6e30_o.jpg",
    "id_image": "KAWAII120918186",
    "count_view": 0
  },
  {
    "link_thumb": "https://live.staticflickr.com/65535/49622318298_c76690c0d0_n.jpg",
    "id_album": "-316663319",
    "description": "KAWAII0503202021318",
    "title": "KAWAII0503202021318",
    "link_img": "https://live.staticflickr.com/65535/49622318298_b27af57c0d_o.jpg",
    "id_image": "KAWAII0503202021318",
    "count_view": 0
  },
  {
    "link_thumb": "https://live.staticflickr.com/65535/49548775137_a598aa735d_n.jpg",
    "id_album": "-1741487325",
    "description": "KAWAII120918117",
    "title": "KAWAII120918117",
    "link_img": "https://live.staticflickr.com/65535/49548775137_6eceb08f83_o.jpg",
    "id_image": "KAWAII120918117",
    "count_view": 0
  },
  {
    "link_thumb": "https://live.staticflickr.com/65535/49693549298_c7eaef73cb_n.jpg",
    "id_album": "1201366373",
    "description": "KAWAII120918226",
    "title": "KAWAII120918226",
    "link_img": "https://live.staticflickr.com/65535/49693549298_789a292352_o.jpg",
    "id_image": "KAWAII120918226",
    "count_view": 0
  },
  {
    "link_thumb": "https://live.staticflickr.com/65535/49622308243_cf8039b3fc_n.jpg",
    "id_album": "-316663319",
    "description": "KAWAII0503202021207",
    "title": "KAWAII0503202021207",
    "link_img": "https://live.staticflickr.com/65535/49622308243_33f990139d_o.jpg",
    "id_image": "KAWAII0503202021207",
    "count_view": 0
  },
  {
    "link_thumb": "https://live.staticflickr.com/65535/49694125931_f8f3987c14_n.jpg",
    "id_album": "-358592519",
    "description": "KAWAII1702202239568",
    "title": "KAWAII1702202239568",
    "link_img": "https://live.staticflickr.com/65535/49694125931_361e3743c3_o.jpg",
    "id_image": "KAWAII1702202239568",
    "count_view": 0
  },
  {
    "link_thumb": "https://live.staticflickr.com/65535/49592203478_94e007ee2a_n.jpg",
    "id_album": "1396902986",
    "description": "KAWAII2702202351101",
    "title": "KAWAII2702202351101",
    "link_img": "https://live.staticflickr.com/65535/49592203478_565de20aab_o.jpg",
    "id_image": "KAWAII2702202351101",
    "count_view": 0
  },
  {
    "link_thumb": "https://live.staticflickr.com/65535/49548819262_0081057c24_n.jpg",
    "id_album": "-316663319",
    "description": "KAWAII120918307",
    "title": "KAWAII120918307",
    "link_img": "https://live.staticflickr.com/65535/49548819262_2eea310c23_o.jpg",
    "id_image": "KAWAII120918307",
    "count_view": 0
  },
  {
    "link_thumb": "https://live.staticflickr.com/65535/49623115537_abfe410cf9_n.jpg",
    "id_album": "-406350429",
    "description": "KAWAII0503202021164",
    "title": "KAWAII0503202021164",
    "link_img": "https://live.staticflickr.com/65535/49623115537_6f1a6bb2e6_o.jpg",
    "id_image": "KAWAII0503202021164",
    "count_view": 0
  },
  {
    "link_thumb": "https://live.staticflickr.com/65535/49726917603_404d3589cb_n.jpg",
    "id_album": "1396902986",
    "description": "KAWAII020420194511104",
    "title": "KAWAII020420194511104",
    "link_img": "https://live.staticflickr.com/65535/49726917603_3448c3a652_o.jpg",
    "id_image": "KAWAII020420194511104",
    "count_view": 0
  },
  {
    "link_thumb": "https://live.staticflickr.com/65535/49578247678_897aeb9c0b_n.jpg",
    "id_album": "-1099943053",
    "description": "KAWAII190220211110",
    "title": "KAWAII190220211110",
    "link_img": "https://live.staticflickr.com/65535/49578247678_5293d513a2_o.jpg",
    "id_image": "KAWAII190220211110",
    "count_view": 0
  },
  {
    "link_thumb": "https://live.staticflickr.com/65535/49548185898_3ef0c51f7b_n.jpg",
    "id_album": "-1741487325",
    "description": "KAWAII1702202237321",
    "title": "KAWAII1702202237321",
    "link_img": "https://live.staticflickr.com/65535/49548185898_abab100efd_o.jpg",
    "id_image": "KAWAII1702202237321",
    "count_view": 0
  },
  {
    "link_thumb": "https://live.staticflickr.com/65535/49726880213_be43e8f94b_n.jpg",
    "id_album": "-1694302085",
    "description": "KAWAII190220211124",
    "title": "KAWAII190220211124",
    "link_img": "https://live.staticflickr.com/65535/49726880213_20aab8a60f_o.jpg",
    "id_image": "KAWAII190220211124",
    "count_view": 0
  },
  {
    "link_thumb": "https://live.staticflickr.com/65535/49592962932_0c0df353dc_n.jpg",
    "id_album": "-316663319",
    "description": "KAWAII270220235187",
    "title": "KAWAII270220235187",
    "link_img": "https://live.staticflickr.com/65535/49592962932_3900739668_o.jpg",
    "id_image": "KAWAII270220235187",
    "count_view": 0
  },
  {
    "link_thumb": "https://live.staticflickr.com/65535/49548098368_c33c390434_n.jpg",
    "id_album": "-422187261",
    "description": "KAWAII120918341",
    "title": "KAWAII120918341",
    "link_img": "https://live.staticflickr.com/65535/49548098368_4983148212_o.jpg",
    "id_image": "KAWAII120918341",
    "count_view": 0
  },
  {
    "link_thumb": "https://live.staticflickr.com/65535/49742929001_e119c2c6f8_n.jpg",
    "id_album": "-316663319",
    "description": "KAWAII060420214915295",
    "title": "KAWAII060420214915295",
    "link_img": "https://live.staticflickr.com/65535/49742929001_b618cff33e_o.jpg",
    "id_image": "KAWAII060420214915295",
    "count_view": 0
  },
  {
    "link_thumb": "https://live.staticflickr.com/65535/49548557526_ce8318248b_n.jpg",
    "id_album": "-1741487325",
    "description": "KAWAII120918154",
    "title": "KAWAII120918154",
    "link_img": "https://live.staticflickr.com/65535/49548557526_0c16422ca2_o.jpg",
    "id_image": "KAWAII120918154",
    "count_view": 0
  },
  {
    "link_thumb": "https://live.staticflickr.com/65535/49548589441_a5fe42b307_n.jpg",
    "id_album": "-316663319",
    "description": "KAWAII120918298",
    "title": "KAWAII120918298",
    "link_img": "https://live.staticflickr.com/65535/49548589441_7894d2d0f6_o.jpg",
    "id_image": "KAWAII120918298",
    "count_view": 0
  },
  {
    "link_thumb": "https://live.staticflickr.com/65535/49694409247_2b7c1a4244_n.jpg",
    "id_album": "1201366373",
    "description": "KAWAII170220223438",
    "title": "KAWAII170220223438",
    "link_img": "https://live.staticflickr.com/65535/49694409247_68cb656fae_o.jpg",
    "id_image": "KAWAII170220223438",
    "count_view": 0
  },
  {
    "link_thumb": "https://live.staticflickr.com/65535/49727785637_b198f83bbb_n.jpg",
    "id_album": "-1862561193",
    "description": "KAWAII020420194512224",
    "title": "KAWAII020420194512224",
    "link_img": "https://live.staticflickr.com/65535/49727785637_9699bc2952_o.jpg",
    "id_image": "KAWAII020420194512224",
    "count_view": 0
  },
  {
    "link_thumb": "https://live.staticflickr.com/65535/49693675488_78222493e3_n.jpg",
    "id_album": "-643980979",
    "description": "KAWAII24032022050220",
    "title": "KAWAII24032022050220",
    "link_img": "https://live.staticflickr.com/65535/49693675488_c85f07a308_o.jpg",
    "id_image": "KAWAII24032022050220",
    "count_view": 0
  },
  {
    "link_thumb": "https://live.staticflickr.com/65535/49694422952_3e4b1fe084_n.jpg",
    "id_album": "-643980979",
    "description": "KAWAII190220211136",
    "title": "KAWAII190220211136",
    "link_img": "https://live.staticflickr.com/65535/49694422952_84233e920a_o.jpg",
    "id_image": "KAWAII190220211136",
    "count_view": 0
  },
  {
    "link_thumb": "https://live.staticflickr.com/65535/49623098177_593ccafa87_n.jpg",
    "id_album": "-316663319",
    "description": "KAWAII0503202021239",
    "title": "KAWAII0503202021239",
    "link_img": "https://live.staticflickr.com/65535/49623098177_df7a844bd6_o.jpg",
    "id_image": "KAWAII0503202021239",
    "count_view": 0
  },
  {
    "link_thumb": "https://live.staticflickr.com/65535/49694521692_e223d9bdc6_n.jpg",
    "id_album": "-643980979",
    "description": "KAWAII2403202205014",
    "title": "KAWAII2403202205014",
    "link_img": "https://live.staticflickr.com/65535/49694521692_1e966d6252_o.jpg",
    "id_image": "KAWAII2403202205014",
    "count_view": 0
  },
  {
    "link_thumb": "https://live.staticflickr.com/65535/49548692246_e33c44dc92_n.jpg",
    "id_album": "-1431786825",
    "description": "KAWAII1702202237347",
    "title": "KAWAII1702202237347",
    "link_img": "https://live.staticflickr.com/65535/49548692246_38e5e82e1a_o.jpg",
    "id_image": "KAWAII1702202237347",
    "count_view": 0
  },
  {
    "link_thumb": "https://live.staticflickr.com/65535/49549002497_aaa50141cc_n.jpg",
    "id_album": "-1741487325",
    "description": "KAWAII17091860",
    "title": "KAWAII17091860",
    "link_img": "https://live.staticflickr.com/65535/49549002497_07c7c5db22_o.jpg",
    "id_image": "KAWAII17091860",
    "count_view": 0
  },
  {
    "link_thumb": "https://live.staticflickr.com/65535/49693526753_b1d2803960_n.jpg",
    "id_album": "-643980979",
    "description": "KAWAII0503202021140",
    "title": "KAWAII0503202021140",
    "link_img": "https://live.staticflickr.com/65535/49693526753_3f30c097d4_o.jpg",
    "id_image": "KAWAII0503202021140",
    "count_view": 0
  },
  {
    "link_thumb": "https://live.staticflickr.com/65535/49623077172_16baeb5882_n.jpg",
    "id_album": "1396902986",
    "description": "KAWAII05032020216",
    "title": "KAWAII05032020216",
    "link_img": "https://live.staticflickr.com/65535/49623077172_bbd401916a_o.jpg",
    "id_image": "KAWAII05032020216",
    "count_view": 0
  },
  {
    "link_thumb": "https://live.staticflickr.com/65535/49693549593_4b8e5f1b2c_n.jpg",
    "id_album": "1201366373",
    "description": "KAWAII120918228",
    "title": "KAWAII120918228",
    "link_img": "https://live.staticflickr.com/65535/49693549593_926417a85b_o.jpg",
    "id_image": "KAWAII120918228",
    "count_view": 0
  },
  {
    "link_thumb": "https://live.staticflickr.com/65535/49548992297_0a22b050db_n.jpg",
    "id_album": "-422187261",
    "description": "KAWAII17091826",
    "title": "KAWAII17091826",
    "link_img": "https://live.staticflickr.com/65535/49548992297_898b17ab48_o.jpg",
    "id_image": "KAWAII17091826",
    "count_view": 0
  },
  {
    "link_thumb": "https://live.staticflickr.com/65535/49694216611_d0f7c86d52_n.jpg",
    "id_album": "-1741487325",
    "description": "KAWAII120918249",
    "title": "KAWAII120918249",
    "link_img": "https://live.staticflickr.com/65535/49694216611_86a098ca41_o.jpg",
    "id_image": "KAWAII120918249",
    "count_view": 0
  },
  {
    "link_thumb": "https://live.staticflickr.com/65535/49548930407_6094d1e5b5_n.jpg",
    "id_album": "-422187261",
    "description": "KAWAII1702202237391",
    "title": "KAWAII1702202237391",
    "link_img": "https://live.staticflickr.com/65535/49548930407_6f625a7635_o.jpg",
    "id_image": "KAWAII1702202237391",
    "count_view": 0
  },
  {
    "link_thumb": "https://live.staticflickr.com/65535/49622845556_8beb801bb0_n.jpg",
    "id_album": "-406350429",
    "description": "KAWAII0503202021243",
    "title": "KAWAII0503202021243",
    "link_img": "https://live.staticflickr.com/65535/49622845556_e6dd85b368_o.jpg",
    "id_image": "KAWAII0503202021243",
    "count_view": 0
  },
  {
    "link_thumb": "https://live.staticflickr.com/65535/49693541103_494d54ccb0_n.jpg",
    "id_album": "1201366373",
    "description": "KAWAII120918152",
    "title": "KAWAII120918152",
    "link_img": "https://live.staticflickr.com/65535/49693541103_bd085df047_o.jpg",
    "id_image": "KAWAII120918152",
    "count_view": 0
  },
  {
    "link_thumb": "https://live.staticflickr.com/65535/49742387728_dda125ce78_n.jpg",
    "id_album": "-1473448477",
    "description": "KAWAII060420214915156",
    "title": "KAWAII060420214915156",
    "link_img": "https://live.staticflickr.com/65535/49742387728_9e64db86d3_o.jpg",
    "id_image": "KAWAII060420214915156",
    "count_view": 0
  },
  {
    "link_thumb": "https://live.staticflickr.com/65535/49622306623_94c8e08c1d_n.jpg",
    "id_album": "-316663319",
    "description": "KAWAII0503202021192",
    "title": "KAWAII0503202021192",
    "link_img": "https://live.staticflickr.com/65535/49622306623_572c1ca42c_o.jpg",
    "id_image": "KAWAII0503202021192",
    "count_view": 0
  },
  {
    "link_thumb": "https://live.staticflickr.com/65535/49548835222_2433b1acd6_n.jpg",
    "id_album": "-1741487325",
    "description": "KAWAII120918370",
    "title": "KAWAII120918370",
    "link_img": "https://live.staticflickr.com/65535/49548835222_33e1fa10d3_o.jpg",
    "id_image": "KAWAII120918370",
    "count_view": 0
  },
  {
    "link_thumb": "https://live.staticflickr.com/65535/49742931951_0bf3561d19_n.jpg",
    "id_album": "-316663319",
    "description": "KAWAII060420214917289",
    "title": "KAWAII060420214917289",
    "link_img": "https://live.staticflickr.com/65535/49742931951_2356bb7793_o.jpg",
    "id_image": "KAWAII060420214917289",
    "count_view": 0
  },
  {
    "link_thumb": "https://live.staticflickr.com/65535/49622286478_3e670975d2_n.jpg",
    "id_album": "1396902986",
    "description": "KAWAII0503202021217",
    "title": "KAWAII0503202021217",
    "link_img": "https://live.staticflickr.com/65535/49622286478_b504a41004_o.jpg",
    "id_image": "KAWAII0503202021217",
    "count_view": 0
  },
  {
    "link_thumb": "https://live.staticflickr.com/65535/49552757222_109c403521_n.jpg",
    "id_album": "-1694302085",
    "description": "KAWAII12091825180220205922",
    "title": "KAWAII12091825180220205922",
    "link_img": "https://live.staticflickr.com/65535/49552757222_da8487c6aa_o.jpg",
    "id_image": "KAWAII12091825180220205922",
    "count_view": 0
  },
  {
    "link_thumb": "https://live.staticflickr.com/65535/49693565083_f554226746_n.jpg",
    "id_album": "-643980979",
    "description": "KAWAII170220223495",
    "title": "KAWAII170220223495",
    "link_img": "https://live.staticflickr.com/65535/49693565083_32ab5df91c_o.jpg",
    "id_image": "KAWAII170220223495",
    "count_view": 0
  },
  {
    "link_thumb": "https://live.staticflickr.com/65535/49694526187_c1cb44a107_n.jpg",
    "id_album": "-406350429",
    "description": "KAWAII270220235188",
    "title": "KAWAII270220235188",
    "link_img": "https://live.staticflickr.com/65535/49694526187_0d229d72ef_o.jpg",
    "id_image": "KAWAII270220235188",
    "count_view": 0
  },
  {
    "link_thumb": "https://live.staticflickr.com/65535/49548083248_38f59ac156_n.jpg",
    "id_album": "-1741487325",
    "description": "KAWAII12091828",
    "title": "KAWAII12091828",
    "link_img": "https://live.staticflickr.com/65535/49548083248_c20621c5d3_o.jpg",
    "id_image": "KAWAII12091828",
    "count_view": 0
  },
  {
    "link_thumb": "https://live.staticflickr.com/65535/49622805466_a5265a88fd_n.jpg",
    "id_album": "-1741487325",
    "description": "KAWAII050320202110",
    "title": "KAWAII050320202110",
    "link_img": "https://live.staticflickr.com/65535/49622805466_fb1a9fa924_o.jpg",
    "id_image": "KAWAII050320202110",
    "count_view": 0
  },
  {
    "link_thumb": "https://live.staticflickr.com/65535/49742389478_3ac50af0e1_n.jpg",
    "id_album": "-1473448477",
    "description": "KAWAII060420214915230",
    "title": "KAWAII060420214915230",
    "link_img": "https://live.staticflickr.com/65535/49742389478_3142da9874_o.jpg",
    "id_image": "KAWAII060420214915230",
    "count_view": 0
  },
  {
    "link_thumb": "https://live.staticflickr.com/65535/49548731631_730093018a_n.jpg",
    "id_album": "-422187261",
    "description": "KAWAII1702202238498",
    "title": "KAWAII1702202238498",
    "link_img": "https://live.staticflickr.com/65535/49548731631_cb19aed3bd_o.jpg",
    "id_image": "KAWAII1702202238498",
    "count_view": 0
  },
  {
    "link_thumb": "https://live.staticflickr.com/65535/49727432976_ecf2008e5f_n.jpg",
    "id_album": "-1497779911",
    "description": "KAWAII120918123",
    "title": "KAWAII120918123",
    "link_img": "https://live.staticflickr.com/65535/49727432976_dff0933007_o.jpg",
    "id_image": "KAWAII120918123",
    "count_view": 0
  },
  {
    "link_thumb": "https://live.staticflickr.com/65535/49548834887_675f3dd3b1_n.jpg",
    "id_album": "-1741487325",
    "description": "KAWAII120918369",
    "title": "KAWAII120918369",
    "link_img": "https://live.staticflickr.com/65535/49548834887_e90e9472a9_o.jpg",
    "id_image": "KAWAII120918369",
    "count_view": 0
  },
  {
    "link_thumb": "https://live.staticflickr.com/65535/49548606596_66b1a69fc1_n.jpg",
    "id_album": "-1741487325",
    "description": "KAWAII120918366",
    "title": "KAWAII120918366",
    "link_img": "https://live.staticflickr.com/65535/49548606596_fb6fd5f586_o.jpg",
    "id_image": "KAWAII120918366",
    "count_view": 0
  },
  {
    "link_thumb": "https://live.staticflickr.com/65535/49694424447_8f64755220_n.jpg",
    "id_album": "-643980979",
    "description": "KAWAII270220235131",
    "title": "KAWAII270220235131",
    "link_img": "https://live.staticflickr.com/65535/49694424447_a654decb56_o.jpg",
    "id_image": "KAWAII270220235131",
    "count_view": 0
  },
  {
    "link_thumb": "https://live.staticflickr.com/65535/49548751601_4e0a006104_n.jpg",
    "id_album": "-1694302085",
    "description": "KAWAII1702202239578",
    "title": "KAWAII1702202239578",
    "link_img": "https://live.staticflickr.com/65535/49548751601_d309a50e64_o.jpg",
    "id_image": "KAWAII1702202239578",
    "count_view": 0
  },
  {
    "link_thumb": "https://live.staticflickr.com/65535/49727446656_3d400cb0f2_n.jpg",
    "id_album": "742877173",
    "description": "KAWAII020420194510205",
    "title": "KAWAII020420194510205",
    "link_img": "https://live.staticflickr.com/65535/49727446656_4aba0d4041_o.jpg",
    "id_image": "KAWAII020420194510205",
    "count_view": 0
  },
  {
    "link_thumb": "https://live.staticflickr.com/65535/49693555748_fafc0c40c6_n.jpg",
    "id_album": "1201366373",
    "description": "KAWAII120918279",
    "title": "KAWAII120918279",
    "link_img": "https://live.staticflickr.com/65535/49693555748_6c68d75bc0_o.jpg",
    "id_image": "KAWAII120918279",
    "count_view": 0
  },
  {
    "link_thumb": "https://live.staticflickr.com/65535/49548627951_1abdc4fe57_n.jpg",
    "id_album": "-316663319",
    "description": "KAWAII170220223335",
    "title": "KAWAII170220223335",
    "link_img": "https://live.staticflickr.com/65535/49548627951_b5dc7ff754_o.jpg",
    "id_image": "KAWAII170220223335",
    "count_view": 0
  },
  {
    "link_thumb": "https://live.staticflickr.com/65535/49742934841_69d09604fe_n.jpg",
    "id_album": "-1473448477",
    "description": "KAWAII06042021491514",
    "title": "KAWAII06042021491514",
    "link_img": "https://live.staticflickr.com/65535/49742934841_48a5606e88_o.jpg",
    "id_image": "KAWAII06042021491514",
    "count_view": 0
  },
  {
    "link_thumb": "https://live.staticflickr.com/65535/49693682648_1a841806bb_n.jpg",
    "id_album": "46674803",
    "description": "KAWAII24032022050349",
    "title": "KAWAII24032022050349",
    "link_img": "https://live.staticflickr.com/65535/49693682648_21aa5984af_o.jpg",
    "id_image": "KAWAII24032022050349",
    "count_view": 0
  },
  {
    "link_thumb": "https://live.staticflickr.com/65535/49592732326_ec544b524b_n.jpg",
    "id_album": "949200594",
    "description": "KAWAII27022023513",
    "title": "KAWAII27022023513",
    "link_img": "https://live.staticflickr.com/65535/49592732326_5d44a7d439_o.jpg",
    "id_image": "KAWAII27022023513",
    "count_view": 0
  },
  {
    "link_thumb": "https://live.staticflickr.com/65535/49742954436_79e38cee5f_n.jpg",
    "id_album": "-1431786825",
    "description": "KAWAII060420214912268",
    "title": "KAWAII060420214912268",
    "link_img": "https://live.staticflickr.com/65535/49742954436_2ae6f8afb5_o.jpg",
    "id_image": "KAWAII060420214912268",
    "count_view": 0
  },
  {
    "link_thumb": "https://live.staticflickr.com/65535/49548192403_fdafc163df_n.jpg",
    "id_album": "-422187261",
    "description": "KAWAII1702202237351",
    "title": "KAWAII1702202237351",
    "link_img": "https://live.staticflickr.com/65535/49548192403_27deeafaf1_o.jpg",
    "id_image": "KAWAII1702202237351",
    "count_view": 0
  },
  {
    "link_thumb": "https://live.staticflickr.com/65535/49548925972_dd3fa62419_n.jpg",
    "id_album": "-1694302085",
    "description": "KAWAII1702202237371",
    "title": "KAWAII1702202237371",
    "link_img": "https://live.staticflickr.com/65535/49548925972_2d9bcc6478_o.jpg",
    "id_image": "KAWAII1702202237371",
    "count_view": 0
  },
  {
    "link_thumb": "https://live.staticflickr.com/65535/49694113391_93707dee7b_n.jpg",
    "id_album": "1201366373",
    "description": "KAWAII1702202239507",
    "title": "KAWAII1702202239507",
    "link_img": "https://live.staticflickr.com/65535/49694113391_47d1006bf4_o.jpg",
    "id_image": "KAWAII1702202239507",
    "count_view": 0
  },
  {
    "link_thumb": "https://live.staticflickr.com/65535/49742394333_248e9fd4df_n.jpg",
    "id_album": "-1473448477",
    "description": "KAWAII06042021491769",
    "title": "KAWAII06042021491769",
    "link_img": "https://live.staticflickr.com/65535/49742394333_6a2ae180b8_o.jpg",
    "id_image": "KAWAII06042021491769",
    "count_view": 0
  },
  {
    "link_thumb": "https://live.staticflickr.com/65535/49727447791_f88960a7f0_n.jpg",
    "id_album": "742877173",
    "description": "KAWAII020420194511182",
    "title": "KAWAII020420194511182",
    "link_img": "https://live.staticflickr.com/65535/49727447791_fbd6a3f3a2_o.jpg",
    "id_image": "KAWAII020420194511182",
    "count_view": 0
  },
  {
    "link_thumb": "https://live.staticflickr.com/65535/49622285883_0f844c56b7_n.jpg",
    "id_album": "1396902986",
    "description": "KAWAII0503202021205",
    "title": "KAWAII0503202021205",
    "link_img": "https://live.staticflickr.com/65535/49622285883_25d3449fa3_o.jpg",
    "id_image": "KAWAII0503202021205",
    "count_view": 0
  },
  {
    "link_thumb": "https://live.staticflickr.com/65535/49622809301_6b0684800f_n.jpg",
    "id_album": "-1694302085",
    "description": "KAWAII0503202021105",
    "title": "KAWAII0503202021105",
    "link_img": "https://live.staticflickr.com/65535/49622809301_e17339301c_o.jpg",
    "id_image": "KAWAII0503202021105",
    "count_view": 0
  },
  {
    "link_thumb": "https://live.staticflickr.com/65535/49694428222_2c96ddc16f_n.jpg",
    "id_album": "-358592519",
    "description": "KAWAII1702202237329",
    "title": "KAWAII1702202237329",
    "link_img": "https://live.staticflickr.com/65535/49694428222_2f534c562f_o.jpg",
    "id_image": "KAWAII1702202237329",
    "count_view": 0
  },
  {
    "link_thumb": "https://live.staticflickr.com/65535/49742387398_a3c2dd7a30_n.jpg",
    "id_album": "-1473448477",
    "description": "KAWAII060420214915149",
    "title": "KAWAII060420214915149",
    "link_img": "https://live.staticflickr.com/65535/49742387398_14426b905c_o.jpg",
    "id_image": "KAWAII060420214915149",
    "count_view": 0
  },
  {
    "link_thumb": "https://live.staticflickr.com/65535/49548721141_54705f70dc_n.jpg",
    "id_album": "-422187261",
    "description": "KAWAII1702202238458",
    "title": "KAWAII1702202238458",
    "link_img": "https://live.staticflickr.com/65535/49548721141_d281d1b5e8_o.jpg",
    "id_image": "KAWAII1702202238458",
    "count_view": 0
  },
  {
    "link_thumb": "https://live.staticflickr.com/65535/49548050243_71552f7684_n.jpg",
    "id_album": "-422187261",
    "description": "KAWAII120918131",
    "title": "KAWAII120918131",
    "link_img": "https://live.staticflickr.com/65535/49548050243_7ca2a28fe6_o.jpg",
    "id_image": "KAWAII120918131",
    "count_view": 0
  },
  {
    "link_thumb": "https://live.staticflickr.com/65535/49548628346_91796a04ee_n.jpg",
    "id_album": "1396902986",
    "description": "KAWAII17022022335",
    "title": "KAWAII17022022335",
    "link_img": "https://live.staticflickr.com/65535/49548628346_1a0f884a26_o.jpg",
    "id_image": "KAWAII17022022335",
    "count_view": 0
  },
  {
    "link_thumb": "https://live.staticflickr.com/65535/49726920378_5fe622b19f_n.jpg",
    "id_album": "-1862561193",
    "description": "KAWAII02042019450970",
    "title": "KAWAII02042019450970",
    "link_img": "https://live.staticflickr.com/65535/49726920378_b7e012f436_o.jpg",
    "id_image": "KAWAII02042019450970",
    "count_view": 0
  },
  {
    "link_thumb": "https://live.staticflickr.com/65535/49548226593_ab0fbceb32_n.jpg",
    "id_album": "-422187261",
    "description": "KAWAII1702202238480",
    "title": "KAWAII1702202238480",
    "link_img": "https://live.staticflickr.com/65535/49548226593_99ae3b87b7_o.jpg",
    "id_image": "KAWAII1702202238480",
    "count_view": 0
  },
  {
    "link_thumb": "https://live.staticflickr.com/65535/49622820876_fc8721d380_n.jpg",
    "id_album": "-316663319",
    "description": "KAWAII0503202021186",
    "title": "KAWAII0503202021186",
    "link_img": "https://live.staticflickr.com/65535/49622820876_96a3384dc2_o.jpg",
    "id_image": "KAWAII0503202021186",
    "count_view": 0
  },
  {
    "link_thumb": "https://live.staticflickr.com/65535/49726877388_a4e361fe15_n.jpg",
    "id_album": "-1694302085",
    "description": "KAWAII020420194508186",
    "title": "KAWAII020420194508186",
    "link_img": "https://live.staticflickr.com/65535/49726877388_5fefe1e036_o.jpg",
    "id_image": "KAWAII020420194508186",
    "count_view": 0
  },
  {
    "link_thumb": "https://live.staticflickr.com/65535/49694110351_5db1d489ac_n.jpg",
    "id_album": "-643980979",
    "description": "KAWAII1702202236295",
    "title": "KAWAII1702202236295",
    "link_img": "https://live.staticflickr.com/65535/49694110351_b45f617bf8_o.jpg",
    "id_image": "KAWAII1702202236295",
    "count_view": 0
  },
  {
    "link_thumb": "https://live.staticflickr.com/65535/49622303293_655cb13b6d_n.jpg",
    "id_album": "-316663319",
    "description": "KAWAII0503202021146",
    "title": "KAWAII0503202021146",
    "link_img": "https://live.staticflickr.com/65535/49622303293_d1c675112f_o.jpg",
    "id_image": "KAWAII0503202021146",
    "count_view": 0
  },
  {
    "link_thumb": "https://live.staticflickr.com/65535/49742934366_ef750daf0f_n.jpg",
    "id_album": "-1473448477",
    "description": "KAWAII060420214914180",
    "title": "KAWAII060420214914180",
    "link_img": "https://live.staticflickr.com/65535/49742934366_cbb2ac1530_o.jpg",
    "id_image": "KAWAII060420214914180",
    "count_view": 0
  },
  {
    "link_thumb": "https://live.staticflickr.com/65535/49548056578_4ebb66f297_n.jpg",
    "id_album": "-1741487325",
    "description": "KAWAII120918159",
    "title": "KAWAII120918159",
    "link_img": "https://live.staticflickr.com/65535/49548056578_89ae5d8390_o.jpg",
    "id_image": "KAWAII120918159",
    "count_view": 0
  },
  {
    "link_thumb": "https://live.staticflickr.com/65535/49727426901_aa4714b602_n.jpg",
    "id_album": "-1694302085",
    "description": "KAWAII1702202235162",
    "title": "KAWAII1702202235162",
    "link_img": "https://live.staticflickr.com/65535/49727426901_c3b836d30b_o.jpg",
    "id_image": "KAWAII1702202235162",
    "count_view": 0
  },
  {
    "link_thumb": "https://live.staticflickr.com/65535/49726883238_c1f6625ddc_n.jpg",
    "id_album": "-1497779911",
    "description": "KAWAII020420194512169",
    "title": "KAWAII020420194512169",
    "link_img": "https://live.staticflickr.com/65535/49726883238_e983ae8813_o.jpg",
    "id_image": "KAWAII020420194512169",
    "count_view": 0
  },
  {
    "link_thumb": "https://live.staticflickr.com/65535/49693527958_5451a2d822_n.jpg",
    "id_album": "-643980979",
    "description": "KAWAII0503202021179",
    "title": "KAWAII0503202021179",
    "link_img": "https://live.staticflickr.com/65535/49693527958_ce1a1d65b4_o.jpg",
    "id_image": "KAWAII0503202021179",
    "count_view": 0
  },
  {
    "link_thumb": "https://live.staticflickr.com/65535/49742408918_213cc96f26_n.jpg",
    "id_album": "-1431786825",
    "description": "KAWAII06042021491547",
    "title": "KAWAII06042021491547",
    "link_img": "https://live.staticflickr.com/65535/49742408918_6001cd189c_o.jpg",
    "id_image": "KAWAII06042021491547",
    "count_view": 0
  },
  {
    "link_thumb": "https://live.staticflickr.com/65535/49727741362_aa4939b53a_n.jpg",
    "id_album": "-1694302085",
    "description": "KAWAII1702202238438",
    "title": "KAWAII1702202238438",
    "link_img": "https://live.staticflickr.com/65535/49727741362_428eb0275b_o.jpg",
    "id_image": "KAWAII1702202238438",
    "count_view": 0
  },
  {
    "link_thumb": "https://live.staticflickr.com/65535/49694124856_a23b5e8b4a_n.jpg",
    "id_album": "-358592519",
    "description": "KAWAII1702202236225",
    "title": "KAWAII1702202236225",
    "link_img": "https://live.staticflickr.com/65535/49694124856_a72e80d765_o.jpg",
    "id_image": "KAWAII1702202236225",
    "count_view": 0
  },
  {
    "link_thumb": "https://live.staticflickr.com/65535/49623161222_daf7824de2_n.jpg",
    "id_album": "949200594",
    "description": "KAWAII0503202021145",
    "title": "KAWAII0503202021145",
    "link_img": "https://live.staticflickr.com/65535/49623161222_aa6d7bb9f6_o.jpg",
    "id_image": "KAWAII0503202021145",
    "count_view": 0
  },
  {
    "link_thumb": "https://live.staticflickr.com/65535/49726881143_d4a10af099_n.jpg",
    "id_album": "-1741487325",
    "description": "KAWAII02042019450827",
    "title": "KAWAII02042019450827",
    "link_img": "https://live.staticflickr.com/65535/49726881143_99a3e5255f_o.jpg",
    "id_image": "KAWAII02042019450827",
    "count_view": 0
  },
  {
    "link_thumb": "https://live.staticflickr.com/65535/49622826041_e7d0205d93_n.jpg",
    "id_album": "-316663319",
    "description": "KAWAII0503202021235",
    "title": "KAWAII0503202021235",
    "link_img": "https://live.staticflickr.com/65535/49622826041_722579ba3e_o.jpg",
    "id_image": "KAWAII0503202021235",
    "count_view": 0
  },
  {
    "link_thumb": "https://live.staticflickr.com/65535/49742953836_b71ac9c8d5_n.jpg",
    "id_album": "-358592519",
    "description": "KAWAII060420214915311",
    "title": "KAWAII060420214915311",
    "link_img": "https://live.staticflickr.com/65535/49742953836_43140ac6c7_o.jpg",
    "id_image": "KAWAII060420214915311",
    "count_view": 0
  },
  {
    "link_thumb": "https://live.staticflickr.com/65535/49548146233_188fafd02f_n.jpg",
    "id_album": "-1694302085",
    "description": "KAWAII1702202235127",
    "title": "KAWAII1702202235127",
    "link_img": "https://live.staticflickr.com/65535/49548146233_e99c3e4208_o.jpg",
    "id_image": "KAWAII1702202235127",
    "count_view": 0
  }
]